<?xml version="1.0" encoding="UTF-8" standalone="no"?>
<!-- Created with Inkscape (http://www.inkscape.org/) -->

<svg
   xmlns:dc="http://purl.org/dc/elements/1.1/"
   xmlns:cc="http://creativecommons.org/ns#"
   xmlns:rdf="http://www.w3.org/1999/02/22-rdf-syntax-ns#"
   xmlns:svg="http://www.w3.org/2000/svg"
   xmlns="http://www.w3.org/2000/svg"
   xmlns:sodipodi="http://sodipodi.sourceforge.net/DTD/sodipodi-0.dtd"
   xmlns:inkscape="http://www.inkscape.org/namespaces/inkscape"
   width="50mm"
   height="50mm"
   viewBox="0 0 49.999999 49.999999"
   version="1.1"
   id="svg9253"
   inkscape:version="0.92.3 (2405546, 2018-03-11)"
   sodipodi:docname="Committed_to_the_Safety_icon.svg">
  <defs
     id="defs9247">
    <clipPath
       clipPathUnits="userSpaceOnUse"
       id="clipPath4305">
      <path
         d="M 0,0 H 1920 V 6826.783 H 0 Z"
         id="path4303"
         inkscape:connector-curvature="0" />
    </clipPath>
    <clipPath
       clipPathUnits="userSpaceOnUse"
       id="clipPath4321">
      <path
         d="M 0,0 H 1920 V 6826.783 H 0 Z"
         id="path4319"
         inkscape:connector-curvature="0" />
    </clipPath>
    <clipPath
       clipPathUnits="userSpaceOnUse"
       id="clipPath4337">
      <path
         d="M 0,0 H 1920 V 6826.783 H 0 Z"
         id="path4335"
         inkscape:connector-curvature="0" />
    </clipPath>
    <clipPath
       clipPathUnits="userSpaceOnUse"
       id="clipPath4353">
      <path
         d="M 0,0 H 1920 V 6826.783 H 0 Z"
         id="path4351"
         inkscape:connector-curvature="0" />
    </clipPath>
    <clipPath
       clipPathUnits="userSpaceOnUse"
       id="clipPath4377">
      <path
         d="M 0,0 H 1920 V 6826.783 H 0 Z"
         id="path4375"
         inkscape:connector-curvature="0" />
    </clipPath>
    <clipPath
       clipPathUnits="userSpaceOnUse"
       id="clipPath4393">
      <path
         d="M 0,0 H 1920 V 6826.783 H 0 Z"
         id="path4391"
         inkscape:connector-curvature="0" />
    </clipPath>
    <clipPath
       clipPathUnits="userSpaceOnUse"
       id="clipPath4413">
      <path
         d="M 0,0 H 1920 V 6826.783 H 0 Z"
         id="path4411"
         inkscape:connector-curvature="0" />
    </clipPath>
    <clipPath
       clipPathUnits="userSpaceOnUse"
       id="clipPath4437">
      <path
         d="M 0,0 H 1920 V 6826.783 H 0 Z"
         id="path4435"
         inkscape:connector-curvature="0" />
    </clipPath>
    <clipPath
       clipPathUnits="userSpaceOnUse"
       id="clipPath4453">
      <path
         d="M 0,0 H 1920 V 6826.783 H 0 Z"
         id="path4451"
         inkscape:connector-curvature="0" />
    </clipPath>
    <clipPath
       clipPathUnits="userSpaceOnUse"
       id="clipPath4481">
      <path
         d="M 0,0 H 1920 V 6826.783 H 0 Z"
         id="path4479"
         inkscape:connector-curvature="0" />
    </clipPath>
  </defs>
  <sodipodi:namedview
     id="base"
     pagecolor="#ffffff"
     bordercolor="#666666"
     borderopacity="1.0"
     inkscape:pageopacity="0.0"
     inkscape:pageshadow="2"
     inkscape:zoom="3.4819167"
     inkscape:cx="94.488189"
     inkscape:cy="94.488189"
     inkscape:document-units="mm"
     inkscape:current-layer="layer1"
     showgrid="false"
     inkscape:window-width="1440"
     inkscape:window-height="838"
     inkscape:window-x="-8"
     inkscape:window-y="-8"
     inkscape:window-maximized="1" />
  <metadata
     id="metadata9250">
    <rdf:RDF>
      <cc:Work
         rdf:about="">
        <dc:format>image/svg+xml</dc:format>
        <dc:type
           rdf:resource="http://purl.org/dc/dcmitype/StillImage" />
        <dc:title></dc:title>
      </cc:Work>
    </rdf:RDF>
  </metadata>
  <g
     inkscape:label="Layer 1"
     inkscape:groupmode="layer"
     id="layer1"
     transform="translate(0,-246.99998)">
    <g
       transform="matrix(0.35277777,0,0,-0.35277777,-62.812314,1372.2603)"
       id="g9089">
      <g
         transform="translate(295.073,3170.4409)"
         id="g3347">
        <path
           inkscape:connector-curvature="0"
           id="path3349"
           style="fill:#00aeef;fill-opacity:1;fill-rule:nonzero;stroke:none"
           d="m 0,0 -15.497,6.785 c -0.527,0.23 -1.132,0.23 -1.659,0 L -32.651,0.001 c -0.757,-0.33 -1.245,-1.076 -1.245,-1.901 v -18.433 c 0.004,-3.365 1.635,-6.549 4.361,-8.519 l 11.995,-8.652 c 0.363,-0.262 0.788,-0.393 1.213,-0.393 0.426,0 0.851,0.131 1.214,0.393 l 11.997,8.652 c 2.725,1.971 4.356,5.155 4.36,8.519 V -1.9 C 1.244,-1.074 0.755,-0.328 0,0 m -2.905,-3.255 v -17.076 c -0.004,-2.036 -0.991,-3.963 -2.639,-5.155 l -10.782,-7.778 -10.781,7.777 c -1.65,1.193 -2.636,3.12 -2.64,5.154 v 17.078 l 13.421,5.874 z" />
      </g>
      <g
         transform="translate(271.5393,3153.5527)"
         id="g3351">
        <path
           inkscape:connector-curvature="0"
           id="path3353"
           style="fill:#00aeef;fill-opacity:1;fill-rule:nonzero;stroke:none"
           d="m 0,0 c -0.443,0.333 -0.99,0.473 -1.539,0.394 -0.548,-0.078 -1.033,-0.366 -1.366,-0.809 -0.332,-0.443 -0.472,-0.99 -0.394,-1.538 0.078,-0.549 0.366,-1.034 0.809,-1.366 l 5.636,-4.226 c 0.357,-0.268 0.799,-0.416 1.248,-0.416 0.116,0.001 0.231,0.011 0.346,0.03 0.559,0.095 1.06,0.421 1.376,0.894 l 11.27,16.904 c 0.41,0.615 0.461,1.409 0.134,2.07 -0.327,0.663 -0.989,1.104 -1.725,1.152 -0.736,0.048 -1.451,-0.303 -1.861,-0.919 L 3.88,-2.911 Z" />
      </g>
      <g
         transform="translate(306.4502,3113.4233)"
         id="g3355">
        <path
           inkscape:connector-curvature="0"
           id="path3357"
           style="fill:#00aeef;fill-opacity:1;fill-rule:nonzero;stroke:none"
           d="m 0,0 c 0,-1.177 0.954,-2.131 2.131,-2.131 1.177,0 2.131,0.954 2.131,2.131 0.019,7.627 -1.549,15.174 -4.603,22.163 -0.438,1.092 -1.678,1.623 -2.771,1.185 -1.092,-0.437 -1.623,-1.678 -1.185,-2.77 0.016,-0.041 0.033,-0.081 0.052,-0.12 C -1.428,14.006 0.017,7.04 0,0" />
      </g>
      <g
         transform="translate(206.8123,3149.4377)"
         id="g3359">
        <path
           inkscape:connector-curvature="0"
           id="path3361"
           style="fill:#00aeef;fill-opacity:1;fill-rule:nonzero;stroke:none"
           d="m 0,0 c -0.765,-0.895 -0.66,-2.24 0.234,-3.005 0.895,-0.765 2.24,-0.66 3.005,0.235 9.712,11.363 23.913,17.905 38.861,17.9 1.177,0 2.131,0.954 2.131,2.131 0,1.177 -0.954,2.131 -2.131,2.131 C 25.906,19.396 10.522,12.31 0,0" />
      </g>
      <g
         transform="translate(296.7136,3109.6921)"
         id="g3363">
        <path
           inkscape:connector-curvature="0"
           id="path3365"
           style="fill:#00aeef;fill-opacity:1;fill-rule:nonzero;stroke:none"
           d="m 0,0 c -0.786,0.779 -1.668,1.453 -2.625,2.007 4.523,3.764 5.139,10.483 1.375,15.006 -3.764,4.524 -10.482,5.139 -15.006,1.375 -4.523,-3.763 -5.139,-10.482 -1.375,-15.005 0.51,-0.614 1.089,-1.168 1.723,-1.653 -0.763,-0.486 -1.472,-1.053 -2.114,-1.692 l -3.874,-3.678 c -1.356,-1.296 -3.505,-1.253 -4.808,0.096 l -14.188,14.19 c -0.603,0.602 -1.265,1.141 -1.976,1.609 5.889,3.898 7.503,11.831 3.606,17.72 -3.898,5.888 -11.831,7.502 -17.719,3.605 -5.889,-3.897 -7.503,-11.83 -3.606,-17.719 0.948,-1.432 2.174,-2.658 3.606,-3.606 -0.71,-0.47 -1.371,-1.009 -1.974,-1.611 l -10.857,-10.868 -9.566,6.87 c -0.55,0.523 -1.146,0.996 -1.78,1.413 0.866,0.591 1.658,1.284 2.357,2.065 h 5.428 c 1.177,0 2.131,0.953 2.132,2.13 0,0.331 -0.077,0.658 -0.225,0.954 l -4.743,9.49 c -0.38,1.176 -0.932,2.289 -1.639,3.302 -0.118,0.23 -0.278,0.435 -0.471,0.606 -4.34,5.502 -12.318,6.444 -17.82,2.105 -0.852,-0.673 -1.615,-1.452 -2.269,-2.318 -0.084,-0.093 -0.161,-0.192 -0.23,-0.297 -0.735,-1.036 -1.309,-2.177 -1.705,-3.384 l -4.752,-9.5 c -0.529,-1.051 -0.105,-2.332 0.947,-2.861 0.292,-0.147 0.614,-0.224 0.941,-0.227 h 5.444 C -97.067,9.35 -96.28,8.663 -95.418,8.079 -96.102,7.622 -96.74,7.1 -97.324,6.521 l -12.451,-12.592 c -2.598,-2.598 -2.598,-6.809 -10e-4,-9.406 1.248,-1.248 2.94,-1.949 4.704,-1.949 1.579,0.006 3.105,0.568 4.311,1.588 l -4.507,-18.113 c -0.293,-1.14 0.393,-2.302 1.533,-2.595 0.172,-0.044 0.35,-0.067 0.528,-0.067 h 4.262 v -6.393 c -0.003,-3.522 2.85,-6.378 6.372,-6.38 1.583,-10e-4 3.109,0.587 4.283,1.649 2.61,-2.363 6.642,-2.163 9.006,0.448 1.062,1.173 1.65,2.7 1.649,4.283 v 6.393 h 4.262 c 1.177,-10e-4 2.132,0.952 2.132,2.129 0.001,0.175 -0.021,0.349 -0.063,0.518 l -5.257,21.146 2.941,-1.52 c 1.266,-0.664 2.681,-0.994 4.11,-0.959 0.137,-0.008 0.275,-0.005 0.412,0.011 0.093,0 0.192,-0.015 0.245,-0.015 1.764,0.005 3.455,0.706 4.705,1.95 l 3.561,3.561 v -33.214 c -0.01,-3.518 2.833,-6.378 6.351,-6.388 1.591,-0.005 3.127,0.586 4.304,1.657 2.61,-2.363 6.643,-2.163 9.006,0.448 1.062,1.173 1.65,2.7 1.649,4.283 v 33.214 l 6.819,-6.819 c 3.206,-3.306 8.101,-4.327 12.36,-2.579 v -23.816 c -0.01,-3.518 2.834,-6.378 6.351,-6.388 1.592,-0.005 3.127,0.586 4.304,1.657 2.611,-2.363 6.643,-2.163 9.006,0.448 1.062,1.173 1.65,2.7 1.649,4.283 v 22.766 l 3.561,-3.357 c 2.599,-2.597 6.812,-2.596 9.409,0.003 1.246,1.247 1.947,2.937 1.948,4.7 0.005,1.765 -0.697,3.459 -1.948,4.703 z m -9.443,16.517 c 3.531,0 6.393,-2.862 6.393,-6.393 0,-3.53 -2.862,-6.393 -6.393,-6.393 -3.53,0 -6.393,2.863 -6.393,6.393 0,3.531 2.863,6.393 6.393,6.393 m -40.489,14.918 c 4.708,0 8.524,-3.817 8.524,-8.525 0,-4.707 -3.816,-8.524 -8.524,-8.524 -4.708,0 -8.524,3.817 -8.524,8.524 0,4.708 3.816,8.525 8.524,8.525 M -95.058,13.534 c -0.403,0.537 -1.035,0.852 -1.705,0.852 h -2.984 l 3.274,6.555 c 0.048,0.097 0.089,0.196 0.123,0.299 0.266,0.848 0.663,1.65 1.177,2.376 0.038,0.045 0.078,0.092 0.115,0.141 2.769,3.742 8.048,4.531 11.791,1.761 0.671,-0.496 1.265,-1.09 1.762,-1.761 0.034,-0.047 0.072,-0.092 0.111,-0.137 0.516,-0.726 0.915,-1.529 1.18,-2.38 0.034,-0.103 0.076,-0.202 0.124,-0.299 l 3.277,-6.555 h -2.983 c -0.671,0 -1.302,-0.315 -1.705,-0.852 -1.469,-1.951 -3.713,-3.168 -6.15,-3.335 -0.437,0.021 -0.867,0.026 -1.304,0 -2.42,0.181 -4.644,1.396 -6.103,3.335 M 9.487,-21.282 c -0.654,0.005 -1.28,0.272 -1.737,0.741 l -7.198,6.798 c -0.852,0.812 -2.201,0.78 -3.013,-0.072 -0.382,-0.401 -0.593,-0.934 -0.589,-1.488 v -27.703 c 0,-1.177 -0.954,-2.131 -2.131,-2.131 -1.177,0 -2.131,0.954 -2.131,2.131 v 15.944 c 0,1.177 -0.954,2.131 -2.131,2.131 -1.177,0 -2.131,-0.954 -2.131,-2.131 v -15.944 c 0,-1.177 -0.954,-2.131 -2.131,-2.131 -1.177,0 -2.131,0.954 -2.131,2.131 v 27.703 c 10e-4,1.177 -0.953,2.131 -2.13,2.132 -0.544,0 -1.067,-0.207 -1.462,-0.58 -2.756,-2.721 -7.195,-2.694 -9.916,0.061 -0.033,0.035 -0.067,0.07 -0.1,0.105 l -10.442,10.442 c -0.824,0.84 -2.174,0.853 -3.014,0.029 -0.412,-0.404 -0.642,-0.957 -0.639,-1.534 v -38.358 c 0,-1.177 -0.954,-2.131 -2.131,-2.131 -1.177,0 -2.131,0.954 -2.131,2.131 v 25.572 c 0,1.177 -0.954,2.131 -2.131,2.131 -1.177,0 -2.131,-0.954 -2.131,-2.131 v -25.572 c 0,-1.177 -0.954,-2.131 -2.131,-2.131 -1.177,0 -2.131,0.954 -2.131,2.131 v 38.358 c 0,1.177 -0.955,2.131 -2.132,2.131 -0.564,0 -1.106,-0.225 -1.506,-0.624 l -7.192,-7.192 c -0.411,-0.416 -0.96,-0.667 -1.543,-0.706 -0.055,0 -0.213,0.026 -0.277,0.03 -0.064,0.004 -0.11,0 -0.164,0 -0.099,0.008 -0.199,0.008 -0.298,0 -0.072,0 -0.144,-0.011 -0.213,-0.032 -0.696,0.001 -1.381,0.168 -1.999,0.486 l -7.124,3.685 c -1.046,0.54 -2.331,0.131 -2.872,-0.914 -0.238,-0.46 -0.3,-0.99 -0.176,-1.492 l 5.737,-23.075 h -3.682 c -1.177,0 -2.131,-0.954 -2.131,-2.131 v -8.524 c 0,-1.177 -0.954,-2.131 -2.131,-2.131 -1.177,0 -2.131,0.954 -2.131,2.131 v 8.524 c 0,1.177 -0.954,2.131 -2.131,2.131 -1.177,0 -2.131,-0.954 -2.131,-2.131 v -8.524 c 0,-1.177 -0.954,-2.131 -2.131,-2.131 -1.177,0 -2.131,0.954 -2.131,2.131 v 8.524 c 0,1.177 -0.954,2.131 -2.131,2.131 h -3.659 l 5.736,23.083 c 0.283,1.143 -0.414,2.298 -1.556,2.581 -0.736,0.182 -1.513,-0.041 -2.041,-0.584 l -5.048,-5.193 c -0.928,-0.939 -2.441,-0.947 -3.378,-0.019 -0.454,0.449 -0.71,1.061 -0.709,1.7 -0.004,0.64 0.251,1.255 0.707,1.705 L -94.3,3.518 c 1.366,1.353 3.152,2.199 5.064,2.398 0.317,-0.024 0.639,-0.051 0.954,-0.051 0.316,0 0.64,0.027 0.955,0.051 1.911,-0.199 3.698,-1.045 5.063,-2.398 0.082,-0.082 0.17,-0.158 0.264,-0.226 l 11.171,-8.021 c 0.848,-0.608 2.012,-0.512 2.749,0.226 l 12.147,12.147 c 3.327,3.316 8.709,3.316 12.036,0 l 14.21,-14.235 c 2.935,-2.969 7.71,-3.03 10.721,-0.139 l 3.912,3.715 c 3.368,3.215 8.669,3.215 12.036,0 l 14.189,-14.189 c 0.933,-0.932 0.933,-2.445 0.001,-3.378 -0.448,-0.449 -1.055,-0.7 -1.689,-0.7 z" />
      </g>
    </g>
  </g>
</svg>
