<?xml version="1.0" encoding="UTF-8" standalone="no"?>
<!-- Created with Inkscape (http://www.inkscape.org/) -->

<svg
   xmlns:dc="http://purl.org/dc/elements/1.1/"
   xmlns:cc="http://creativecommons.org/ns#"
   xmlns:rdf="http://www.w3.org/1999/02/22-rdf-syntax-ns#"
   xmlns:svg="http://www.w3.org/2000/svg"
   xmlns="http://www.w3.org/2000/svg"
   xmlns:sodipodi="http://sodipodi.sourceforge.net/DTD/sodipodi-0.dtd"
   xmlns:inkscape="http://www.inkscape.org/namespaces/inkscape"
   width="19.577mm"
   height="17.379999mm"
   viewBox="0 0 19.577 17.379999"
   version="1.1"
   id="svg26031"
   inkscape:version="0.92.3 (2405546, 2018-03-11)"
   sodipodi:docname="Contract_Manufacturing_icon_dropdown.svg">
  <defs
     id="defs26025">
    <clipPath
       clipPathUnits="userSpaceOnUse"
       id="clipPath25450">
      <path
         d="M 0,0 H 1920 V 1080 H 0 Z"
         id="path25448"
         inkscape:connector-curvature="0" />
    </clipPath>
  </defs>
  <sodipodi:namedview
     id="base"
     pagecolor="#ffffff"
     bordercolor="#666666"
     borderopacity="1.0"
     inkscape:pageopacity="0.0"
     inkscape:pageshadow="2"
     inkscape:zoom="10.017022"
     inkscape:cx="36.995905"
     inkscape:cy="32.844093"
     inkscape:document-units="mm"
     inkscape:current-layer="layer1"
     showgrid="false"
     inkscape:window-width="1440"
     inkscape:window-height="838"
     inkscape:window-x="-8"
     inkscape:window-y="-8"
     inkscape:window-maximized="1" />
  <metadata
     id="metadata26028">
    <rdf:RDF>
      <cc:Work
         rdf:about="">
        <dc:format>image/svg+xml</dc:format>
        <dc:type
           rdf:resource="http://purl.org/dc/dcmitype/StillImage" />
        <dc:title></dc:title>
      </cc:Work>
    </rdf:RDF>
  </metadata>
  <g
     inkscape:label="Layer 1"
     inkscape:groupmode="layer"
     id="layer1"
     transform="translate(0,-279.62)">
    <g
       transform="matrix(0.35277777,0,0,-0.35277777,-42.90775,580.75039)"
       id="g25444">
      <g
         id="g25446"
         clip-path="url(#clipPath25450)">
        <g
           id="g25452"
           transform="translate(174.5747,806.0309)">
          <path
             d="m 0,0 v 34.26 c 0,2.99 -2.219,5.47 -5.096,5.884 v 4.875 c 0,1.869 -1.525,2.548 -2.549,2.548 h -29.446 c -1.87,0 -2.548,-1.524 -2.548,-2.548 V 29.981 c -2.771,-0.2 -5.355,-1.381 -7.351,-3.377 -2.198,-2.198 -3.408,-5.111 -3.408,-8.2 V 0 h -2.549 V -1.699 H 2.548 V 0 Z M -28.88,0 H -48.7 v 3.964 h 19.82 z m 0,5.663 H -48.7 v 6.229 h 17.272 v 1.699 H -48.7 v 4.813 c 0,2.636 1.034,5.121 2.911,6.999 1.878,1.877 4.363,2.911 6.999,2.911 5.464,0 9.91,-4.446 9.91,-9.91 z M -25.482,0 h -1.699 v 18.404 c 0,6.115 -4.753,11.141 -10.759,11.577 v 15.028 c 0.01,0.392 0.165,0.859 0.849,0.859 h 15.846 c 0.392,-0.01 0.859,-0.165 0.859,-0.849 v -4.874 c -1.264,-0.181 -2.431,-0.762 -3.353,-1.683 -1.124,-1.125 -1.743,-2.617 -1.743,-4.202 z m 10.193,0 h -8.494 v 3.964 h 8.494 z m 0,5.663 h -3.398 v 16.139 h -1.699 V 5.663 h -3.398 V 34.26 c 0,1.131 0.443,2.197 1.247,3.001 0.803,0.803 1.869,1.246 3.001,1.246 2.341,0 4.247,-1.905 4.247,-4.247 z M -11.892,0 h -1.699 v 34.26 c 0,2.99 -2.219,5.47 -5.096,5.884 v 4.875 c 0,0.317 -0.045,0.598 -0.122,0.849 h 11.164 c 0.003,0 0.246,-0.011 0.47,-0.123 0.188,-0.094 0.38,-0.253 0.38,-0.726 v -4.874 c -1.264,-0.181 -2.432,-0.762 -3.353,-1.683 -1.124,-1.125 -1.744,-2.617 -1.744,-4.202 z m 10.193,0 h -8.494 v 3.964 h 8.494 z m 0,5.663 H -5.096 V 21.802 H -6.795 V 5.663 h -3.398 V 34.26 c 0,1.131 0.442,2.197 1.247,3.001 0.803,0.803 1.869,1.246 3,1.246 2.342,0 4.247,-1.905 4.247,-4.247 z"
             style="fill:#034d70;fill-opacity:1;fill-rule:nonzero;stroke:none"
             id="path25454"
             inkscape:connector-curvature="0" />
        </g>
      </g>
    </g>
  </g>
</svg>
