<?xml version="1.0" encoding="UTF-8" standalone="no"?>
<!-- Created with Inkscape (http://www.inkscape.org/) -->

<svg
   xmlns:dc="http://purl.org/dc/elements/1.1/"
   xmlns:cc="http://creativecommons.org/ns#"
   xmlns:rdf="http://www.w3.org/1999/02/22-rdf-syntax-ns#"
   xmlns:svg="http://www.w3.org/2000/svg"
   xmlns="http://www.w3.org/2000/svg"
   xmlns:sodipodi="http://sodipodi.sourceforge.net/DTD/sodipodi-0.dtd"
   xmlns:inkscape="http://www.inkscape.org/namespaces/inkscape"
   width="40mm"
   height="40mm"
   viewBox="0 0 40 40"
   version="1.1"
   id="svg10501"
   inkscape:version="0.92.3 (2405546, 2018-03-11)"
   sodipodi:docname="food_icon.svg">
  <defs
     id="defs10495">
    <clipPath
       clipPathUnits="userSpaceOnUse"
       id="clipPath3445">
      <path
         d="M 0,0 H 1920 V 6826.783 H 0 Z"
         id="path3443"
         inkscape:connector-curvature="0" />
    </clipPath>
    <clipPath
       clipPathUnits="userSpaceOnUse"
       id="clipPath3425">
      <path
         d="M 0,0 H 1920 V 6826.783 H 0 Z"
         id="path3423"
         inkscape:connector-curvature="0" />
    </clipPath>
    <clipPath
       clipPathUnits="userSpaceOnUse"
       id="clipPath3529">
      <path
         d="M 0,0 H 1920 V 6826.783 H 0 Z"
         id="path3527"
         inkscape:connector-curvature="0" />
    </clipPath>
    <clipPath
       clipPathUnits="userSpaceOnUse"
       id="clipPath3553">
      <path
         d="M 0,0 H 1920 V 6826.783 H 0 Z"
         id="path3551"
         inkscape:connector-curvature="0" />
    </clipPath>
    <clipPath
       clipPathUnits="userSpaceOnUse"
       id="clipPath3465">
      <path
         d="M 0,0 H 1920 V 6826.783 H 0 Z"
         id="path3463"
         inkscape:connector-curvature="0" />
    </clipPath>
  </defs>
  <sodipodi:namedview
     id="base"
     pagecolor="#ffffff"
     bordercolor="#666666"
     borderopacity="1.0"
     inkscape:pageopacity="0.0"
     inkscape:pageshadow="2"
     inkscape:zoom="4.3523958"
     inkscape:cx="75.590551"
     inkscape:cy="75.590551"
     inkscape:document-units="mm"
     inkscape:current-layer="layer1"
     showgrid="false"
     inkscape:window-width="1440"
     inkscape:window-height="838"
     inkscape:window-x="-8"
     inkscape:window-y="-8"
     inkscape:window-maximized="1" />
  <metadata
     id="metadata10498">
    <rdf:RDF>
      <cc:Work
         rdf:about="">
        <dc:format>image/svg+xml</dc:format>
        <dc:type
           rdf:resource="http://purl.org/dc/dcmitype/StillImage" />
        <dc:title></dc:title>
      </cc:Work>
    </rdf:RDF>
  </metadata>
  <g
     inkscape:label="Layer 1"
     inkscape:groupmode="layer"
     id="layer1"
     transform="translate(0,-257)">
    <g
       transform="matrix(0.35277777,0,0,-0.35277777,-429.91501,1037.2392)"
       id="g3459">
      <g
         id="g3461"
         clip-path="url(#clipPath3465)">
        <g
           id="g3467"
           transform="translate(1275.3496,2189.6306)">
          <path
             d="m 0,0 c -19.121,0 -34.621,-15.501 -34.621,-34.622 0,-19.121 15.5,-34.621 34.621,-34.621 19.121,0 34.622,15.5 34.622,34.621 C 34.6,-15.51 19.112,-0.022 0,0 m 0,-65.781 c -17.209,0 -31.159,13.95 -31.159,31.159 0,17.209 13.95,31.16 31.159,31.16 17.209,0 31.159,-13.951 31.159,-31.16 C 31.139,-51.822 17.201,-65.761 0,-65.781"
             style="fill:#034d70;fill-opacity:1;fill-rule:nonzero;stroke:none"
             id="path3469"
             inkscape:connector-curvature="0" />
        </g>
        <g
           id="g3471"
           transform="translate(1324.656,2196.2258)">
          <path
             d="m 0,0 c -1.588,0.662 -3.418,0.298 -4.632,-0.921 -4.234,-4.212 -6.607,-9.942 -6.591,-15.914 v -22.651 c 0.01,-2.193 1.395,-4.144 3.463,-4.875 V -77.57 c 0,-2.868 2.325,-5.193 5.193,-5.193 2.868,0 5.193,2.325 5.193,5.193 V -3.928 C 2.63,-2.207 1.592,-0.655 0,0 m -0.836,-77.57 c 0,-0.956 -0.775,-1.731 -1.731,-1.731 -0.956,0 -1.731,0.775 -1.731,1.731 v 32.891 h 3.462 z m -5.193,36.353 c -0.956,0 -1.731,0.775 -1.731,1.731 v 22.651 c -0.013,5.053 1.995,9.901 5.577,13.465 0.14,0.149 0.334,0.235 0.538,0.237 0.111,-0.002 0.22,-0.024 0.322,-0.068 0.302,-0.113 0.497,-0.406 0.487,-0.728 v -37.288 z"
             style="fill:#034d70;fill-opacity:1;fill-rule:nonzero;stroke:none"
             id="path3473"
             inkscape:connector-curvature="0" />
        </g>
        <g
           id="g3475"
           transform="translate(1268.4253,2160.2021)">
          <path
             d="m 0,0 c 0,3.824 -3.1,6.924 -6.924,6.924 -3.825,0 -6.924,-3.1 -6.924,-6.924 0,-3.824 3.099,-6.924 6.924,-6.924 C -3.1,-6.924 0,-3.824 0,0 m -6.924,-3.462 c -1.912,0 -3.462,1.55 -3.462,3.462 0,1.912 1.55,3.462 3.462,3.462 1.912,0 3.462,-1.55 3.462,-3.462 0,-1.912 -1.55,-3.462 -3.462,-3.462"
             style="fill:#034d70;fill-opacity:1;fill-rule:nonzero;stroke:none"
             id="path3477"
             inkscape:connector-curvature="0" />
        </g>
        <g
           id="g3479"
           transform="translate(1265.531,2144.4736)">
          <path
             d="m 0,0 4.774,4.774 c 0.365,0.362 0.859,0.567 1.373,0.568 2.982,0.004 5.399,2.42 5.403,5.403 v 6.924 c 0.004,1.434 -0.566,2.81 -1.582,3.821 L 6.924,24.533 C 6.559,24.896 6.355,25.39 6.356,25.906 6.353,28.888 3.936,31.304 0.954,31.308 H -5.97 c -1.433,-0.003 -2.806,-0.572 -3.821,-1.582 l -6.505,-6.505 c -1.017,-1.011 -1.587,-2.387 -1.582,-3.821 v -7.343 c -0.005,-1.434 0.565,-2.81 1.582,-3.821 l 3.043,-3.043 c 0.365,-0.363 0.569,-0.858 0.568,-1.372 0.004,-2.983 2.42,-5.399 5.402,-5.403 h 3.462 C -2.388,-1.579 -1.015,-1.01 0,0 m -9.223,3.821 c 0.004,1.433 -0.566,2.809 -1.582,3.82 l -3.044,3.043 c -0.365,0.363 -0.569,0.858 -0.567,1.373 V 19.4 c -0.002,0.515 0.202,1.01 0.567,1.373 l 6.506,6.505 c 0.365,0.363 0.858,0.566 1.373,0.568 h 6.924 c 1.071,-0.001 1.94,-0.869 1.94,-1.94 C 2.89,24.472 3.46,23.096 4.477,22.085 L 7.52,19.042 C 7.885,18.678 8.089,18.184 8.088,17.669 V 10.745 C 8.087,9.673 7.219,8.805 6.147,8.804 4.715,8.801 3.342,8.232 2.327,7.222 L -2.448,2.448 C -2.813,2.085 -3.306,1.882 -3.821,1.88 h -3.462 c -1.071,0.001 -1.939,0.869 -1.94,1.941"
             style="fill:#034d70;fill-opacity:1;fill-rule:nonzero;stroke:none"
             id="path3481"
             inkscape:connector-curvature="0" />
        </g>
        <g
           id="g3483"
           transform="translate(1285.229,2157.9639)">
          <path
             d="m 0,0 c -0.676,0.676 -1.772,0.676 -2.448,0 -0.325,-0.325 -0.507,-0.765 -0.507,-1.224 v -3.462 c 0,-0.956 -0.775,-1.731 -1.731,-1.731 -2.868,0 -5.193,-2.325 -5.193,-5.193 0,-0.956 -0.775,-1.731 -1.731,-1.731 -2.869,0 -5.194,-2.326 -5.194,-5.194 0,-0.956 -0.775,-1.731 -1.731,-1.731 h -3.462 c -0.956,0 -1.731,-0.775 -1.731,-1.731 0,-0.459 0.183,-0.899 0.507,-1.224 l 6.925,-6.924 c 0.324,-0.325 0.765,-0.507 1.223,-0.507 h 3.463 c 2.868,0 5.193,2.325 5.193,5.193 0,0.956 0.775,1.731 1.731,1.731 2.868,0 5.193,2.325 5.193,5.193 0,0.956 0.775,1.732 1.731,1.732 2.868,0 5.193,2.324 5.193,5.193 v 3.462 c 0,0.459 -0.182,0.899 -0.507,1.224 z m 3.969,-11.61 c 0,-0.956 -0.775,-1.731 -1.731,-1.731 -2.868,0 -5.193,-2.326 -5.193,-5.194 0,-0.956 -0.775,-1.731 -1.731,-1.731 -2.868,0 -5.193,-2.325 -5.193,-5.193 0,-0.956 -0.775,-1.731 -1.731,-1.731 h -2.746 l -3.505,3.505 c 2.586,0.339 4.52,2.542 4.519,5.15 0,0.956 0.776,1.732 1.732,1.732 2.868,0 5.193,2.324 5.193,5.193 0,0.956 0.775,1.731 1.731,1.731 2.608,0 4.812,1.934 5.15,4.52 l 3.505,-3.506 z"
             style="fill:#034d70;fill-opacity:1;fill-rule:nonzero;stroke:none"
             id="path3485"
             inkscape:connector-curvature="0" />
        </g>
        <g
           id="g3487"
           transform="translate(1284.9312,2180.7639)">
          <path
             d="m 0,0 c -2.588,2.588 -6.784,2.587 -9.372,-0.002 -2.587,-2.588 -2.587,-6.784 0.002,-9.372 l 0.297,-0.296 8.656,-8.655 7.222,-7.22 c 2.589,-2.588 6.784,-2.587 9.372,0.001 2.588,2.589 2.587,6.785 -0.002,9.372 l -0.298,0.296 -8.655,8.656 z m -4.686,-1.52 c 0.839,-0.002 1.643,-0.335 2.238,-0.926 l 4.267,-4.267 h -8.935 c -1.12,1.343 -0.939,3.34 0.405,4.459 0.566,0.473 1.28,0.732 2.018,0.734 z m 16.175,-22.504 c -0.839,0.003 -1.643,0.336 -2.238,0.928 l -4.267,4.265 h 8.936 c 1.119,-1.343 0.938,-3.339 -0.405,-4.459 -0.567,-0.472 -1.281,-0.732 -2.019,-0.734 z m -9.967,8.656 -5.194,5.193 h 8.953 l 5.194,-5.193 z"
             style="fill:#034d70;fill-opacity:1;fill-rule:nonzero;stroke:none"
             id="path3489"
             inkscape:connector-curvature="0" />
        </g>
        <g
           id="g3491"
           transform="translate(1240.7283,2174.0508)">
          <path
             d="M 0,0 V 22.504 H -3.462 V 8.656 h -3.462 v 13.848 h -3.462 V 8.656 h -3.463 v 13.848 h -3.462 V 0 c 0.009,-2.71 1.291,-5.258 3.462,-6.879 v -48.516 c 0,-2.868 2.325,-5.193 5.193,-5.193 2.869,0 5.194,2.325 5.194,5.193 V -6.879 C -1.291,-5.258 -0.009,-2.71 0,0 m -6.924,-8.655 v -46.74 c 0,-0.956 -0.775,-1.73 -1.732,-1.73 -0.956,0 -1.73,0.774 -1.73,1.73 v 46.74 z M -3.462,0 c 0,-2.868 -2.325,-5.193 -5.194,-5.193 -2.868,0 -5.193,2.325 -5.193,5.193 v 5.193 h 10.387 z"
             style="fill:#034d70;fill-opacity:1;fill-rule:nonzero;stroke:none"
             id="path3493"
             inkscape:connector-curvature="0" />
        </g>
      </g>
    </g>
  </g>
</svg>
