<?xml version="1.0" encoding="UTF-8" standalone="no"?>
<svg
   xmlns:dc="http://purl.org/dc/elements/1.1/"
   xmlns:cc="http://creativecommons.org/ns#"
   xmlns:rdf="http://www.w3.org/1999/02/22-rdf-syntax-ns#"
   xmlns:svg="http://www.w3.org/2000/svg"
   xmlns="http://www.w3.org/2000/svg"
   id="svg10501"
   version="1.1"
   viewBox="0 0 40 40"
   height="40mm"
   width="40mm">
  <defs
     id="defs10495">
    <clipPath
       id="clipPath3445"
       clipPathUnits="userSpaceOnUse">
      <path
         id="path3443"
         d="M 0,0 H 1920 V 6826.783 H 0 Z" />
    </clipPath>
    <clipPath
       id="clipPath3425"
       clipPathUnits="userSpaceOnUse">
      <path
         id="path3423"
         d="M 0,0 H 1920 V 6826.783 H 0 Z" />
    </clipPath>
    <clipPath
       id="clipPath3529"
       clipPathUnits="userSpaceOnUse">
      <path
         id="path3527"
         d="M 0,0 H 1920 V 6826.783 H 0 Z" />
    </clipPath>
  </defs>
  <metadata
     id="metadata10498">
    <rdf:RDF>
      <cc:Work
         rdf:about="">
        <dc:format>image/svg+xml</dc:format>
        <dc:type
           rdf:resource="http://purl.org/dc/dcmitype/StillImage" />
        <dc:title></dc:title>
      </cc:Work>
    </rdf:RDF>
  </metadata>
  <g
     transform="translate(0,-257)"
     id="layer1">
    <g
       id="g3523"
       transform="matrix(0.35277777,0,0,-0.35277777,-282.32228,1037.2393)">
      <g
         clip-path="url(#clipPath3529)"
         id="g3525">
        <g
           transform="translate(830.3164,2162.4019)"
           id="g3531">
          <path
             id="path3533"
             style="fill:#034d70;fill-opacity:1;fill-rule:nonzero;stroke:none"
             d="m 0,0 h 0.003 c 0.296,-0.015 29.683,-1.479 38.481,-1.479 20.045,0 32.498,7.358 32.498,19.204 0,11.845 -12.453,19.203 -32.498,19.203 -8.798,0 -38.186,-1.464 -38.407,-1.477 -10.436,0 -17.726,-7.29 -17.726,-17.726 C -17.649,6.777 -8.451,0 0,0 m 0.151,32.5 c 0.294,0.013 29.607,1.474 38.333,1.474 14.282,0 29.544,-4.269 29.544,-16.249 0,-11.981 -15.262,-16.249 -29.544,-16.249 -8.726,0 -38.039,1.46 -38.407,1.476 -7.104,0 -14.772,5.648 -14.772,14.773 0,8.697 6.074,14.771 14.846,14.775" />
        </g>
        <g
           transform="translate(830.3934,2168.3091)"
           id="g3535">
          <path
             id="path3537"
             style="fill:#034d70;fill-opacity:1;fill-rule:nonzero;stroke:none"
             d="m 0,0 h 7.386 c 6.52,0 8.417,3.057 9.552,4.885 0.233,0.379 0.589,0.951 0.788,1.023 h 2.955 V 4.432 c 0,-0.816 0.661,-1.478 1.477,-1.478 0.815,0 1.477,0.662 1.477,1.478 v 1.476 h 5.909 V 4.432 c 0,-0.816 0.662,-1.478 1.477,-1.478 0.815,0 1.477,0.662 1.477,1.478 v 1.476 h 5.908 V 4.432 c 0,-0.816 0.662,-1.478 1.478,-1.478 0.815,0 1.477,0.662 1.477,1.478 v 1.476 c 1.421,0 3.068,-0.581 4.506,-4.898 C 46.074,0.391 46.651,0 47.27,0 c 0.155,0 0.312,0.024 0.466,0.075 0.775,0.259 1.194,1.096 0.936,1.869 -0.788,2.36 -1.792,4.099 -3.027,5.247 1.703,0.928 3.102,2.403 3.102,4.627 0,2.201 -1.411,3.676 -3.123,4.611 1.246,1.146 2.258,2.889 3.048,5.262 0.258,0.774 -0.161,1.61 -0.936,1.869 -0.775,0.259 -1.61,-0.162 -1.869,-0.936 -1.438,-4.316 -3.085,-4.898 -4.506,-4.898 v 1.477 c 0,0.815 -0.662,1.477 -1.477,1.477 -0.816,0 -1.478,-0.662 -1.478,-1.477 v -1.477 l -5.908,0.002 v 1.475 c 0,0.816 -0.662,1.477 -1.477,1.477 -0.815,0 -1.477,-0.661 -1.477,-1.477 v -1.475 l -5.909,10e-4 v 1.474 c 0,0.815 -0.662,1.477 -1.477,1.477 -0.816,0 -1.477,-0.662 -1.477,-1.477 v -1.474 h -2.996 c -0.16,0.07 -0.514,0.641 -0.747,1.021 -1.13,1.827 -3.023,4.885 -9.546,4.885 H 0 c -6.516,0 -11.818,-5.302 -11.818,-11.817 C -11.818,5.302 -6.516,0 0,0 m 41.361,14.753 c 0.845,-0.149 4.432,-0.907 4.432,-2.935 0,-2.099 -3.618,-2.806 -4.432,-2.938 z m -8.863,0.019 h 5.909 V 8.864 h -5.909 z m -8.863,0 h 5.909 V 8.864 h -5.909 z m -9.279,2.533 c 0.023,-0.036 0.047,-0.074 0.069,-0.109 0.669,-1.08 1.499,-2.424 3.301,-2.424 h 2.955 V 8.863 h -2.955 c -1.797,0 -2.631,-1.343 -3.299,-2.421 -0.026,-0.04 -0.052,-0.081 -0.077,-0.123 -1.014,0.703 -2.533,2.29 -2.533,5.499 0,3.211 1.521,4.783 2.539,5.487 M 0,20.681 h 7.392 c 2.461,0 3.97,-0.473 4.994,-1.15 -1.569,-1.18 -3.523,-3.493 -3.523,-7.713 0,-4.219 1.953,-6.531 3.521,-7.714 C 11.358,3.427 9.849,2.954 7.386,2.954 H 0 c -4.888,0 -8.863,3.975 -8.863,8.864 0,4.888 3.975,8.863 8.863,8.863" />
        </g>
        <g
           transform="translate(889.9388,2132.7942)"
           id="g3539">
          <path
             id="path3541"
             style="fill:#034d70;fill-opacity:1;fill-rule:nonzero;stroke:none"
             d="m 0,0 -11.826,3.544 c -0.018,0.004 -0.035,0.01 -0.053,0.015 L -29.535,8.85 c -1.964,0.654 -3.952,2.356 -5.558,4.259 -0.009,0.008 -0.009,0.022 -0.016,0.03 -0.011,0.011 -0.025,0.016 -0.033,0.028 -1.468,1.75 -2.609,3.663 -3.094,5.087 -1.554,4.569 -6.19,4.556 -8.425,3.907 -0.749,-0.216 -1.201,-0.978 -1.032,-1.739 0.126,-0.567 3.189,-13.768 13.912,-18.63 l 0.005,-0.004 c 0.031,-0.021 0.066,-0.028 0.099,-0.046 0.088,-0.04 0.166,-0.089 0.255,-0.128 l 9.706,-3.23 c 0.003,-10e-4 0.005,-0.003 0.006,-0.004 0.005,-0.002 0.011,0 0.015,-0.003 l 1.816,-0.604 -2.948,-4.924 c -4.451,0.925 -22.762,5.23 -32.102,14.991 2.662,0.899 5.526,2.282 8.543,4.287 0.679,0.451 0.863,1.368 0.412,2.049 -0.452,0.678 -1.367,0.864 -2.049,0.41 -10.335,-6.869 -17.798,-5.634 -20.292,-3.126 -1.598,1.604 -3.702,2.256 -5.239,1.622 -1.075,-0.443 -1.717,-1.44 -1.717,-2.664 h 0.132 c -0.164,-1.977 -0.156,-8.197 -0.132,-29.56 0,-1.606 1.351,-2.964 2.953,-2.964 h 56.134 c 0.517,0 0.997,0.271 1.265,0.713 l 4.032,6.673 H 8.405 v -2.944 c 0,-0.883 -0.593,-1.477 -1.478,-1.477 l -19.17,-0.011 c -0.815,0 -1.477,-0.662 -1.476,-1.477 0,-0.817 0.661,-1.477 1.477,-1.477 l 19.169,0.011 c 2.527,0 4.432,1.905 4.432,4.431 v 4.421 C 11.359,-6.922 6.875,-1.718 0,0 m -40.161,10.969 c -2.289,3.215 -3.594,6.627 -4.208,8.546 h 0.006 c 1.171,0 2.706,-0.381 3.329,-2.213 0.47,-1.379 1.429,-3.13 2.709,-4.855 z m 6.691,-6.062 c -1.882,0.988 -3.486,2.299 -4.836,3.762 l 1.879,1.514 c 1.267,-1.338 2.707,-2.532 4.23,-3.365 z m 9.455,-3.315 -6.641,2.211 1.278,1.917 6.267,-1.877 z m 3.745,1.398 5.643,-1.69 c -2.005,-2.255 -4.201,-1.461 -4.575,-1.312 l -2.003,0.668 z m 6.551,-14.755 c -0.519,0 -0.997,-0.271 -1.264,-0.714 l -4.034,-6.673 -55.3,0.012 c -0.002,0.847 -0.004,1.845 -0.004,2.943 h 53.217 c 0.815,0 1.476,0.662 1.476,1.477 0,0.816 -0.661,1.477 -1.476,1.477 h -53.219 c -0.008,9.339 -0.016,22.749 0.002,23.571 0.002,0.015 0.004,0.03 0.005,0.045 0.317,0.028 1.109,-0.195 1.906,-0.996 2.344,-2.357 6.711,-3.548 12.295,-2.412 10.859,-12.692 34.735,-17.038 35.765,-17.221 0.086,-0.015 0.172,-0.022 0.257,-0.022 0.513,0 0.997,0.267 1.268,0.717 l 3.845,6.422 c 2.049,-0.356 5.087,0.134 7.378,3.532 L -0.783,-2.849 C 4.228,-4.1 7.639,-7.52 8.286,-11.766 h -22.005 z" />
        </g>
      </g>
    </g>
  </g>
</svg>
