<?xml version="1.0" encoding="UTF-8" standalone="no"?>
<!-- Created with Inkscape (http://www.inkscape.org/) -->

<svg
   xmlns:dc="http://purl.org/dc/elements/1.1/"
   xmlns:cc="http://creativecommons.org/ns#"
   xmlns:rdf="http://www.w3.org/1999/02/22-rdf-syntax-ns#"
   xmlns:svg="http://www.w3.org/2000/svg"
   xmlns="http://www.w3.org/2000/svg"
   xmlns:sodipodi="http://sodipodi.sourceforge.net/DTD/sodipodi-0.dtd"
   xmlns:inkscape="http://www.inkscape.org/namespaces/inkscape"
   width="50mm"
   height="50mm"
   viewBox="0 0 49.999999 49.999999"
   version="1.1"
   id="svg9253"
   inkscape:version="0.92.3 (2405546, 2018-03-11)"
   sodipodi:docname="award_winning_icon.svg">
  <defs
     id="defs9247">
    <clipPath
       clipPathUnits="userSpaceOnUse"
       id="clipPath4305">
      <path
         d="M 0,0 H 1920 V 6826.783 H 0 Z"
         id="path4303"
         inkscape:connector-curvature="0" />
    </clipPath>
    <clipPath
       clipPathUnits="userSpaceOnUse"
       id="clipPath4321">
      <path
         d="M 0,0 H 1920 V 6826.783 H 0 Z"
         id="path4319"
         inkscape:connector-curvature="0" />
    </clipPath>
    <clipPath
       clipPathUnits="userSpaceOnUse"
       id="clipPath4337">
      <path
         d="M 0,0 H 1920 V 6826.783 H 0 Z"
         id="path4335"
         inkscape:connector-curvature="0" />
    </clipPath>
    <clipPath
       clipPathUnits="userSpaceOnUse"
       id="clipPath4353">
      <path
         d="M 0,0 H 1920 V 6826.783 H 0 Z"
         id="path4351"
         inkscape:connector-curvature="0" />
    </clipPath>
    <clipPath
       clipPathUnits="userSpaceOnUse"
       id="clipPath4377">
      <path
         d="M 0,0 H 1920 V 6826.783 H 0 Z"
         id="path4375"
         inkscape:connector-curvature="0" />
    </clipPath>
    <clipPath
       clipPathUnits="userSpaceOnUse"
       id="clipPath4393">
      <path
         d="M 0,0 H 1920 V 6826.783 H 0 Z"
         id="path4391"
         inkscape:connector-curvature="0" />
    </clipPath>
    <clipPath
       clipPathUnits="userSpaceOnUse"
       id="clipPath4413">
      <path
         d="M 0,0 H 1920 V 6826.783 H 0 Z"
         id="path4411"
         inkscape:connector-curvature="0" />
    </clipPath>
    <clipPath
       clipPathUnits="userSpaceOnUse"
       id="clipPath4437">
      <path
         d="M 0,0 H 1920 V 6826.783 H 0 Z"
         id="path4435"
         inkscape:connector-curvature="0" />
    </clipPath>
    <clipPath
       clipPathUnits="userSpaceOnUse"
       id="clipPath4453">
      <path
         d="M 0,0 H 1920 V 6826.783 H 0 Z"
         id="path4451"
         inkscape:connector-curvature="0" />
    </clipPath>
    <clipPath
       clipPathUnits="userSpaceOnUse"
       id="clipPath4481">
      <path
         d="M 0,0 H 1920 V 6826.783 H 0 Z"
         id="path4479"
         inkscape:connector-curvature="0" />
    </clipPath>
    <clipPath
       clipPathUnits="userSpaceOnUse"
       id="clipPath3279">
      <path
         d="M 0,0 H 1920 V 6826.783 H 0 Z"
         id="path3277"
         inkscape:connector-curvature="0" />
    </clipPath>
    <clipPath
       clipPathUnits="userSpaceOnUse"
       id="clipPath3237">
      <path
         d="M 0,0 H 1920 V 6826.783 H 0 Z"
         id="path3235"
         inkscape:connector-curvature="0" />
    </clipPath>
    <clipPath
       clipPathUnits="userSpaceOnUse"
       id="clipPath4255">
      <path
         d="M 0,0 H 1920 V 6826.783 H 0 Z"
         id="path4253"
         inkscape:connector-curvature="0" />
    </clipPath>
  </defs>
  <sodipodi:namedview
     id="base"
     pagecolor="#ffffff"
     bordercolor="#666666"
     borderopacity="1.0"
     inkscape:pageopacity="0.0"
     inkscape:pageshadow="2"
     inkscape:zoom="3.4819167"
     inkscape:cx="94.488189"
     inkscape:cy="94.488189"
     inkscape:document-units="mm"
     inkscape:current-layer="layer1"
     showgrid="false"
     inkscape:window-width="1440"
     inkscape:window-height="838"
     inkscape:window-x="-8"
     inkscape:window-y="-8"
     inkscape:window-maximized="1" />
  <metadata
     id="metadata9250">
    <rdf:RDF>
      <cc:Work
         rdf:about="">
        <dc:format>image/svg+xml</dc:format>
        <dc:type
           rdf:resource="http://purl.org/dc/dcmitype/StillImage" />
        <dc:title></dc:title>
      </cc:Work>
    </rdf:RDF>
  </metadata>
  <g
     inkscape:label="Layer 1"
     inkscape:groupmode="layer"
     id="layer1"
     transform="translate(0,-246.99998)">
    <g
       transform="matrix(0.35277777,0,0,-0.35277777,-563.46268,1372.2602)"
       id="g9159">
      <g
         transform="translate(1669.4359,3086.3994)"
         id="g3323">
        <path
           inkscape:connector-curvature="0"
           id="path3325"
           style="fill:#00aeef;fill-opacity:1;fill-rule:nonzero;stroke:none"
           d="m 0,0 c -0.249,0.155 -0.541,0.237 -0.844,0.237 -0.388,0 -0.762,-0.135 -1.052,-0.379 -0.503,-0.422 -0.697,-1.149 -0.472,-1.767 0.232,-0.642 0.842,-1.073 1.517,-1.073 0.751,0 1.43,0.558 1.58,1.299 C 0.859,-1.039 0.559,-0.347 0,0" />
      </g>
      <g
         transform="translate(1649.5715,3110.4277)"
         id="g3327">
        <path
           inkscape:connector-curvature="0"
           id="path3329"
           style="fill:#00aeef;fill-opacity:1;fill-rule:nonzero;stroke:none"
           d="m 0,0 c -6.204,1.5 -12.032,6.188 -15.99,12.863 -3.737,6.305 -5.371,13.596 -4.483,20.004 l 0.044,0.314 0.266,0.172 c 2.04,1.314 6.857,4.918 7.534,9.967 0.862,6.418 -5.225,12.24 -5.485,12.485 -0.505,0.477 -1.255,0.578 -1.868,0.251 -0.315,-0.168 -7.723,-4.18 -8.585,-10.596 -0.684,-5.101 3.069,-9.871 4.715,-11.686 l 0.215,-0.238 -0.042,-0.318 c -0.269,-1.989 -0.325,-4.072 -0.168,-6.188 l 0.108,-1.453 -1.193,0.836 c -1.121,0.785 -2.299,1.301 -3.503,1.534 -5.302,1.024 -10.27,-3.495 -10.819,-4.013 -0.505,-0.476 -0.649,-1.22 -0.358,-1.85 0.317,-0.686 3.248,-6.728 8.55,-7.752 0.515,-0.099 1.047,-0.149 1.582,-0.149 2.824,0 5.439,1.365 7.135,2.51 l 0.708,0.477 0.319,-0.791 c 0.715,-1.769 1.574,-3.504 2.555,-5.16 0.357,-0.602 0.731,-1.194 1.111,-1.759 l 0.759,-1.13 -1.36,0.055 c -0.118,0.004 -0.237,0.006 -0.356,0.006 -0.31,0 -0.621,-0.016 -0.926,-0.048 -6.044,-0.639 -10.024,-7.489 -10.191,-7.78 -0.344,-0.603 -0.265,-1.355 0.198,-1.873 0.202,-0.226 5.012,-5.528 10.668,-5.528 0.304,0 0.615,0.016 0.923,0.048 4.389,0.464 7.697,4.207 9.278,6.396 l 0.374,0.519 0.545,-0.332 c 2.251,-1.366 4.6,-2.351 6.982,-2.928 0.124,-0.03 0.252,-0.045 0.381,-0.045 0.746,0 1.389,0.507 1.565,1.234 C 1.396,-1.083 0.864,-0.209 0,0 m -23.931,19.525 c -1.145,-0.789 -3.391,-2.114 -5.575,-2.114 -0.325,0 -0.643,0.029 -0.945,0.087 -2.448,0.474 -4.371,2.902 -5.299,4.307 l -0.374,0.564 0.556,0.385 c 1.387,0.96 4.077,2.5 6.523,2.027 2.447,-0.472 4.37,-2.901 5.298,-4.306 l 0.373,-0.564 z m 2.242,16.661 -0.41,0.498 c -1.41,1.715 -3.71,5.081 -3.271,8.347 0.453,3.385 3.892,6.159 5.349,7.195 l 0.526,0.374 0.409,-0.5 c 1.132,-1.383 3.716,-4.967 3.262,-8.35 -0.454,-3.381 -3.886,-6.155 -5.341,-7.19 z M -11.598,1.06 c -1.219,-1.6 -3.707,-4.33 -6.68,-4.643 -0.191,-0.021 -0.391,-0.032 -0.595,-0.032 -2.78,0 -5.522,1.986 -6.909,3.169 l -0.499,0.426 0.399,0.52 c 1.225,1.597 3.721,4.323 6.685,4.635 2.958,0.32 5.967,-1.826 7.498,-3.131 l 0.498,-0.423 z" />
      </g>
      <g
         transform="translate(1620.0835,3085.9426)"
         id="g3331">
        <path
           inkscape:connector-curvature="0"
           id="path3333"
           style="fill:#00aeef;fill-opacity:1;fill-rule:nonzero;stroke:none"
           d="m 0,0 c 0.32,-0.563 0.32,-1.262 0,-1.824 l -5.491,-9.642 H 13.532 V 9.641 H -5.491 Z M 13.072,-11.005 H -4.698 L 0.4,-2.052 c 0.4,0.703 0.4,1.576 0,2.28 l -5.098,8.953 h 17.77 z" />
      </g>
      <g
         transform="translate(1633.8462,3074.2463)"
         id="g3335">
        <path
           inkscape:connector-curvature="0"
           id="path3337"
           style="fill:#00aeef;fill-opacity:1;fill-rule:nonzero;stroke:none"
           d="m 0,0 h -19.65 l 5.687,9.986 c 0.28,0.492 0.28,1.104 0,1.596 l -5.687,9.986 H 0 Z M -18.857,0.461 H -0.461 V 21.107 0.461 h -18.396 l 5.294,9.297 c 0.361,0.632 0.361,1.419 0,2.053 l -5.294,9.296 5.294,-9.297 c 0.361,-0.633 0.361,-1.42 0,-2.052 z m 0.792,0.46 h 17.144 v 19.726 h -17.144 l 4.903,-8.609 c 0.44,-0.774 0.44,-1.735 0,-2.508 z" />
      </g>
      <g
         transform="translate(1726.1439,3073.4319)"
         id="g3339">
        <path
           inkscape:connector-curvature="0"
           id="path3341"
           style="fill:#00aeef;fill-opacity:1;fill-rule:nonzero;stroke:none"
           d="M 0,0 -6.605,11.598 -6.41,11.94 0,23.197 c 0.283,0.496 0.28,1.112 -0.007,1.607 -0.288,0.495 -0.822,0.803 -1.394,0.803 h -47.867 v 54.909 c 0,4.133 -4.55,6.691 -8.764,6.691 -1.525,0 -2.819,-0.324 -3.848,-0.962 l -13.666,-8.283 c -2.41,-1.446 -3.791,-3.953 -3.791,-6.878 0,-3.865 2.558,-8.038 6.691,-8.038 0.699,0 1.781,0.136 2.962,0.783 l 1.023,0.56 V 25.607 h -46.06 c -0.572,0 -1.106,-0.307 -1.393,-0.802 -0.288,-0.496 -0.291,-1.112 -0.008,-1.608 l 6.604,-11.598 -0.194,-0.342 L -116.121,0 c -0.284,-0.496 -0.281,-1.112 0.006,-1.608 0.288,-0.495 0.822,-0.802 1.394,-0.802 h 113.32 c 0.572,0 1.106,0.307 1.393,0.802 C 0.28,-1.113 0.283,-0.497 0,0 m -70.938,66.836 c -0.74,-0.492 -1.388,-0.566 -1.708,-0.566 -1.984,0 -3.467,2.542 -3.467,4.814 0,1.268 0.388,3.01 2.232,4.116 l 13.703,8.306 c 0.499,0.311 1.242,0.477 2.145,0.477 2.899,0 5.539,-1.653 5.539,-3.467 V 25.607 h -12.944 v 41.746 c 0,0.585 -0.317,1.125 -0.828,1.409 v 0 c -0.511,0.285 -1.137,0.27 -1.634,-0.039 z M -92.528,1.045 h -19.023 l 5.491,9.642 c 0.32,0.562 0.32,1.261 0,1.824 l -5.491,9.641 h 19.023 z m 65.479,12.166 h -20.052 c -0.889,0 -1.612,-0.724 -1.612,-1.613 0,-0.889 0.723,-1.612 1.612,-1.612 h 20.052 V 0.814 h -62.024 v 9.172 h 21.14 c 0.889,0 1.613,0.723 1.613,1.612 0,0.889 -0.724,1.613 -1.613,1.613 h -21.14 v 9.171 h 62.024 z m 3.455,-12.166 v 21.107 h 19.023 l -5.491,-9.642 c -0.32,-0.562 -0.32,-1.261 0,-1.823 l 5.491,-9.642 z" />
      </g>
      <g
         transform="translate(1726.2051,3132.511)"
         id="g3343">
        <path
           inkscape:connector-curvature="0"
           id="path3345"
           style="fill:#00aeef;fill-opacity:1;fill-rule:nonzero;stroke:none"
           d="M 0,0 0.003,0.007 C 0.292,0.63 0.149,1.374 -0.356,1.851 -0.907,2.369 -5.895,6.885 -11.176,5.864 -12.381,5.631 -13.559,5.115 -14.678,4.33 l -1.194,-0.837 0.108,1.454 c 0.157,2.115 0.1,4.197 -0.169,6.188 l -0.042,0.318 0.215,0.238 c 1.645,1.815 5.399,6.588 4.715,11.685 -0.861,6.418 -8.269,10.429 -8.584,10.596 -0.613,0.328 -1.364,0.227 -1.869,-0.25 -0.259,-0.245 -6.345,-6.081 -5.485,-12.486 0.677,-5.047 5.494,-8.65 7.534,-9.965 l 0.266,-0.173 0.044,-0.314 c 0.888,-6.408 -0.746,-13.699 -4.483,-20.003 -3.957,-6.675 -9.784,-11.363 -15.989,-12.864 -0.864,-0.21 -1.397,-1.083 -1.189,-1.947 0.176,-0.726 0.82,-1.233 1.566,-1.233 0.129,0 0.256,0.015 0.38,0.045 2.382,0.576 4.732,1.562 6.983,2.927 l 0.545,0.332 0.374,-0.518 c 1.581,-2.19 4.889,-5.932 9.28,-6.397 0.306,-0.032 0.616,-0.048 0.921,-0.048 5.645,0 10.466,5.304 10.669,5.529 0.462,0.517 0.541,1.27 0.197,1.872 -0.167,0.292 -4.147,7.142 -10.191,7.781 -0.421,0.043 -0.853,0.056 -1.283,0.04 l -1.361,-0.054 0.76,1.13 c 0.384,0.571 0.758,1.163 1.112,1.76 0.981,1.656 1.841,3.392 2.555,5.16 l 0.319,0.792 0.708,-0.478 c 1.696,-1.145 4.311,-2.51 7.135,-2.51 0.535,0 1.068,0.05 1.582,0.149 C -3.244,-6.727 -0.316,-0.686 0,0 m -20.413,-16.948 c 2.963,-0.312 5.459,-3.038 6.684,-4.634 l 0.399,-0.521 -0.499,-0.425 c -1.116,-0.953 -4.024,-3.169 -6.926,-3.169 -0.196,0 -0.391,0.01 -0.579,0.03 -2.963,0.313 -5.46,3.039 -6.685,4.636 l -0.399,0.52 0.499,0.426 c 1.532,1.307 4.549,3.453 7.506,3.137 m 2.918,31.552 -0.409,-0.499 -0.526,0.373 c -1.812,1.283 -4.918,3.924 -5.357,7.188 -0.454,3.387 2.131,6.968 3.263,8.351 l 0.409,0.5 0.526,-0.375 c 1.456,-1.035 4.894,-3.809 5.349,-7.195 0.454,-3.381 -2.125,-6.961 -3.255,-8.343 M -3.862,-0.278 c -0.934,-1.407 -2.864,-3.837 -5.298,-4.306 -0.303,-0.059 -0.624,-0.089 -0.955,-0.089 -2.188,0 -4.426,1.324 -5.565,2.113 l -0.557,0.386 0.374,0.564 c 0.933,1.407 2.862,3.838 5.298,4.308 2.45,0.472 5.138,-1.067 6.521,-2.026 l 0.556,-0.386 z" />
      </g>
    </g>
  </g>
</svg>
