<?xml version="1.0" encoding="UTF-8" standalone="no"?>
<!-- Created with Inkscape (http://www.inkscape.org/) -->

<svg
   xmlns:dc="http://purl.org/dc/elements/1.1/"
   xmlns:cc="http://creativecommons.org/ns#"
   xmlns:rdf="http://www.w3.org/1999/02/22-rdf-syntax-ns#"
   xmlns:svg="http://www.w3.org/2000/svg"
   xmlns="http://www.w3.org/2000/svg"
   xmlns:sodipodi="http://sodipodi.sourceforge.net/DTD/sodipodi-0.dtd"
   xmlns:inkscape="http://www.inkscape.org/namespaces/inkscape"
   width="7.0560002mm"
   height="1.801mm"
   viewBox="0 0 7.0560002 1.801"
   version="1.1"
   id="svg14561"
   inkscape:version="0.92.3 (2405546, 2018-03-11)"
   sodipodi:docname="blue_arrow_icon.svg">
  <defs
     id="defs14555">
    <clipPath
       clipPathUnits="userSpaceOnUse"
       id="clipPath3965">
      <path
         d="M 0,0 H 1920 V 6826.783 H 0 Z"
         id="path3963"
         inkscape:connector-curvature="0" />
    </clipPath>
  </defs>
  <sodipodi:namedview
     id="base"
     pagecolor="#ffffff"
     bordercolor="#666666"
     borderopacity="1.0"
     inkscape:pageopacity="0.0"
     inkscape:pageshadow="2"
     inkscape:zoom="37.76012"
     inkscape:cx="13.334174"
     inkscape:cy="3.4034646"
     inkscape:document-units="mm"
     inkscape:current-layer="layer1"
     showgrid="false"
     inkscape:window-width="1440"
     inkscape:window-height="838"
     inkscape:window-x="-8"
     inkscape:window-y="-8"
     inkscape:window-maximized="1" />
  <metadata
     id="metadata14558">
    <rdf:RDF>
      <cc:Work
         rdf:about="">
        <dc:format>image/svg+xml</dc:format>
        <dc:type
           rdf:resource="http://purl.org/dc/dcmitype/StillImage" />
        <dc:title></dc:title>
      </cc:Work>
    </rdf:RDF>
  </metadata>
  <g
     inkscape:label="Layer 1"
     inkscape:groupmode="layer"
     id="layer1"
     transform="translate(0,-295.199)">
    <g
       id="g15149">
      <g
         transform="matrix(0.35277777,0,0,-0.35277777,2.224e-4,296.0995)"
         id="g3955">
        <path
           inkscape:connector-curvature="0"
           id="path3957"
           style="fill:none;stroke:#00aeef;stroke-width:1;stroke-linecap:butt;stroke-linejoin:miter;stroke-miterlimit:4;stroke-dasharray:none;stroke-opacity:1"
           d="M 0,0 H 14.538" />
      </g>
      <g
         transform="matrix(0.35277777,0,0,-0.35277777,-42.33311,355.2368)"
         id="g3959">
        <g
           clip-path="url(#clipPath3965)"
           id="g3961">
          <g
             transform="translate(140,167.6333)"
             id="g3967">
            <path
               inkscape:connector-curvature="0"
               id="path3969"
               style="fill:#00aeef;fill-opacity:1;fill-rule:nonzero;stroke:none"
               d="m 0,0 -7.012,2.552 c 0,0 1.55,-2.552 0,-5.104 L 0,0" />
          </g>
        </g>
      </g>
    </g>
  </g>
</svg>
