<?xml version="1.0" encoding="UTF-8" standalone="no"?>
<!-- Created with Inkscape (http://www.inkscape.org/) -->

<svg
   xmlns:dc="http://purl.org/dc/elements/1.1/"
   xmlns:cc="http://creativecommons.org/ns#"
   xmlns:rdf="http://www.w3.org/1999/02/22-rdf-syntax-ns#"
   xmlns:svg="http://www.w3.org/2000/svg"
   xmlns="http://www.w3.org/2000/svg"
   xmlns:sodipodi="http://sodipodi.sourceforge.net/DTD/sodipodi-0.dtd"
   xmlns:inkscape="http://www.inkscape.org/namespaces/inkscape"
   width="50mm"
   height="50mm"
   viewBox="0 0 49.999999 49.999999"
   version="1.1"
   id="svg9253"
   inkscape:version="0.92.3 (2405546, 2018-03-11)"
   sodipodi:docname="caring_icon.svg">
  <defs
     id="defs9247">
    <clipPath
       clipPathUnits="userSpaceOnUse"
       id="clipPath4305">
      <path
         d="M 0,0 H 1920 V 6826.783 H 0 Z"
         id="path4303"
         inkscape:connector-curvature="0" />
    </clipPath>
    <clipPath
       clipPathUnits="userSpaceOnUse"
       id="clipPath4321">
      <path
         d="M 0,0 H 1920 V 6826.783 H 0 Z"
         id="path4319"
         inkscape:connector-curvature="0" />
    </clipPath>
    <clipPath
       clipPathUnits="userSpaceOnUse"
       id="clipPath4337">
      <path
         d="M 0,0 H 1920 V 6826.783 H 0 Z"
         id="path4335"
         inkscape:connector-curvature="0" />
    </clipPath>
    <clipPath
       clipPathUnits="userSpaceOnUse"
       id="clipPath4353">
      <path
         d="M 0,0 H 1920 V 6826.783 H 0 Z"
         id="path4351"
         inkscape:connector-curvature="0" />
    </clipPath>
    <clipPath
       clipPathUnits="userSpaceOnUse"
       id="clipPath4377">
      <path
         d="M 0,0 H 1920 V 6826.783 H 0 Z"
         id="path4375"
         inkscape:connector-curvature="0" />
    </clipPath>
    <clipPath
       clipPathUnits="userSpaceOnUse"
       id="clipPath4393">
      <path
         d="M 0,0 H 1920 V 6826.783 H 0 Z"
         id="path4391"
         inkscape:connector-curvature="0" />
    </clipPath>
    <clipPath
       clipPathUnits="userSpaceOnUse"
       id="clipPath4413">
      <path
         d="M 0,0 H 1920 V 6826.783 H 0 Z"
         id="path4411"
         inkscape:connector-curvature="0" />
    </clipPath>
    <clipPath
       clipPathUnits="userSpaceOnUse"
       id="clipPath4437">
      <path
         d="M 0,0 H 1920 V 6826.783 H 0 Z"
         id="path4435"
         inkscape:connector-curvature="0" />
    </clipPath>
    <clipPath
       clipPathUnits="userSpaceOnUse"
       id="clipPath4453">
      <path
         d="M 0,0 H 1920 V 6826.783 H 0 Z"
         id="path4451"
         inkscape:connector-curvature="0" />
    </clipPath>
    <clipPath
       clipPathUnits="userSpaceOnUse"
       id="clipPath4481">
      <path
         d="M 0,0 H 1920 V 6826.783 H 0 Z"
         id="path4479"
         inkscape:connector-curvature="0" />
    </clipPath>
    <clipPath
       clipPathUnits="userSpaceOnUse"
       id="clipPath3279">
      <path
         d="M 0,0 H 1920 V 6826.783 H 0 Z"
         id="path3277"
         inkscape:connector-curvature="0" />
    </clipPath>
  </defs>
  <sodipodi:namedview
     id="base"
     pagecolor="#ffffff"
     bordercolor="#666666"
     borderopacity="1.0"
     inkscape:pageopacity="0.0"
     inkscape:pageshadow="2"
     inkscape:zoom="3.4819167"
     inkscape:cx="94.488189"
     inkscape:cy="94.488189"
     inkscape:document-units="mm"
     inkscape:current-layer="layer1"
     showgrid="false"
     inkscape:window-width="1440"
     inkscape:window-height="838"
     inkscape:window-x="-8"
     inkscape:window-y="-8"
     inkscape:window-maximized="1" />
  <metadata
     id="metadata9250">
    <rdf:RDF>
      <cc:Work
         rdf:about="">
        <dc:format>image/svg+xml</dc:format>
        <dc:type
           rdf:resource="http://purl.org/dc/dcmitype/StillImage" />
        <dc:title></dc:title>
      </cc:Work>
    </rdf:RDF>
  </metadata>
  <g
     inkscape:label="Layer 1"
     inkscape:groupmode="layer"
     id="layer1"
     transform="translate(0,-246.99998)">
    <g
       transform="matrix(0.35277777,0,0,-0.35277777,-162.94236,1372.2604)"
       id="g9107">
      <g
         id="g3273">
        <g
           clip-path="url(#clipPath3279)"
           id="g3275">
          <g
             transform="translate(558.5459,3131.7461)"
             id="g3281">
            <path
               inkscape:connector-curvature="0"
               id="path3283"
               style="fill:#00aeef;fill-opacity:1;fill-rule:nonzero;stroke:none"
               d="m 0,0 c 0,24.02 -23.645,43.026 -24.651,43.824 -0.67,0.531 -1.618,0.531 -2.289,0 C -27.946,43.026 -51.592,24.02 -51.592,0 c 0,-22.039 19.901,-39.843 23.954,-43.248 v -19.399 c 0,-1.018 0.825,-1.843 1.843,-1.843 1.017,0 1.842,0.825 1.842,1.843 v 19.399 C -19.899,-39.843 0,-22.039 0,0 m -23.953,-38.288 v 20.852 l 10.392,8.649 c 0.783,0.651 0.889,1.814 0.237,2.596 -0.651,0.783 -1.814,0.889 -2.594,0.238 l -8.035,-6.689 v 6.265 l 10.392,8.65 c 0.783,0.65 0.889,1.812 0.237,2.595 -0.651,0.783 -1.814,0.889 -2.594,0.238 l -8.035,-6.692 v 8.107 l 10.392,8.649 c 0.783,0.651 0.889,1.813 0.237,2.596 -0.651,0.782 -1.814,0.889 -2.594,0.237 l -8.035,-6.692 v 14.484 c 0,1.018 -0.825,1.843 -1.842,1.843 -1.018,0 -1.843,-0.825 -1.843,-1.843 V 11.311 L -35.672,18 c -0.782,0.651 -1.945,0.545 -2.596,-0.238 -0.651,-0.783 -0.544,-1.945 0.238,-2.596 L -27.638,6.518 V -1.59 l -8.034,6.689 c -0.782,0.651 -1.945,0.545 -2.596,-0.238 -0.651,-0.783 -0.544,-1.945 0.238,-2.596 l 10.392,-8.646 v -6.264 l -8.034,6.688 c -0.782,0.652 -1.945,0.545 -2.596,-0.237 -0.651,-0.783 -0.544,-1.946 0.238,-2.597 l 10.392,-8.645 v -20.852 c -6.265,5.877 -20.269,20.942 -20.269,38.288 0,19.336 17.43,35.873 22.112,39.965 4.682,-4.092 22.11,-20.629 22.11,-39.965 0,-17.346 -14.003,-32.411 -20.268,-38.288" />
          </g>
          <g
             transform="translate(519.8522,3078.3118)"
             id="g3285">
            <path
               inkscape:connector-curvature="0"
               id="path3287"
               style="fill:#00aeef;fill-opacity:1;fill-rule:nonzero;stroke:none"
               d="m 0,0 h -1.843 v 13.531 c 0.007,2.444 -0.965,4.789 -2.699,6.512 l -15.511,15.519 c -2.155,2.147 -5.643,2.147 -7.8,0 l -1.628,-1.633 v 19.505 c -10e-4,2.048 -0.854,4.002 -2.354,5.396 -1.499,1.395 -3.51,2.103 -5.552,1.957 -3.928,-0.382 -6.903,-3.718 -6.834,-7.664 V 26.802 c -0.001,-2.292 0.852,-4.502 2.395,-6.197 L -25.795,2.973 V 0 h -1.843 c -1.018,0 -1.843,-0.825 -1.843,-1.843 v -12.898 c 0,-1.017 0.825,-1.842 1.843,-1.842 H 0 c 1.018,0 1.843,0.825 1.843,1.842 V -1.843 C 1.843,-0.825 1.018,0 0,0 m -39.099,23.086 c -0.925,1.015 -1.438,2.341 -1.437,3.716 v 26.321 c -0.05,2.007 1.422,3.728 3.412,3.988 1.069,0.076 2.119,-0.315 2.877,-1.073 0.694,-0.688 1.084,-1.626 1.081,-2.604 V 31.008 c -0.004,-1.467 0.579,-2.875 1.62,-3.91 l 9.975,-9.975 c 0.723,-0.698 1.872,-0.688 2.583,0.023 0.711,0.71 0.72,1.859 0.022,2.582 l -8.456,8.458 c -0.345,0.343 -0.538,0.809 -0.538,1.295 0,0.486 0.193,0.952 0.538,1.295 l 2.175,2.173 c 0.717,0.709 1.872,0.709 2.59,0 l 15.51,-15.512 c 1.034,-1.038 1.616,-2.441 1.619,-3.906 V 0 H -22.11 v 4.399 z m 37.256,-35.984 h -23.953 v 9.213 h 23.953 z" />
          </g>
          <g
             transform="translate(583.0358,3139.0986)"
             id="g3289">
            <path
               inkscape:connector-curvature="0"
               id="path3291"
               style="fill:#00aeef;fill-opacity:1;fill-rule:nonzero;stroke:none"
               d="m 0,0 c -2.041,0.146 -4.053,-0.562 -5.552,-1.957 -1.499,-1.394 -2.352,-3.348 -2.355,-5.396 v -19.505 l -1.626,1.628 c -2.157,2.147 -5.645,2.147 -7.802,0 l -15.51,-15.514 c -1.734,-1.723 -2.706,-4.068 -2.701,-6.512 v -13.531 h -1.842 c -1.018,0 -1.843,-0.825 -1.843,-1.842 v -12.899 c 0,-1.017 0.825,-1.842 1.843,-1.842 h 27.639 c 1.017,0 1.842,0.825 1.842,1.842 v 12.899 c 0,1.017 -0.825,1.842 -1.842,1.842 h -1.843 v 2.973 l 16.031,17.632 c 1.542,1.695 2.396,3.905 2.394,6.197 V -7.664 C 6.902,-3.718 3.928,-0.382 0,0 m -11.592,-73.685 h -23.954 v 9.213 h 23.954 z m 14.741,39.7 c 0.002,-1.374 -0.511,-2.701 -1.437,-3.716 l -16.989,-18.687 v -4.399 H -31.86 v 13.531 c 0.003,1.465 0.585,2.87 1.619,3.908 l 15.517,15.51 c 0.718,0.709 1.873,0.709 2.591,0 l 2.174,-2.174 c 0.71,-0.714 0.71,-1.866 0,-2.58 l -8.461,-8.461 c -0.479,-0.463 -0.672,-1.148 -0.502,-1.791 0.168,-0.644 0.672,-1.148 1.316,-1.316 0.644,-0.169 1.329,0.023 1.791,0.503 l 9.976,9.974 c 1.038,1.034 1.62,2.44 1.618,3.904 v 22.426 c -0.002,0.978 0.388,1.916 1.081,2.604 0.759,0.758 1.808,1.148 2.877,1.073 1.99,-0.26 3.462,-1.981 3.412,-3.988 z" />
          </g>
          <g
             transform="translate(531.4422,3064.8792)"
             id="g3293">
            <path
               inkscape:connector-curvature="0"
               id="path3295"
               style="fill:#00aeef;fill-opacity:1;fill-rule:nonzero;stroke:none"
               d="m 0,0 c -0.337,-0.353 -0.528,-0.82 -0.534,-1.308 0.003,-0.123 0.015,-0.247 0.037,-0.368 0.02,-0.116 0.057,-0.228 0.11,-0.332 0.041,-0.117 0.097,-0.229 0.166,-0.332 0.068,-0.096 0.142,-0.188 0.221,-0.276 0.727,-0.713 1.89,-0.713 2.616,0 l 0.222,0.276 c 0.069,0.103 0.125,0.215 0.165,0.332 0.054,0.104 0.091,0.216 0.109,0.332 0.024,0.121 0.036,0.245 0.039,0.368 C 3.155,-0.56 2.706,0.118 2.015,0.405 1.323,0.692 0.527,0.532 0,0" />
          </g>
          <g
             transform="translate(497.742,3069.0986)"
             id="g3297">
            <path
               inkscape:connector-curvature="0"
               id="path3299"
               style="fill:#00aeef;fill-opacity:1;fill-rule:nonzero;stroke:none"
               d="m 0,0 h 7.369 c 1.018,0 1.843,0.825 1.843,1.843 0,1.017 -0.825,1.842 -1.843,1.842 H 0 C -1.018,3.685 -1.843,2.86 -1.843,1.843 -1.843,0.825 -1.018,0 0,0" />
          </g>
          <g
             transform="translate(509.9393,3069.2463)"
             id="g3301">
            <path
               inkscape:connector-curvature="0"
               id="path3303"
               style="fill:#00aeef;fill-opacity:1;fill-rule:nonzero;stroke:none"
               d="M 0,0 C 0.221,-0.094 0.46,-0.144 0.7,-0.148 1.448,-0.151 2.126,0.298 2.413,0.989 2.7,1.68 2.54,2.477 2.008,3.003 1.478,3.527 0.686,3.679 0,3.391 -0.226,3.302 -0.432,3.17 -0.608,3.003 -0.946,2.651 -1.136,2.184 -1.143,1.695 -1.16,0.946 -0.702,0.265 0,0" />
          </g>
          <g
             transform="translate(551.1368,3128.4299)"
             id="g3305">
            <path
               inkscape:connector-curvature="0"
               id="path3307"
               style="fill:#00aeef;fill-opacity:1;fill-rule:nonzero;stroke:none"
               d="m 0,0 c -0.018,0.115 -0.055,0.228 -0.109,0.332 -0.04,0.117 -0.096,0.228 -0.165,0.331 l -0.222,0.276 c -0.738,0.682 -1.878,0.682 -2.616,0 C -3.191,0.852 -3.265,0.76 -3.333,0.663 -3.403,0.56 -3.459,0.449 -3.499,0.332 -3.552,0.228 -3.589,0.115 -3.61,0 c -0.02,-0.123 -0.032,-0.245 -0.037,-0.369 0.007,-0.487 0.198,-0.955 0.535,-1.308 0.351,-0.34 0.82,-0.531 1.308,-0.535 0.49,-0.004 0.962,0.189 1.309,0.535 0.347,0.346 0.539,0.819 0.534,1.308 C 0.035,-0.245 0.023,-0.122 0,0" />
          </g>
        </g>
      </g>
    </g>
  </g>
</svg>
