<?xml version="1.0" encoding="UTF-8" standalone="no"?>
<svg
   xmlns:dc="http://purl.org/dc/elements/1.1/"
   xmlns:cc="http://creativecommons.org/ns#"
   xmlns:rdf="http://www.w3.org/1999/02/22-rdf-syntax-ns#"
   xmlns:svg="http://www.w3.org/2000/svg"
   xmlns="http://www.w3.org/2000/svg"
   id="svg32070"
   version="1.1"
   viewBox="0 0 16.945999 12.267"
   height="12.267mm"
   width="16.945999mm">
  <defs
     id="defs32064">
    <clipPath
       id="clipPath25376"
       clipPathUnits="userSpaceOnUse">
      <path
         id="path25374"
         d="M 0,0 H 1920 V 1080 H 0 Z" />
    </clipPath>
  </defs>
  <metadata
     id="metadata32067">
    <rdf:RDF>
      <cc:Work
         rdf:about="">
        <dc:format>image/svg+xml</dc:format>
        <dc:type
           rdf:resource="http://purl.org/dc/dcmitype/StillImage" />
        <dc:title></dc:title>
      </cc:Work>
    </rdf:RDF>
  </metadata>
  <g
     transform="translate(0,-284.733)"
     id="layer1">
    <g
       id="g25370"
       transform="matrix(0.35277777,0,0,-0.35277777,-607.18785,445.9523)">
      <g
         id="g25372"
         clip-path="url(#clipPath25376)">
        <g
           id="g25378"
           transform="translate(1721.1624,423.0298)">
          <path
             d="m 0,0 c 0,-0.443 0.36,-0.803 0.802,-0.803 h 46.431 c 0.443,0 0.803,0.36 0.803,0.803 v 33.168 c 0,0.442 -0.36,0.802 -0.803,0.802 H 0.802 C 0.36,33.97 0,33.61 0,33.168 Z M 1.605,32.365 H 46.438 V 3.045 L 31.432,18.036 30.299,16.905 46.414,0.803 H 1.628 l 16.156,16.196 -1.13,1.13 L 1.605,3.045 Z"
             style="fill:#034d70;fill-opacity:1;fill-rule:nonzero;stroke:none"
             id="path25380" />
        </g>
        <g
           id="g25382"
           transform="translate(1768.3162,455.6248)">
          <path
             d="M 0,0 V 0.459 H -1.806 L -23.132,-20.841 -44.18,0.23 h -1.804 v -0.46 l 22.283,-22.309 c 0.312,-0.311 0.819,-0.311 1.13,0 z"
             style="fill:#034d70;fill-opacity:1;fill-rule:nonzero;stroke:none"
             id="path25384" />
        </g>
      </g>
    </g>
  </g>
</svg>
