<?xml version="1.0" encoding="UTF-8" standalone="no"?>
<!-- Created with Inkscape (http://www.inkscape.org/) -->

<svg
   xmlns:dc="http://purl.org/dc/elements/1.1/"
   xmlns:cc="http://creativecommons.org/ns#"
   xmlns:rdf="http://www.w3.org/1999/02/22-rdf-syntax-ns#"
   xmlns:svg="http://www.w3.org/2000/svg"
   xmlns="http://www.w3.org/2000/svg"
   xmlns:sodipodi="http://sodipodi.sourceforge.net/DTD/sodipodi-0.dtd"
   xmlns:inkscape="http://www.inkscape.org/namespaces/inkscape"
   width="17.183001mm"
   height="15.465mm"
   viewBox="0 0 17.183001 15.465"
   version="1.1"
   id="svg29076"
   inkscape:version="0.92.3 (2405546, 2018-03-11)"
   sodipodi:docname="Policies_and_Permits_icons_dropdown.svg">
  <defs
     id="defs29070">
    <clipPath
       clipPathUnits="userSpaceOnUse"
       id="clipPath25218">
      <path
         d="M 0,0 H 1920 V 1080 H 0 Z"
         id="path25216"
         inkscape:connector-curvature="0" />
    </clipPath>
  </defs>
  <sodipodi:namedview
     id="base"
     pagecolor="#ffffff"
     bordercolor="#666666"
     borderopacity="1.0"
     inkscape:pageopacity="0.0"
     inkscape:pageshadow="2"
     inkscape:zoom="11.257409"
     inkscape:cx="32.471812"
     inkscape:cy="29.225197"
     inkscape:document-units="mm"
     inkscape:current-layer="layer1"
     showgrid="false"
     inkscape:window-width="1440"
     inkscape:window-height="838"
     inkscape:window-x="-8"
     inkscape:window-y="-8"
     inkscape:window-maximized="1" />
  <metadata
     id="metadata29073">
    <rdf:RDF>
      <cc:Work
         rdf:about="">
        <dc:format>image/svg+xml</dc:format>
        <dc:type
           rdf:resource="http://purl.org/dc/dcmitype/StillImage" />
        <dc:title></dc:title>
      </cc:Work>
    </rdf:RDF>
  </metadata>
  <g
     inkscape:label="Layer 1"
     inkscape:groupmode="layer"
     id="layer1"
     transform="translate(0,-281.535)">
    <g
       transform="matrix(0.35277777,0,0,-0.35277777,-365.85,582.25515)"
       id="g29045">
      <g
         id="g25212">
        <g
           clip-path="url(#clipPath25218)"
           id="g25214">
          <g
             transform="translate(1040.3015,819.1512)"
             id="g25220">
            <path
               inkscape:connector-curvature="0"
               id="path25222"
               style="fill:#034d70;fill-opacity:1;fill-rule:nonzero;stroke:none"
               d="m 0,0 h 23.543 v -9.742 c 0,-0.448 0.363,-0.812 0.812,-0.811 0.215,0 0.421,0.085 0.573,0.237 l 4.297,4.297 4.297,-4.297 c 0.152,-0.152 0.359,-0.238 0.574,-0.238 0.107,0 0.213,0.021 0.311,0.062 0.303,0.126 0.501,0.422 0.501,0.75 V 0 h 2.436 c 1.793,0 3.247,1.454 3.247,3.247 v 25.978 h 4.059 c 0.448,0 0.812,0.364 0.812,0.812 0,1.794 -1.454,3.247 -3.248,3.247 H 4.871 c -1.794,0 -3.247,-1.453 -3.247,-3.247 V 4.059 h -4.06 C -2.884,4.059 -3.247,3.696 -3.247,3.247 -3.247,1.454 -1.793,0 0,0 m 43.62,30.849 h -2.811 c 0.449,0.776 1.443,1.041 2.219,0.592 0.245,-0.142 0.449,-0.346 0.592,-0.592 M 2.435,2.435 H 22.731 V 4.059 H 3.247 v 25.978 c 0,0.897 0.727,1.624 1.624,1.624 H 39.418 C 39.126,31.169 38.97,30.609 38.967,30.037 V 4.059 H 35.72 V 2.435 h 3.029 C 38.459,1.933 37.923,1.624 37.344,1.624 H 34.908 V 2.435 H 33.284 V -7.782 l -3.485,3.485 c -0.317,0.317 -0.831,0.317 -1.148,0 L 25.166,-7.782 V 2.435 H 23.543 V 1.624 H 0 c -0.58,0 -1.115,0.309 -1.405,0.811 z" />
          </g>
          <g
             transform="translate(1064.427,822.8856)"
             id="g25224">
            <path
               inkscape:connector-curvature="0"
               id="path25226"
               style="fill:#034d70;fill-opacity:1;fill-rule:nonzero;stroke:none"
               d="m 0,0 c 0.053,-0.445 0.457,-0.763 0.902,-0.71 0.021,0.002 0.041,0.005 0.062,0.009 l 2.093,0.415 1.447,-1.567 c 0.304,-0.329 0.818,-0.349 1.147,-0.045 0.016,0.014 0.03,0.029 0.045,0.045 l 1.447,1.567 2.093,-0.415 c 0.222,-0.045 0.452,0.006 0.635,0.14 0.181,0.134 0.299,0.337 0.325,0.561 l 0.25,2.119 1.937,0.889 c 0.408,0.186 0.587,0.668 0.401,1.076 -0.01,0.02 -0.02,0.041 -0.031,0.06 l -1.04,1.863 1.044,1.862 c 0.22,0.391 0.082,0.886 -0.309,1.106 -0.02,0.011 -0.04,0.021 -0.061,0.03 L 10.45,9.893 10.2,12.012 C 10.147,12.457 9.743,12.775 9.298,12.722 9.277,12.72 9.256,12.716 9.236,12.712 L 7.143,12.297 5.696,13.865 C 5.372,14.194 4.842,14.198 4.513,13.874 4.51,13.871 4.507,13.868 4.504,13.865 L 3.057,12.297 0.964,12.712 C 0.524,12.799 0.097,12.513 0.01,12.073 0.006,12.053 0.002,12.032 0,12.012 L -0.25,9.893 -2.188,9.004 C -2.595,8.817 -2.775,8.335 -2.588,7.928 -2.579,7.907 -2.568,7.887 -2.557,7.867 L -1.513,6.007 -2.557,4.146 C -2.777,3.755 -2.639,3.26 -2.248,3.04 -2.229,3.029 -2.208,3.019 -2.188,3.009 L -0.25,2.12 Z M 0.125,6.401 -0.71,7.892 0.842,8.604 c 0.257,0.118 0.434,0.361 0.467,0.643 l 0.2,1.699 1.678,-0.332 c 0.277,-0.057 0.563,0.035 0.754,0.243 L 5.1,12.116 6.259,10.861 C 6.45,10.653 6.736,10.56 7.012,10.618 L 8.691,10.95 8.89,9.251 C 8.923,8.969 9.1,8.726 9.358,8.608 L 10.91,7.896 10.075,6.405 C 9.936,6.159 9.936,5.858 10.075,5.611 L 10.91,4.121 9.358,3.409 C 9.1,3.291 8.923,3.047 8.89,2.766 L 8.691,1.067 7.012,1.399 C 6.736,1.456 6.45,1.364 6.259,1.155 L 5.1,-0.101 3.941,1.154 C 3.787,1.32 3.571,1.414 3.345,1.414 3.292,1.414 3.239,1.409 3.187,1.398 L 1.509,1.066 1.309,2.765 C 1.276,3.046 1.099,3.29 0.842,3.408 L -0.71,4.12 0.125,5.61 c 0.14,0.248 0.143,0.549 0,0.794 z" />
          </g>
          <g
             transform="translate(1069.5269,824.8339)"
             id="g25228">
            <path
               inkscape:connector-curvature="0"
               id="path25230"
               style="fill:#034d70;fill-opacity:1;fill-rule:nonzero;stroke:none"
               d="M 0,0 C 2.242,0 4.059,1.817 4.059,4.059 4.059,6.301 2.242,8.118 0,8.118 -2.242,8.118 -4.059,6.301 -4.059,4.059 -4.056,1.818 -2.241,0.003 0,0 m 0,6.495 c 1.345,0 2.435,-1.091 2.435,-2.436 0,-1.345 -1.09,-2.435 -2.435,-2.435 -1.345,0 -2.435,1.09 -2.435,2.435 0,1.345 1.09,2.436 2.435,2.436" />
          </g>
        </g>
      </g>
      <path
         inkscape:connector-curvature="0"
         id="path25232"
         style="fill:#034d70;fill-opacity:1;fill-rule:nonzero;stroke:none"
         d="m 1054.914,847.565 h 12.989 v -1.624 h -12.989 z" />
      <path
         inkscape:connector-curvature="0"
         id="path25234"
         style="fill:#034d70;fill-opacity:1;fill-rule:nonzero;stroke:none"
         d="m 1046.796,842.694 h 29.225 v -1.624 h -29.225 z" />
      <path
         inkscape:connector-curvature="0"
         id="path25236"
         style="fill:#034d70;fill-opacity:1;fill-rule:nonzero;stroke:none"
         d="m 1046.796,839.447 h 29.225 v -1.624 h -29.225 z" />
      <path
         inkscape:connector-curvature="0"
         id="path25238"
         style="fill:#034d70;fill-opacity:1;fill-rule:nonzero;stroke:none"
         d="m 1047.608,828.893 h 10.554 v -1.624 h -10.554 z" />
    </g>
  </g>
</svg>
