<?xml version="1.0" encoding="UTF-8" standalone="no"?>
<!-- Created with Inkscape (http://www.inkscape.org/) -->

<svg
   xmlns:dc="http://purl.org/dc/elements/1.1/"
   xmlns:cc="http://creativecommons.org/ns#"
   xmlns:rdf="http://www.w3.org/1999/02/22-rdf-syntax-ns#"
   xmlns:svg="http://www.w3.org/2000/svg"
   xmlns="http://www.w3.org/2000/svg"
   xmlns:sodipodi="http://sodipodi.sourceforge.net/DTD/sodipodi-0.dtd"
   xmlns:inkscape="http://www.inkscape.org/namespaces/inkscape"
   width="50mm"
   height="50mm"
   viewBox="0 0 49.999999 49.999999"
   version="1.1"
   id="svg9253"
   inkscape:version="0.92.3 (2405546, 2018-03-11)"
   sodipodi:docname="responsible_care_icon.svg">
  <defs
     id="defs9247">
    <clipPath
       clipPathUnits="userSpaceOnUse"
       id="clipPath4305">
      <path
         d="M 0,0 H 1920 V 6826.783 H 0 Z"
         id="path4303"
         inkscape:connector-curvature="0" />
    </clipPath>
    <clipPath
       clipPathUnits="userSpaceOnUse"
       id="clipPath4321">
      <path
         d="M 0,0 H 1920 V 6826.783 H 0 Z"
         id="path4319"
         inkscape:connector-curvature="0" />
    </clipPath>
    <clipPath
       clipPathUnits="userSpaceOnUse"
       id="clipPath4337">
      <path
         d="M 0,0 H 1920 V 6826.783 H 0 Z"
         id="path4335"
         inkscape:connector-curvature="0" />
    </clipPath>
    <clipPath
       clipPathUnits="userSpaceOnUse"
       id="clipPath4353">
      <path
         d="M 0,0 H 1920 V 6826.783 H 0 Z"
         id="path4351"
         inkscape:connector-curvature="0" />
    </clipPath>
    <clipPath
       clipPathUnits="userSpaceOnUse"
       id="clipPath4377">
      <path
         d="M 0,0 H 1920 V 6826.783 H 0 Z"
         id="path4375"
         inkscape:connector-curvature="0" />
    </clipPath>
    <clipPath
       clipPathUnits="userSpaceOnUse"
       id="clipPath4393">
      <path
         d="M 0,0 H 1920 V 6826.783 H 0 Z"
         id="path4391"
         inkscape:connector-curvature="0" />
    </clipPath>
    <clipPath
       clipPathUnits="userSpaceOnUse"
       id="clipPath4413">
      <path
         d="M 0,0 H 1920 V 6826.783 H 0 Z"
         id="path4411"
         inkscape:connector-curvature="0" />
    </clipPath>
    <clipPath
       clipPathUnits="userSpaceOnUse"
       id="clipPath4437">
      <path
         d="M 0,0 H 1920 V 6826.783 H 0 Z"
         id="path4435"
         inkscape:connector-curvature="0" />
    </clipPath>
    <clipPath
       clipPathUnits="userSpaceOnUse"
       id="clipPath4453">
      <path
         d="M 0,0 H 1920 V 6826.783 H 0 Z"
         id="path4451"
         inkscape:connector-curvature="0" />
    </clipPath>
    <clipPath
       clipPathUnits="userSpaceOnUse"
       id="clipPath4481">
      <path
         d="M 0,0 H 1920 V 6826.783 H 0 Z"
         id="path4479"
         inkscape:connector-curvature="0" />
    </clipPath>
    <clipPath
       clipPathUnits="userSpaceOnUse"
       id="clipPath3279">
      <path
         d="M 0,0 H 1920 V 6826.783 H 0 Z"
         id="path3277"
         inkscape:connector-curvature="0" />
    </clipPath>
    <clipPath
       clipPathUnits="userSpaceOnUse"
       id="clipPath3237">
      <path
         d="M 0,0 H 1920 V 6826.783 H 0 Z"
         id="path3235"
         inkscape:connector-curvature="0" />
    </clipPath>
  </defs>
  <sodipodi:namedview
     id="base"
     pagecolor="#ffffff"
     bordercolor="#666666"
     borderopacity="1.0"
     inkscape:pageopacity="0.0"
     inkscape:pageshadow="2"
     inkscape:zoom="3.4819167"
     inkscape:cx="94.488189"
     inkscape:cy="94.488189"
     inkscape:document-units="mm"
     inkscape:current-layer="layer1"
     showgrid="false"
     inkscape:window-width="1440"
     inkscape:window-height="838"
     inkscape:window-x="-8"
     inkscape:window-y="-8"
     inkscape:window-maximized="1" />
  <metadata
     id="metadata9250">
    <rdf:RDF>
      <cc:Work
         rdf:about="">
        <dc:format>image/svg+xml</dc:format>
        <dc:type
           rdf:resource="http://purl.org/dc/dcmitype/StillImage" />
        <dc:title></dc:title>
      </cc:Work>
    </rdf:RDF>
  </metadata>
  <g
     inkscape:label="Layer 1"
     inkscape:groupmode="layer"
     id="layer1"
     transform="translate(0,-246.99998)">
    <g
       transform="matrix(0.35277777,0,0,-0.35277777,-363.20241,1372.2603)"
       id="g9123">
      <g
         id="g3231">
        <g
           clip-path="url(#clipPath3237)"
           id="g3233">
          <g
             transform="translate(1087.519,3077.2219)"
             id="g3239">
            <path
               inkscape:connector-curvature="0"
               id="path3241"
               style="fill:#00aeef;fill-opacity:1;fill-rule:nonzero;stroke:none"
               d="m 0,0 h -1.843 v 13.531 c 0.007,2.444 -0.965,4.789 -2.699,6.512 l -15.511,15.519 c -2.155,2.147 -5.644,2.147 -7.8,0 l -1.628,-1.633 v 19.505 c -0.002,2.048 -0.854,4.002 -2.354,5.396 -1.499,1.395 -3.51,2.103 -5.552,1.957 -3.928,-0.382 -6.903,-3.718 -6.835,-7.664 V 26.802 c 0,-2.292 0.853,-4.502 2.396,-6.197 L -25.796,2.972 V 0 h -1.842 c -1.018,0 -1.843,-0.825 -1.843,-1.843 v -12.898 c 0,-1.018 0.825,-1.842 1.843,-1.842 H 0 c 1.017,0 1.843,0.824 1.843,1.842 V -1.843 C 1.843,-0.825 1.017,0 0,0 m -39.099,23.086 c -0.925,1.015 -1.438,2.341 -1.437,3.716 v 26.321 c -0.05,2.007 1.422,3.728 3.412,3.988 1.069,0.076 2.119,-0.315 2.877,-1.073 0.694,-0.688 1.084,-1.626 1.081,-2.604 V 31.008 c -0.005,-1.467 0.579,-2.875 1.619,-3.91 l 9.976,-9.975 c 0.723,-0.698 1.872,-0.688 2.583,0.023 0.71,0.71 0.72,1.859 0.022,2.582 l -8.456,8.458 c -0.345,0.343 -0.538,0.809 -0.538,1.294 0,0.487 0.193,0.953 0.538,1.296 l 2.174,2.173 c 0.717,0.709 1.873,0.709 2.591,0 l 15.51,-15.512 c 1.033,-1.038 1.615,-2.442 1.619,-3.906 V 0 H -22.11 v 4.399 z m 37.256,-35.984 h -23.953 v 9.213 h 23.953 z" />
          </g>
          <g
             transform="translate(1150.7026,3138.0088)"
             id="g3243">
            <path
               inkscape:connector-curvature="0"
               id="path3245"
               style="fill:#00aeef;fill-opacity:1;fill-rule:nonzero;stroke:none"
               d="m 0,0 c -2.042,0.146 -4.053,-0.562 -5.552,-1.957 -1.499,-1.394 -2.352,-3.348 -2.355,-5.396 v -19.505 l -1.626,1.628 c -2.157,2.147 -5.645,2.147 -7.802,0 l -15.51,-15.514 c -1.734,-1.723 -2.706,-4.068 -2.701,-6.512 v -13.531 h -1.842 c -1.018,0 -1.843,-0.825 -1.843,-1.843 v -12.898 c 0,-1.017 0.825,-1.842 1.843,-1.842 h 27.639 c 1.017,0 1.842,0.825 1.842,1.842 v 12.898 c 0,1.018 -0.825,1.843 -1.842,1.843 h -1.843 v 2.973 l 16.031,17.632 c 1.542,1.695 2.396,3.905 2.394,6.197 V -7.664 C 6.902,-3.718 3.928,-0.382 0,0 m -11.592,-73.685 h -23.954 v 9.213 h 23.954 z m 14.741,39.7 c 0.002,-1.374 -0.511,-2.701 -1.437,-3.716 l -16.989,-18.687 v -4.399 H -31.86 v 13.531 c 0.003,1.464 0.585,2.87 1.619,3.908 l 15.517,15.51 c 0.717,0.709 1.872,0.709 2.591,0 l 2.174,-2.174 c 0.71,-0.714 0.71,-1.866 0,-2.58 l -8.462,-8.462 c -0.478,-0.462 -0.671,-1.147 -0.502,-1.79 0.168,-0.644 0.673,-1.148 1.317,-1.316 0.644,-0.169 1.328,0.023 1.791,0.503 l 9.976,9.974 c 1.038,1.034 1.62,2.44 1.618,3.904 v 22.426 c -0.002,0.978 0.387,1.916 1.081,2.604 0.758,0.758 1.807,1.148 2.876,1.073 1.99,-0.26 3.463,-1.981 3.413,-3.988 z" />
          </g>
          <g
             transform="translate(1065.4087,3068.0088)"
             id="g3247">
            <path
               inkscape:connector-curvature="0"
               id="path3249"
               style="fill:#00aeef;fill-opacity:1;fill-rule:nonzero;stroke:none"
               d="M 0,0 H 7.37 C 8.387,0 9.212,0.825 9.212,1.843 9.212,2.86 8.387,3.685 7.37,3.685 H 0 C -1.018,3.685 -1.843,2.86 -1.843,1.843 -1.843,0.825 -1.018,0 0,0" />
          </g>
          <g
             transform="translate(1077.606,3068.1565)"
             id="g3251">
            <path
               inkscape:connector-curvature="0"
               id="path3253"
               style="fill:#00aeef;fill-opacity:1;fill-rule:nonzero;stroke:none"
               d="M 0,0 C 0.221,-0.094 0.46,-0.144 0.7,-0.148 1.448,-0.151 2.126,0.298 2.413,0.989 2.7,1.68 2.54,2.477 2.008,3.003 1.478,3.527 0.686,3.679 0,3.391 -0.226,3.302 -0.432,3.17 -0.608,3.003 -0.946,2.651 -1.136,2.183 -1.143,1.695 -1.16,0.946 -0.702,0.265 0,0" />
          </g>
          <g
             transform="translate(1084.3057,3122.6997)"
             id="g3255">
            <path
               inkscape:connector-curvature="0"
               id="path3257"
               style="fill:#00aeef;fill-opacity:1;fill-rule:nonzero;stroke:none"
               d="m 0,0 c 0.005,-3.815 3.096,-6.906 6.91,-6.91 0.763,0 1.382,0.618 1.382,1.382 0,0.763 -0.619,1.382 -1.382,1.382 C 4.62,-4.146 2.764,-2.29 2.764,0 2.764,0.763 2.145,1.382 1.382,1.382 0.619,1.382 0,0.763 0,0" />
          </g>
          <g
             transform="translate(1084.3057,3170.1455)"
             id="g3259">
            <path
               inkscape:connector-curvature="0"
               id="path3261"
               style="fill:#00aeef;fill-opacity:1;fill-rule:nonzero;stroke:none"
               d="m 0,0 c 0.005,-3.814 3.096,-6.905 6.91,-6.91 0.702,0.01 1.398,0.128 2.065,0.35 l 7.097,-12.787 c -1.453,-1.309 -2.274,-3.179 -2.256,-5.135 0.019,-1.956 0.874,-3.809 2.352,-5.091 l -4.851,-7.74 c -3.411,1.487 -7.34,1.157 -10.456,-0.876 -3.117,-2.032 -5.001,-5.496 -5.015,-9.216 -0.014,-3.721 1.843,-7.199 4.943,-9.256 3.1,-2.057 7.027,-2.416 10.449,-0.956 l 5.011,-9.028 c -2.507,-2.186 -3.088,-5.853 -1.38,-8.708 1.708,-2.854 5.214,-4.075 8.326,-2.9 3.112,1.176 4.934,4.411 4.328,7.682 -0.606,3.27 -3.468,5.637 -6.794,5.62 -0.702,-0.01 -1.398,-0.128 -2.065,-0.351 l -5.046,9.088 c 2.726,2.073 4.334,5.297 4.347,8.722 0.015,3.426 -1.566,6.663 -4.275,8.759 l 4.874,7.791 c 0.696,-0.244 1.427,-0.374 2.165,-0.383 2.048,-0.021 4,0.867 5.329,2.426 1.33,1.558 1.899,3.626 1.555,5.644 -0.345,2.019 -1.566,3.782 -3.336,4.812 -1.771,1.03 -3.907,1.222 -5.832,0.524 L 11.39,-5.214 c 1.782,1.532 2.662,3.866 2.334,6.195 C 13.396,3.308 11.904,5.308 9.766,6.286 7.629,7.265 5.14,7.087 3.163,5.815 1.187,4.543 -0.005,2.351 0,0 m 24.875,-71.861 c 0,-1.677 -1.01,-3.189 -2.56,-3.83 -1.548,-0.642 -3.331,-0.287 -4.517,0.899 -1.186,1.185 -1.54,2.969 -0.899,4.517 0.642,1.549 2.153,2.56 3.83,2.56 2.29,0 4.146,-1.857 4.146,-4.146 m -9.674,24.415 c 0.013,-3.773 -2.513,-7.082 -6.157,-8.064 -3.643,-0.981 -7.49,0.613 -9.373,3.881 -1.883,3.27 -1.331,7.398 1.345,10.056 2.676,2.66 6.808,3.185 10.065,1.281 2.547,-1.483 4.116,-4.207 4.12,-7.154 m 9.674,23.031 c 0,-1.676 -1.01,-3.189 -2.56,-3.83 -1.548,-0.642 -3.331,-0.287 -4.517,0.899 -1.186,1.185 -1.54,2.969 -0.899,4.518 0.642,1.549 2.153,2.559 3.83,2.559 2.29,0 4.146,-1.856 4.146,-4.146 M 11.056,0 c 0,-1.677 -1.011,-3.188 -2.56,-3.83 C 6.948,-4.471 5.164,-4.117 3.978,-2.931 2.793,-1.745 2.438,0.038 3.08,1.586 3.721,3.135 5.233,4.146 6.91,4.146 9.199,4.146 11.056,2.29 11.056,0" />
          </g>
        </g>
      </g>
    </g>
  </g>
</svg>
