<?xml version="1.0" encoding="UTF-8" standalone="no"?>
<!-- Created with Inkscape (http://www.inkscape.org/) -->

<svg
   xmlns:dc="http://purl.org/dc/elements/1.1/"
   xmlns:cc="http://creativecommons.org/ns#"
   xmlns:rdf="http://www.w3.org/1999/02/22-rdf-syntax-ns#"
   xmlns:svg="http://www.w3.org/2000/svg"
   xmlns="http://www.w3.org/2000/svg"
   xmlns:sodipodi="http://sodipodi.sourceforge.net/DTD/sodipodi-0.dtd"
   xmlns:inkscape="http://www.inkscape.org/namespaces/inkscape"
   width="40mm"
   height="40mm"
   viewBox="0 0 40 40"
   version="1.1"
   id="svg10501"
   inkscape:version="0.92.3 (2405546, 2018-03-11)"
   sodipodi:docname="Shirts_Hoodies_icons.svg">
  <defs
     id="defs10495">
    <clipPath
       clipPathUnits="userSpaceOnUse"
       id="clipPath3445">
      <path
         d="M 0,0 H 1920 V 6826.783 H 0 Z"
         id="path3443"
         inkscape:connector-curvature="0" />
    </clipPath>
    <clipPath
       clipPathUnits="userSpaceOnUse"
       id="clipPath3425">
      <path
         d="M 0,0 H 1920 V 6826.783 H 0 Z"
         id="path3423"
         inkscape:connector-curvature="0" />
    </clipPath>
  </defs>
  <sodipodi:namedview
     id="base"
     pagecolor="#ffffff"
     bordercolor="#666666"
     borderopacity="1.0"
     inkscape:pageopacity="0.0"
     inkscape:pageshadow="2"
     inkscape:zoom="4.3523958"
     inkscape:cx="75.590551"
     inkscape:cy="75.590551"
     inkscape:document-units="mm"
     inkscape:current-layer="layer1"
     showgrid="false"
     inkscape:window-width="1440"
     inkscape:window-height="838"
     inkscape:window-x="-8"
     inkscape:window-y="-8"
     inkscape:window-maximized="1" />
  <metadata
     id="metadata10498">
    <rdf:RDF>
      <cc:Work
         rdf:about="">
        <dc:format>image/svg+xml</dc:format>
        <dc:type
           rdf:resource="http://purl.org/dc/dcmitype/StillImage" />
        <dc:title></dc:title>
      </cc:Work>
    </rdf:RDF>
  </metadata>
  <g
     inkscape:label="Layer 1"
     inkscape:groupmode="layer"
     id="layer1"
     transform="translate(0,-257)">
    <g
       transform="matrix(0.35277777,0,0,-0.35277777,-210.89525,1037.2392)"
       id="g3419">
      <g
         id="g3421"
         clip-path="url(#clipPath3425)">
        <g
           id="g3427"
           transform="translate(674.1364,2177.833)">
          <path
             d="m 0,0 h -11.946 c -0.719,0 -1.304,-0.583 -1.304,-1.304 v -10.517 c 0,-0.508 0.296,-0.969 0.757,-1.183 l 5.972,-2.772 c 0.177,-0.082 0.364,-0.122 0.547,-0.12 0.191,0 0.378,0.042 0.549,0.122 l 10e-4,-0.002 5.973,2.772 c 0.461,0.214 0.755,0.675 0.755,1.183 V -1.304 C 1.304,-0.584 0.719,0 0,0 m -1.304,-10.99 -4.668,-2.167 -4.669,2.167 v 8.383 h 9.337 z"
             style="fill:#034d70;fill-opacity:1;fill-rule:nonzero;stroke:none"
             id="path3429"
             inkscape:connector-curvature="0" />
        </g>
        <g
           id="g3431"
           transform="translate(701.5209,2130.6829)">
          <path
             d="m 0,0 c -0.346,6.558 -11.338,48.556 -12.254,52.611 -0.85,3.763 -2.238,6.584 -4.416,8.81 -0.02,0.026 -5.314,4.363 -17.898,9.708 l -3.129,5.123 c -0.246,0.401 -0.684,0.633 -1.143,0.622 v 0.002 h -16.349 v -0.002 c -0.46,0.011 -0.897,-0.221 -1.143,-0.622 l -3.13,-5.123 c -13.14,-5.638 -17.876,-9.682 -17.896,-9.707 -2.178,-2.227 -3.304,-4.312 -4.417,-8.813 C -82.773,48.575 -93.682,6.558 -94.029,0 c -0.493,-9.317 0.74,-17.859 0.844,-18.563 l 0.537,-5.753 c 0.062,-0.671 0.625,-1.183 1.297,-1.183 h 8.362 c 0.609,0 1.138,0.422 1.273,1.016 l 1.27,5.608 c 0.25,0.457 0.937,1.766 1.711,3.653 l -0.041,-3.841 c -0.01,-0.355 0.068,-1.566 1.382,-2.975 2.629,-2.822 10.034,-6.186 30.379,-6.186 20.345,0 27.751,3.364 30.38,6.186 1.312,1.409 1.39,2.62 1.381,2.975 l -0.042,3.842 c 0.776,-1.888 1.462,-3.197 1.711,-3.654 l 1.272,-5.608 c 0.135,-0.594 0.662,-1.016 1.272,-1.016 h 8.361 c 0.673,0 1.236,0.512 1.298,1.183 l 0.537,5.753 C -0.74,-17.859 0.492,-9.317 0,0 m -38.372,72.355 1.556,-2.548 c -0.714,-4.535 -3.905,-8.308 -5.543,-9.988 l -2.762,3.485 c 3.841,2.828 5.792,6.501 6.749,9.051 m -8.642,1.913 h 6.536 c -0.672,-2.169 -2.416,-6.233 -6.536,-9.11 -4.097,2.864 -5.852,6.937 -6.533,9.11 z m -8.642,-1.913 c 0.956,-2.55 2.906,-6.223 6.749,-9.051 l -2.763,-3.486 c -1.639,1.673 -4.826,5.438 -5.544,9.989 z m -28.373,-95.246 h -6.132 l -0.297,3.18 h 7.15 z m 1.568,5.787 h -8.287 c -0.33,2.644 -1.065,9.641 -0.678,16.965 0.334,6.294 11.269,48.077 12.195,52.175 0.608,2.698 1.469,4.766 2.754,6.449 0.431,-0.995 0.682,-2.381 0.697,-3.97 V 38.122 l -2.84,-43.298 c -0.773,-5.483 -2.982,-10.234 -3.841,-11.928 m 6.293,-2.002 0.149,13.747 2.844,43.353 c 0.003,0.027 0.003,16.488 0.003,16.497 0,0 0.111,3.86 -1.402,5.97 6.597,4.098 12.52,6.699 15.015,7.787 1.538,-6.506 6.932,-11.146 7.181,-11.353 0.695,-0.577 1.337,-0.416 1.864,0.185 l 2.195,2.77 v -85.462 c -14.028,0.104 -20.899,1.892 -24.205,3.398 -3.359,1.53 -3.644,3.108 -3.644,3.108 m 58.307,-0.002 c -0.017,-0.126 -0.285,-1.576 -3.644,-3.106 -3.306,-1.506 -10.178,-3.294 -24.206,-3.398 V 59.85 l 2.196,-2.77 c 0.59,-0.725 1.429,-0.601 1.864,-0.185 0.235,0.225 5.643,4.847 7.18,11.353 5.519,-2.251 14.267,-7.165 15.017,-7.788 -1.166,-1.872 -1.387,-4.409 -1.402,-5.917 0,0 0,-16.52 0.001,-16.549 l 2.845,-43.353 0.149,-13.746 z m 13.994,-3.783 H -10 l -0.72,3.18 h 7.15 z m 0.587,5.787 h -8.287 c -0.86,1.695 -3.068,6.445 -3.842,11.928 l -2.841,43.298 c 0,0 0,16.363 0.002,16.395 0.015,1.587 0.266,2.973 0.697,3.968 1.285,-1.683 2.144,-3.752 2.753,-6.449 0.926,-4.098 11.861,-45.881 12.194,-52.175 0.387,-7.317 -0.347,-14.32 -0.676,-16.965"
             style="fill:#034d70;fill-opacity:1;fill-rule:nonzero;stroke:none"
             id="path3433"
             inkscape:connector-curvature="0" />
        </g>
      </g>
    </g>
  </g>
</svg>
