<?xml version="1.0" encoding="UTF-8" standalone="no"?>
<!-- Generator: Adobe Illustrator 16.0.0, SVG Export Plug-In . SVG Version: 6.00 Build 0)  -->

<svg
   xmlns:dc="http://purl.org/dc/elements/1.1/"
   xmlns:cc="http://creativecommons.org/ns#"
   xmlns:rdf="http://www.w3.org/1999/02/22-rdf-syntax-ns#"
   xmlns:svg="http://www.w3.org/2000/svg"
   xmlns="http://www.w3.org/2000/svg"
   xmlns:sodipodi="http://sodipodi.sourceforge.net/DTD/sodipodi-0.dtd"
   xmlns:inkscape="http://www.inkscape.org/namespaces/inkscape"
   version="1.1"
   id="Capa_1"
   x="0px"
   y="0px"
   width="200"
   height="117"
   viewBox="0 0 200.00001 117.00001"
   xml:space="preserve"
   sodipodi:docname="arrow-down.svg"
   inkscape:version="0.92.3 (2405546, 2018-03-11)"><metadata
   id="metadata41"><rdf:RDF><cc:Work
       rdf:about=""><dc:format>image/svg+xml</dc:format><dc:type
         rdf:resource="http://purl.org/dc/dcmitype/StillImage" /><dc:title></dc:title></cc:Work></rdf:RDF></metadata><defs
   id="defs39" /><sodipodi:namedview
   pagecolor="#ffffff"
   bordercolor="#666666"
   borderopacity="1"
   objecttolerance="10"
   gridtolerance="10"
   guidetolerance="10"
   inkscape:pageopacity="0"
   inkscape:pageshadow="2"
   inkscape:window-width="1366"
   inkscape:window-height="705"
   id="namedview37"
   showgrid="false"
   inkscape:zoom="0.82827656"
   inkscape:cx="145.48281"
   inkscape:cy="142.46449"
   inkscape:window-x="-8"
   inkscape:window-y="-8"
   inkscape:window-maximized="1"
   inkscape:current-layer="Capa_1" />
<g
   id="g4"
   transform="translate(0,-167.92899)">
	<path
   d="m 198.00161,180.13429 -10.01934,-10.01863 c -1.33507,-1.33788 -2.873,-2.0047 -4.61168,-2.0047 -1.73446,0 -3.27169,0.66683 -4.60676,2.0047 l -78.76278,78.75857 -78.759267,-78.75646 c -1.335771,-1.33789 -2.872996,-2.00471 -4.609569,-2.00471 -1.737275,0 -3.2745,0.66683 -4.60957,2.00471 L 2.0047099,180.13711 C 0.66683279,181.47218 0,183.00939 0,184.74667 c 0,1.73588 0.66893858,3.2731 2.0047099,4.60816 l 93.3867731,93.38888 c 1.33507,1.33578 2.872997,2.00331 4.609567,2.00331 1.73658,0 3.2717,-0.66753 4.60606,-2.00331 l 93.3945,-93.38888 C 199.33668,188.01906 200,186.48185 200,184.74667 c 0,-1.73728 -0.66332,-3.27449 -1.99839,-4.61238 z"
   id="path2"
   inkscape:connector-curvature="0"
   style="stroke-width:0.70192927;fill:#ffffff" />
</g>
<g
   id="g6"
   transform="translate(0,-167.92899)">
</g>
<g
   id="g8"
   transform="translate(0,-167.92899)">
</g>
<g
   id="g10"
   transform="translate(0,-167.92899)">
</g>
<g
   id="g12"
   transform="translate(0,-167.92899)">
</g>
<g
   id="g14"
   transform="translate(0,-167.92899)">
</g>
<g
   id="g16"
   transform="translate(0,-167.92899)">
</g>
<g
   id="g18"
   transform="translate(0,-167.92899)">
</g>
<g
   id="g20"
   transform="translate(0,-167.92899)">
</g>
<g
   id="g22"
   transform="translate(0,-167.92899)">
</g>
<g
   id="g24"
   transform="translate(0,-167.92899)">
</g>
<g
   id="g26"
   transform="translate(0,-167.92899)">
</g>
<g
   id="g28"
   transform="translate(0,-167.92899)">
</g>
<g
   id="g30"
   transform="translate(0,-167.92899)">
</g>
<g
   id="g32"
   transform="translate(0,-167.92899)">
</g>
<g
   id="g34"
   transform="translate(0,-167.92899)">
</g>
</svg>