<?xml version="1.0" encoding="UTF-8" standalone="no"?>
<!-- Created with Inkscape (http://www.inkscape.org/) -->

<svg
   xmlns:dc="http://purl.org/dc/elements/1.1/"
   xmlns:cc="http://creativecommons.org/ns#"
   xmlns:rdf="http://www.w3.org/1999/02/22-rdf-syntax-ns#"
   xmlns:svg="http://www.w3.org/2000/svg"
   xmlns="http://www.w3.org/2000/svg"
   xmlns:sodipodi="http://sodipodi.sourceforge.net/DTD/sodipodi-0.dtd"
   xmlns:inkscape="http://www.inkscape.org/namespaces/inkscape"
   width="6.3499999mm"
   height="6.3499999mm"
   viewBox="0 0 6.3499999 6.3499999"
   version="1.1"
   id="svg24553"
   inkscape:version="0.92.3 (2405546, 2018-03-11)"
   sodipodi:docname="twitter_icon.svg">
  <defs
     id="defs24547" />
  <sodipodi:namedview
     id="base"
     pagecolor="#ffffff"
     bordercolor="#666666"
     borderopacity="1.0"
     inkscape:pageopacity="0.0"
     inkscape:pageshadow="2"
     inkscape:zoom="27.416667"
     inkscape:cx="12"
     inkscape:cy="12"
     inkscape:document-units="mm"
     inkscape:current-layer="layer1"
     showgrid="false"
     inkscape:window-width="1440"
     inkscape:window-height="838"
     inkscape:window-x="-8"
     inkscape:window-y="-8"
     inkscape:window-maximized="1" />
  <metadata
     id="metadata24550">
    <rdf:RDF>
      <cc:Work
         rdf:about="">
        <dc:format>image/svg+xml</dc:format>
        <dc:type
           rdf:resource="http://purl.org/dc/dcmitype/StillImage" />
        <dc:title></dc:title>
      </cc:Work>
    </rdf:RDF>
  </metadata>
  <g
     inkscape:label="Layer 1"
     inkscape:groupmode="layer"
     id="layer1"
     transform="translate(0,-290.65)">
    <path
       inkscape:connector-curvature="0"
       d="m 5.2916668,292.64264 q -0.231493,0.10336 -0.500239,0.14056 0.2811285,-0.16536 0.3844925,-0.48369 -0.2687108,0.1571 -0.5539669,0.21084 -0.2522008,-0.27285 -0.6325306,-0.27285 -0.3596569,0 -0.6159852,0.25632 -0.2521656,0.25218 -0.2521656,0.61184 0,0.11989 0.020815,0.19844 -0.5333298,-0.0289 -1.0004781,-0.26872 -0.4671483,-0.23977 -0.79375,-0.64078 -0.1198739,0.2067 -0.1198739,0.43821 0,0.47129 0.3762022,0.72347 -0.19431,-0.004 -0.4134202,-0.10748 v 0.008 q 0,0.31005 0.2066925,0.55397 0.2067277,0.23978 0.5084938,0.29765 -0.1198738,0.0331 -0.21082,0.0331 -0.053763,0 -0.1612194,-0.0166 0.086819,0.26045 0.3058936,0.42995 0.2232731,0.1695 0.5043664,0.17363 -0.4795308,0.37208 -1.0790061,0.37208 -0.1074561,0 -0.2066925,-0.0124 0.6118578,0.3886 1.3311716,0.3886 0.4630208,0 0.868186,-0.14469 0.40513,-0.14883 0.6945138,-0.39274 0.2893835,-0.24805 0.4961112,-0.56637 0.21082,-0.32246 0.3100565,-0.66973 0.103364,-0.3514 0.103364,-0.69866 0,-0.0744 -0.00423,-0.11162 0.2604558,-0.18604 0.4340928,-0.45062 z m 1.058333,-0.80202 v 3.96875 q 0,0.49197 -0.3514018,0.83923 Q 5.6513236,297 5.1593751,297 h -3.96875 Q 0.6986765,297 0.3472745,296.6486 1.0231628e-7,296.30134 1.0231628e-7,295.80937 v -3.96875 q 0,-0.49196 0.34727439768372,-0.83922 0.351402,-0.3514 0.8433506,-0.3514 h 3.96875 q 0.4919485,0 0.8392229,0.3514 0.3514018,0.34726 0.3514018,0.83922 z"
       style="font-variant:normal;font-weight:normal;font-stretch:normal;font-size:21px;font-family:FontAwesome;-inkscape-font-specification:FontAwesome;writing-mode:lr-tb;fill:#ffffff;fill-opacity:1;fill-rule:nonzero;stroke:none;stroke-width:0.35277775"
       id="path22831" />
  </g>
</svg>
