<?xml version="1.0" encoding="UTF-8" standalone="no"?>
<svg
   xmlns:dc="http://purl.org/dc/elements/1.1/"
   xmlns:cc="http://creativecommons.org/ns#"
   xmlns:rdf="http://www.w3.org/1999/02/22-rdf-syntax-ns#"
   xmlns:svg="http://www.w3.org/2000/svg"
   xmlns="http://www.w3.org/2000/svg"
   viewBox="0 0 86.666801 66.666664"
   height="66.666664"
   width="86.666801"
   xml:space="preserve"
   id="svg3119"
   version="1.1"><metadata
     id="metadata3125"><rdf:RDF><cc:Work
         rdf:about=""><dc:format>image/svg+xml</dc:format><dc:type
           rdf:resource="http://purl.org/dc/dcmitype/StillImage" /><dc:title></dc:title></cc:Work></rdf:RDF></metadata><defs
     id="defs3123" /><g
     transform="matrix(1.3333333,0,0,-1.3333333,0,66.666667)"
     id="g3127"><path
       id="path3131"
       style="fill:#2b333e;fill-opacity:1;fill-rule:nonzero;stroke:none"
       d="M 7.4999,3.2681 29.232,24.9999 7.4999,46.7317 10.7683,50 32.5001,28.2679 54.2319,50 57.5002,46.7317 35.7681,24.9999 57.5002,3.2681 54.2319,-3e-4 32.5001,21.7318 10.7683,-3e-4 Z" /></g></svg>