<?xml version="1.0" encoding="UTF-8" standalone="no"?>
<!-- Created with Inkscape (http://www.inkscape.org/) -->

<svg
   xmlns:dc="http://purl.org/dc/elements/1.1/"
   xmlns:cc="http://creativecommons.org/ns#"
   xmlns:rdf="http://www.w3.org/1999/02/22-rdf-syntax-ns#"
   xmlns:svg="http://www.w3.org/2000/svg"
   xmlns="http://www.w3.org/2000/svg"
   xmlns:sodipodi="http://sodipodi.sourceforge.net/DTD/sodipodi-0.dtd"
   xmlns:inkscape="http://www.inkscape.org/namespaces/inkscape"
   width="40mm"
   height="40mm"
   viewBox="0 0 40 40"
   version="1.1"
   id="svg10501"
   inkscape:version="0.92.3 (2405546, 2018-03-11)"
   sodipodi:docname="Disaster_Relief_icon.svg">
  <defs
     id="defs10495">
    <clipPath
       clipPathUnits="userSpaceOnUse"
       id="clipPath3445">
      <path
         d="M 0,0 H 1920 V 6826.783 H 0 Z"
         id="path3443"
         inkscape:connector-curvature="0" />
    </clipPath>
    <clipPath
       clipPathUnits="userSpaceOnUse"
       id="clipPath3425">
      <path
         d="M 0,0 H 1920 V 6826.783 H 0 Z"
         id="path3423"
         inkscape:connector-curvature="0" />
    </clipPath>
    <clipPath
       clipPathUnits="userSpaceOnUse"
       id="clipPath3529">
      <path
         d="M 0,0 H 1920 V 6826.783 H 0 Z"
         id="path3527"
         inkscape:connector-curvature="0" />
    </clipPath>
    <clipPath
       clipPathUnits="userSpaceOnUse"
       id="clipPath3553">
      <path
         d="M 0,0 H 1920 V 6826.783 H 0 Z"
         id="path3551"
         inkscape:connector-curvature="0" />
    </clipPath>
    <clipPath
       clipPathUnits="userSpaceOnUse"
       id="clipPath3465">
      <path
         d="M 0,0 H 1920 V 6826.783 H 0 Z"
         id="path3463"
         inkscape:connector-curvature="0" />
    </clipPath>
    <clipPath
       clipPathUnits="userSpaceOnUse"
       id="clipPath3505">
      <path
         d="M 0,0 H 1920 V 6826.783 H 0 Z"
         id="path3503"
         inkscape:connector-curvature="0" />
    </clipPath>
  </defs>
  <sodipodi:namedview
     id="base"
     pagecolor="#ffffff"
     bordercolor="#666666"
     borderopacity="1.0"
     inkscape:pageopacity="0.0"
     inkscape:pageshadow="2"
     inkscape:zoom="4.3523958"
     inkscape:cx="75.590551"
     inkscape:cy="75.590551"
     inkscape:document-units="mm"
     inkscape:current-layer="layer1"
     showgrid="false"
     inkscape:window-width="1440"
     inkscape:window-height="838"
     inkscape:window-x="-8"
     inkscape:window-y="-8"
     inkscape:window-maximized="1" />
  <metadata
     id="metadata10498">
    <rdf:RDF>
      <cc:Work
         rdf:about="">
        <dc:format>image/svg+xml</dc:format>
        <dc:type
           rdf:resource="http://purl.org/dc/dcmitype/StillImage" />
        <dc:title></dc:title>
      </cc:Work>
    </rdf:RDF>
  </metadata>
  <g
     inkscape:label="Layer 1"
     inkscape:groupmode="layer"
     id="layer1"
     transform="translate(0,-257)">
    <g
       transform="matrix(0.35277777,0,0,-0.35277777,-501.58463,1037.2392)"
       id="g3499">
      <g
         id="g3501"
         clip-path="url(#clipPath3505)">
        <g
           id="g3507"
           transform="translate(1513.0408,2133.3555)">
          <path
             d="m 0,0 c -0.008,0.01 -0.012,0.023 -0.02,0.034 -0.011,0.008 -0.024,0.012 -0.034,0.02 -2.405,2.394 -5.716,3.874 -9.367,3.874 -7.33,0 -13.295,-5.965 -13.295,-13.295 0,-3.652 1.48,-6.963 3.873,-9.367 0.009,-0.01 0.012,-0.024 0.021,-0.034 0.01,-0.009 0.024,-0.012 0.034,-0.02 2.404,-2.394 5.715,-3.874 9.367,-3.874 7.33,0 13.295,5.965 13.295,13.295 C 3.874,-5.716 2.393,-2.405 0,0 m -19.762,-9.367 c 0,5.702 4.639,10.34 10.341,10.34 2.318,0 4.455,-0.777 6.181,-2.069 l -14.452,-14.453 c -1.292,1.726 -2.07,3.862 -2.07,6.182 m 10.341,-10.34 c -2.319,0 -4.455,0.777 -6.182,2.069 L -1.15,-3.185 c 1.292,-1.727 2.069,-3.863 2.069,-6.182 0,-5.702 -4.638,-10.34 -10.34,-10.34"
             style="fill:#034d70;fill-opacity:1;fill-rule:nonzero;stroke:none"
             id="path3509"
             inkscape:connector-curvature="0" />
        </g>
        <g
           id="g3511"
           transform="translate(1490.3245,2113.6484)">
          <path
             d="m 0,0 h -42.838 c -2.444,0 -4.432,1.988 -4.432,4.431 v 4.431 h 42.838 c 0.816,0 1.478,0.662 1.478,1.478 0,0.816 -0.662,1.477 -1.478,1.477 H -47.27 V 44.315 H 14.772 V 27.604 c 0,-0.816 0.662,-1.476 1.477,-1.476 0.816,0 1.478,0.66 1.478,1.476 v 25.574 c 0,3.752 -2.766,7.277 -6.919,8.788 l -7.854,2.618 v 3.366 h 1.478 c 0.815,0 1.476,0.662 1.476,1.477 v 11.818 c 0,2.443 -1.988,4.431 -4.43,4.431 h -35.453 c -2.443,0 -4.431,-1.988 -4.431,-4.431 V 69.427 c 0,-0.815 0.661,-1.477 1.476,-1.477 h 32.498 c 0.816,0 1.478,0.662 1.478,1.477 v 5.909 c 0,0.815 -0.662,1.477 -1.478,1.477 -0.814,0 -1.476,-0.662 -1.476,-1.477 v -4.431 h -5.909 v 4.431 c 0,0.815 -0.662,1.477 -1.477,1.477 -0.816,0 -1.477,-0.662 -1.477,-1.477 v -4.431 h -5.91 v 4.431 c 0,0.815 -0.662,1.477 -1.476,1.477 -0.816,0 -1.478,-0.662 -1.478,-1.477 v -4.431 h -5.908 v 4.431 c 0,0.815 -0.662,1.477 -1.478,1.477 -0.815,0 -1.476,-0.662 -1.476,-1.477 v -4.431 h -2.955 v 10.34 c 0,0.814 0.663,1.477 1.477,1.477 H 1.478 c 0.814,0 1.476,-0.663 1.476,-1.477 V 70.905 H 1.478 C 0.662,70.905 0,70.243 0,69.427 v -5.908 c 0,-0.637 0.407,-1.201 1.011,-1.402 l 8.825,-2.941 c 2.952,-1.074 4.936,-3.483 4.936,-5.998 V 47.27 H -47.27 v 5.908 c 0,2.435 2.037,4.904 4.898,5.985 l 8.864,2.954 c 0.774,0.258 1.193,1.094 0.935,1.869 -0.258,0.774 -1.093,1.195 -1.868,0.934 l -8.919,-2.973 c -4.104,-1.55 -6.864,-5.074 -6.864,-8.769 V 4.431 c 0,-4.073 3.313,-7.386 7.386,-7.386 H 0 c 0.816,0 1.478,0.662 1.478,1.477 C 1.478,-0.662 0.816,0 0,0"
             style="fill:#034d70;fill-opacity:1;fill-rule:nonzero;stroke:none"
             id="path3513"
             inkscape:connector-curvature="0" />
        </g>
        <g
           id="g3515"
           transform="translate(1471.1213,2131.3743)">
          <path
             d="m 0,0 h 5.908 c 0.816,0 1.478,0.662 1.478,1.477 v 4.432 h 4.432 c 0.814,0 1.476,0.662 1.476,1.476 v 5.91 c 0,0.815 -0.662,1.476 -1.476,1.476 H 7.386 v 4.432 c 0,0.816 -0.662,1.478 -1.477,1.478 H 0 c -0.815,0 -1.477,-0.662 -1.477,-1.478 v -4.432 h -4.431 c -0.816,0 -1.478,-0.661 -1.478,-1.476 v -5.91 c 0,-0.814 0.662,-1.476 1.478,-1.476 h 4.431 V 1.477 C -1.478,0.662 -0.816,0 0,0 m -4.432,8.863 v 2.954 H 0 c 0.816,0 1.478,0.662 1.478,1.478 v 4.432 h 2.954 v -4.432 c 0,-0.816 0.661,-1.478 1.476,-1.478 H 10.34 V 8.863 H 5.908 C 5.093,8.863 4.432,8.201 4.432,7.385 V 2.955 H 1.478 v 4.43 C 1.478,8.201 0.816,8.863 0,8.863 Z"
             style="fill:#034d70;fill-opacity:1;fill-rule:nonzero;stroke:none"
             id="path3517"
             inkscape:connector-curvature="0" />
        </g>
      </g>
    </g>
  </g>
</svg>
