<?xml version="1.0" encoding="UTF-8" standalone="no"?>
<!-- Created with Inkscape (http://www.inkscape.org/) -->

<svg
   xmlns:dc="http://purl.org/dc/elements/1.1/"
   xmlns:cc="http://creativecommons.org/ns#"
   xmlns:rdf="http://www.w3.org/1999/02/22-rdf-syntax-ns#"
   xmlns:svg="http://www.w3.org/2000/svg"
   xmlns="http://www.w3.org/2000/svg"
   xmlns:sodipodi="http://sodipodi.sourceforge.net/DTD/sodipodi-0.dtd"
   xmlns:inkscape="http://www.inkscape.org/namespaces/inkscape"
   width="11.816mm"
   height="11.429mm"
   viewBox="0 0 11.816 11.429"
   version="1.1"
   id="svg12666"
   inkscape:version="0.92.3 (2405546, 2018-03-11)"
   sodipodi:docname="main_location_icon.svg">
  <defs
     id="defs12660" />
  <sodipodi:namedview
     id="base"
     pagecolor="#ffffff"
     bordercolor="#666666"
     borderopacity="1.0"
     inkscape:pageopacity="0.0"
     inkscape:pageshadow="2"
     inkscape:zoom="15.232814"
     inkscape:cx="22.329449"
     inkscape:cy="21.59811"
     inkscape:document-units="mm"
     inkscape:current-layer="layer1"
     showgrid="false"
     inkscape:window-width="1440"
     inkscape:window-height="838"
     inkscape:window-x="-8"
     inkscape:window-y="-8"
     inkscape:window-maximized="1" />
  <metadata
     id="metadata12663">
    <rdf:RDF>
      <cc:Work
         rdf:about="">
        <dc:format>image/svg+xml</dc:format>
        <dc:type
           rdf:resource="http://purl.org/dc/dcmitype/StillImage" />
        <dc:title></dc:title>
      </cc:Work>
    </rdf:RDF>
  </metadata>
  <g
     inkscape:label="Layer 1"
     inkscape:groupmode="layer"
     id="layer1"
     transform="translate(0,-285.571)">
    <g
       transform="matrix(0.35277777,0,0,-0.35277777,-454.1533,688.71305)"
       id="g12591">
      <g
         transform="translate(1320.0078,1136.1868)"
         id="g4169">
        <path
           inkscape:connector-curvature="0"
           id="path4171"
           style="fill:#455560;fill-opacity:1;fill-rule:nonzero;stroke:none"
           d="m 0,0 h -1.343 v 0.247 c 0,0.492 -0.358,0.849 -0.85,0.849 -0.492,0 -0.849,-0.357 -0.849,-0.849 V 0 h -1.59 v 0.247 c 0,0.492 -0.358,0.849 -0.85,0.849 -0.492,0 -0.85,-0.357 -0.85,-0.849 V 0 h -1.589 v 4.632 c 0,0.492 -0.357,0.85 -0.85,0.85 h -4.632 v 0.246 c 0,0.493 -0.358,0.85 -0.85,0.85 -0.492,0 -0.849,-0.357 -0.849,-0.85 V 5.482 h -1.59 v 0.246 c 0,0.493 -0.357,0.85 -0.85,0.85 -0.492,0 -0.849,-0.357 -0.849,-0.85 V 5.482 h -4.632 c -0.493,0 -0.85,-0.358 -0.85,-0.85 V 0 h -1.59 v 0.247 c 0,0.492 -0.357,0.849 -0.849,0.849 -0.493,0 -0.85,-0.357 -0.85,-0.849 V 0 h -1.59 v 0.247 c 0,0.492 -0.357,0.849 -0.85,0.849 -0.492,0 -0.849,-0.357 -0.849,-0.849 V 0 h -1.343 c -0.493,0 -0.85,-0.357 -0.85,-0.85 v -19.734 -4.385 c 0,-0.492 0.357,-0.85 0.85,-0.85 h 8.771 2.74 8.771 2.741 H 0 c 0.492,0 0.85,0.358 0.85,0.85 v 4.385 19.734 C 0.85,-0.357 0.492,0 0,0 m -23.873,-19.734 h -7.072 v 18.035 h 7.072 z M -9.621,3.782 V -0.85 -20.584 -24.12 h -1.041 v 4.632 c 0,0.493 -0.358,0.85 -0.85,0.85 h -8.771 c -0.491,0 -0.849,-0.357 -0.849,-0.85 v -4.632 h -1.042 v 3.536 19.734 4.632 z m 8.771,-23.516 h -7.072 v 18.035 h 7.072 z m -18.583,-0.603 h 2.686 v -3.783 h -2.686 z m 4.386,0 h 2.686 v -3.783 h -2.686 z m -15.898,-1.097 h 7.072 v -2.686 h -7.072 z M -0.85,-24.12 h -7.072 v 2.686 h 7.072 z" />
      </g>
      <g
         transform="translate(1300.8218,1134.2407)"
         id="g4173">
        <path
           inkscape:connector-curvature="0"
           id="path4175"
           style="fill:#455560;fill-opacity:1;fill-rule:nonzero;stroke:none"
           d="m 0,0 h 1.096 c 0.603,0 1.096,0.493 1.096,1.096 v 1.097 c 0,0.603 -0.493,1.096 -1.096,1.096 H 0 c -0.603,0 -1.097,-0.493 -1.097,-1.096 V 1.096 C -1.097,0.493 -0.603,0 0,0 M 0,2.193 H 1.096 V 1.097 H 0 Z" />
      </g>
      <g
         transform="translate(1306.3032,1134.2407)"
         id="g4177">
        <path
           inkscape:connector-curvature="0"
           id="path4179"
           style="fill:#455560;fill-opacity:1;fill-rule:nonzero;stroke:none"
           d="M 0,0 H 1.097 C 1.7,0 2.193,0.493 2.193,1.096 V 2.193 C 2.193,2.796 1.7,3.289 1.097,3.289 H 0 c -0.603,0 -1.096,-0.493 -1.096,-1.096 V 1.096 C -1.096,0.493 -0.603,0 0,0 M 0,2.193 H 1.097 V 1.097 H 0 Z" />
      </g>
      <g
         transform="translate(1300.8218,1129.8553)"
         id="g4181">
        <path
           inkscape:connector-curvature="0"
           id="path4183"
           style="fill:#455560;fill-opacity:1;fill-rule:nonzero;stroke:none"
           d="m 0,0 h 1.096 c 0.603,0 1.096,0.493 1.096,1.096 v 1.097 c 0,0.603 -0.493,1.096 -1.096,1.096 H 0 c -0.603,0 -1.097,-0.493 -1.097,-1.096 V 1.096 C -1.097,0.493 -0.603,0 0,0 M 0,2.193 H 1.096 V 1.097 H 0 Z" />
      </g>
      <g
         transform="translate(1306.3032,1129.8553)"
         id="g4185">
        <path
           inkscape:connector-curvature="0"
           id="path4187"
           style="fill:#455560;fill-opacity:1;fill-rule:nonzero;stroke:none"
           d="M 0,0 H 1.097 C 1.7,0 2.193,0.493 2.193,1.096 V 2.193 C 2.193,2.796 1.7,3.289 1.097,3.289 H 0 c -0.603,0 -1.096,-0.493 -1.096,-1.096 V 1.096 C -1.096,0.493 -0.603,0 0,0 M 0,2.193 H 1.097 V 1.097 H 0 Z" />
      </g>
      <g
         transform="translate(1300.8218,1125.47)"
         id="g4189">
        <path
           inkscape:connector-curvature="0"
           id="path4191"
           style="fill:#455560;fill-opacity:1;fill-rule:nonzero;stroke:none"
           d="m 0,0 h 1.096 c 0.603,0 1.096,0.493 1.096,1.096 v 1.097 c 0,0.603 -0.493,1.096 -1.096,1.096 H 0 c -0.603,0 -1.097,-0.493 -1.097,-1.096 V 1.096 C -1.097,0.493 -0.603,0 0,0 M 0,2.193 H 1.096 V 1.097 H 0 Z" />
      </g>
      <g
         transform="translate(1306.3032,1125.47)"
         id="g4193">
        <path
           inkscape:connector-curvature="0"
           id="path4195"
           style="fill:#455560;fill-opacity:1;fill-rule:nonzero;stroke:none"
           d="M 0,0 H 1.097 C 1.7,0 2.193,0.493 2.193,1.096 V 2.193 C 2.193,2.796 1.7,3.289 1.097,3.289 H 0 c -0.603,0 -1.096,-0.493 -1.096,-1.096 V 1.096 C -1.096,0.493 -0.603,0 0,0 M 0,2.193 H 1.097 V 1.097 H 0 Z" />
      </g>
      <g
         transform="translate(1300.8218,1121.0845)"
         id="g4197">
        <path
           inkscape:connector-curvature="0"
           id="path4199"
           style="fill:#455560;fill-opacity:1;fill-rule:nonzero;stroke:none"
           d="m 0,0 h 1.096 c 0.603,0 1.096,0.493 1.096,1.096 v 1.097 c 0,0.603 -0.493,1.096 -1.096,1.096 H 0 c -0.603,0 -1.097,-0.493 -1.097,-1.096 V 1.096 C -1.097,0.493 -0.603,0 0,0 M 0,2.193 H 1.096 V 1.097 H 0 Z" />
      </g>
      <g
         transform="translate(1306.3032,1121.0845)"
         id="g4201">
        <path
           inkscape:connector-curvature="0"
           id="path4203"
           style="fill:#455560;fill-opacity:1;fill-rule:nonzero;stroke:none"
           d="M 0,0 H 1.097 C 1.7,0 2.193,0.493 2.193,1.096 V 2.193 C 2.193,2.796 1.7,3.289 1.097,3.289 H 0 c -0.603,0 -1.096,-0.493 -1.096,-1.096 V 1.096 C -1.096,0.493 -0.603,0 0,0 M 0,2.193 H 1.097 V 1.097 H 0 Z" />
      </g>
      <g
         transform="translate(1315.0742,1130.4036)"
         id="g4205">
        <path
           inkscape:connector-curvature="0"
           id="path4207"
           style="fill:#455560;fill-opacity:1;fill-rule:nonzero;stroke:none"
           d="m 0,0 h 1.096 c 0.603,0 1.097,0.493 1.097,1.096 v 1.097 c 0,0.603 -0.494,1.096 -1.097,1.096 H 0 c -0.603,0 -1.097,-0.493 -1.097,-1.096 V 1.096 C -1.097,0.493 -0.603,0 0,0 M 0,2.193 H 1.096 V 1.097 H 0 Z" />
      </g>
      <g
         transform="translate(1315.0742,1126.0181)"
         id="g4209">
        <path
           inkscape:connector-curvature="0"
           id="path4211"
           style="fill:#455560;fill-opacity:1;fill-rule:nonzero;stroke:none"
           d="m 0,0 h 1.096 c 0.603,0 1.097,0.493 1.097,1.096 v 1.097 c 0,0.603 -0.494,1.096 -1.097,1.096 H 0 c -0.603,0 -1.097,-0.493 -1.097,-1.096 V 1.096 C -1.097,0.493 -0.603,0 0,0 M 0,2.193 H 1.096 V 1.097 H 0 Z" />
      </g>
      <g
         transform="translate(1315.0742,1121.6327)"
         id="g4213">
        <path
           inkscape:connector-curvature="0"
           id="path4215"
           style="fill:#455560;fill-opacity:1;fill-rule:nonzero;stroke:none"
           d="m 0,0 h 1.096 c 0.603,0 1.097,0.493 1.097,1.096 v 1.097 c 0,0.603 -0.494,1.096 -1.097,1.096 H 0 c -0.603,0 -1.097,-0.493 -1.097,-1.096 V 1.096 C -1.097,0.493 -0.603,0 0,0 M 0,2.193 H 1.096 V 1.097 H 0 Z" />
      </g>
      <g
         transform="translate(1315.0742,1117.2473)"
         id="g4217">
        <path
           inkscape:connector-curvature="0"
           id="path4219"
           style="fill:#455560;fill-opacity:1;fill-rule:nonzero;stroke:none"
           d="m 0,0 h 1.096 c 0.603,0 1.097,0.493 1.097,1.096 v 1.097 c 0,0.603 -0.494,1.096 -1.097,1.096 H 0 c -0.603,0 -1.097,-0.493 -1.097,-1.096 V 1.096 C -1.097,0.493 -0.603,0 0,0 M 0,2.193 H 1.096 V 1.097 H 0 Z" />
      </g>
      <g
         transform="translate(1292.0508,1130.4036)"
         id="g4221">
        <path
           inkscape:connector-curvature="0"
           id="path4223"
           style="fill:#455560;fill-opacity:1;fill-rule:nonzero;stroke:none"
           d="m 0,0 h 1.096 c 0.603,0 1.097,0.493 1.097,1.096 v 1.097 c 0,0.603 -0.494,1.096 -1.097,1.096 H 0 c -0.603,0 -1.096,-0.493 -1.096,-1.096 V 1.096 C -1.096,0.493 -0.603,0 0,0 M 0,2.193 H 1.096 V 1.097 H 0 Z" />
      </g>
      <g
         transform="translate(1292.0508,1126.0181)"
         id="g4225">
        <path
           inkscape:connector-curvature="0"
           id="path4227"
           style="fill:#455560;fill-opacity:1;fill-rule:nonzero;stroke:none"
           d="m 0,0 h 1.096 c 0.603,0 1.097,0.493 1.097,1.096 v 1.097 c 0,0.603 -0.494,1.096 -1.097,1.096 H 0 c -0.603,0 -1.096,-0.493 -1.096,-1.096 V 1.096 C -1.096,0.493 -0.603,0 0,0 M 0,2.193 H 1.096 V 1.097 H 0 Z" />
      </g>
      <g
         transform="translate(1292.0508,1121.6327)"
         id="g4229">
        <path
           inkscape:connector-curvature="0"
           id="path4231"
           style="fill:#455560;fill-opacity:1;fill-rule:nonzero;stroke:none"
           d="m 0,0 h 1.096 c 0.603,0 1.097,0.493 1.097,1.096 v 1.097 c 0,0.603 -0.494,1.096 -1.097,1.096 H 0 c -0.603,0 -1.096,-0.493 -1.096,-1.096 V 1.096 C -1.096,0.493 -0.603,0 0,0 M 0,2.193 H 1.096 V 1.097 H 0 Z" />
      </g>
      <g
         transform="translate(1292.0508,1117.2473)"
         id="g4233">
        <path
           inkscape:connector-curvature="0"
           id="path4235"
           style="fill:#455560;fill-opacity:1;fill-rule:nonzero;stroke:none"
           d="m 0,0 h 1.096 c 0.603,0 1.097,0.493 1.097,1.096 v 1.097 c 0,0.603 -0.494,1.096 -1.097,1.096 H 0 c -0.603,0 -1.096,-0.493 -1.096,-1.096 V 1.096 C -1.096,0.493 -0.603,0 0,0 M 0,2.193 H 1.096 V 1.097 H 0 Z" />
      </g>
    </g>
  </g>
</svg>
