<?xml version="1.0" encoding="UTF-8" standalone="no"?>
<svg
   xmlns:dc="http://purl.org/dc/elements/1.1/"
   xmlns:cc="http://creativecommons.org/ns#"
   xmlns:rdf="http://www.w3.org/1999/02/22-rdf-syntax-ns#"
   xmlns:svg="http://www.w3.org/2000/svg"
   xmlns="http://www.w3.org/2000/svg"
   id="svg9253"
   version="1.1"
   viewBox="0 0 49.999999 49.999999"
   height="50mm"
   width="50mm">
  <defs
     id="defs9247">
    <clipPath
       id="clipPath4305"
       clipPathUnits="userSpaceOnUse">
      <path
         id="path4303"
         d="M 0,0 H 1920 V 6826.783 H 0 Z" />
    </clipPath>
    <clipPath
       id="clipPath4321"
       clipPathUnits="userSpaceOnUse">
      <path
         id="path4319"
         d="M 0,0 H 1920 V 6826.783 H 0 Z" />
    </clipPath>
    <clipPath
       id="clipPath4337"
       clipPathUnits="userSpaceOnUse">
      <path
         id="path4335"
         d="M 0,0 H 1920 V 6826.783 H 0 Z" />
    </clipPath>
    <clipPath
       id="clipPath4353"
       clipPathUnits="userSpaceOnUse">
      <path
         id="path4351"
         d="M 0,0 H 1920 V 6826.783 H 0 Z" />
    </clipPath>
    <clipPath
       id="clipPath4377"
       clipPathUnits="userSpaceOnUse">
      <path
         id="path4375"
         d="M 0,0 H 1920 V 6826.783 H 0 Z" />
    </clipPath>
    <clipPath
       id="clipPath4393"
       clipPathUnits="userSpaceOnUse">
      <path
         id="path4391"
         d="M 0,0 H 1920 V 6826.783 H 0 Z" />
    </clipPath>
    <clipPath
       id="clipPath4413"
       clipPathUnits="userSpaceOnUse">
      <path
         id="path4411"
         d="M 0,0 H 1920 V 6826.783 H 0 Z" />
    </clipPath>
    <clipPath
       id="clipPath4437"
       clipPathUnits="userSpaceOnUse">
      <path
         id="path4435"
         d="M 0,0 H 1920 V 6826.783 H 0 Z" />
    </clipPath>
    <clipPath
       id="clipPath4453"
       clipPathUnits="userSpaceOnUse">
      <path
         id="path4451"
         d="M 0,0 H 1920 V 6826.783 H 0 Z" />
    </clipPath>
    <clipPath
       id="clipPath4481"
       clipPathUnits="userSpaceOnUse">
      <path
         id="path4479"
         d="M 0,0 H 1920 V 6826.783 H 0 Z" />
    </clipPath>
  </defs>
  <metadata
     id="metadata9250">
    <rdf:RDF>
      <cc:Work
         rdf:about="">
        <dc:format>image/svg+xml</dc:format>
        <dc:type
           rdf:resource="http://purl.org/dc/dcmitype/StillImage" />
        <dc:title></dc:title>
      </cc:Work>
    </rdf:RDF>
  </metadata>
  <g
     transform="translate(0,-246.99998)"
     id="layer1">
    <g
       id="g9245"
       transform="matrix(0.35277777,0,0,-0.35277777,-263.9021,1372.2144)">
      <g
         id="g4299">
        <g
           id="g4301"
           clip-path="url(#clipPath4305)">
          <g
             id="g4307"
             transform="translate(772.3943,3107.8433)">
            <path
               d="m 0,0 c -0.624,0.22 -1.144,0.601 -1.562,1.14 -0.417,0.538 -0.692,1.209 -0.824,2.009 l -0.47,2.839 7.53,1.245 0.47,-2.838 C 5.277,3.587 5.237,2.864 5.022,2.223 4.807,1.583 4.441,1.059 3.925,0.648 3.409,0.24 2.782,-0.026 2.043,-0.148 1.305,-0.271 0.624,-0.221 0,0 M 0.055,2.019 C 0.496,1.688 1.057,1.578 1.739,1.691 2.421,1.804 2.917,2.088 3.229,2.544 3.54,3 3.637,3.582 3.52,4.29 L 3.377,5.151 -0.926,4.44 -0.783,3.578 C -0.666,2.87 -0.387,2.35 0.055,2.019"
               style="fill:#00aeef;fill-opacity:1;fill-rule:nonzero;stroke:none"
               id="path4309" />
          </g>
        </g>
      </g>
      <g
         id="g4311"
         transform="translate(780.8643,3101.1699)">
        <path
           d="m 0,0 -7.001,-3.041 -0.734,1.69 7.001,3.041 z"
           style="fill:#00aeef;fill-opacity:1;fill-rule:nonzero;stroke:none"
           id="path4313" />
      </g>
      <g
         id="g4315">
        <g
           id="g4317"
           clip-path="url(#clipPath4321)">
          <g
             id="g4323"
             transform="translate(781.5095,3087.7595)">
            <path
               d="m 0,0 c -0.394,-0.038 -0.79,0.043 -1.19,0.244 -0.399,0.2 -0.768,0.528 -1.106,0.983 -0.51,0.687 -0.762,1.376 -0.756,2.07 0.005,0.692 0.292,1.282 0.864,1.769 L -1.019,3.491 C -1.233,3.297 -1.354,3.078 -1.382,2.839 -1.41,2.599 -1.343,2.369 -1.18,2.15 -1.038,1.96 -0.875,1.848 -0.69,1.816 -0.504,1.784 -0.325,1.832 -0.152,1.961 0.004,2.076 0.097,2.223 0.126,2.402 0.155,2.58 0.147,2.769 0.102,2.968 0.057,3.167 -0.017,3.434 -0.122,3.768 -0.276,4.253 -0.382,4.664 -0.44,5.001 -0.498,5.339 -0.469,5.687 -0.354,6.045 -0.239,6.404 0.015,6.728 0.408,7.02 0.772,7.29 1.156,7.432 1.558,7.444 1.961,7.458 2.354,7.354 2.738,7.132 3.121,6.912 3.47,6.591 3.782,6.17 4.288,5.49 4.527,4.829 4.501,4.187 4.475,3.546 4.199,2.989 3.671,2.517 L 2.482,4.118 C 2.663,4.296 2.769,4.489 2.8,4.696 2.83,4.901 2.771,5.106 2.621,5.307 2.492,5.48 2.342,5.587 2.171,5.625 1.999,5.663 1.823,5.615 1.644,5.482 1.5,5.375 1.412,5.236 1.382,5.066 1.352,4.895 1.358,4.715 1.402,4.523 1.445,4.332 1.518,4.064 1.621,3.719 1.78,3.229 1.886,2.811 1.94,2.467 1.994,2.122 1.963,1.768 1.848,1.404 1.732,1.042 1.475,0.712 1.076,0.415 0.752,0.175 0.394,0.037 0,0"
               style="fill:#00aeef;fill-opacity:1;fill-rule:nonzero;stroke:none"
               id="path4325" />
          </g>
        </g>
      </g>
      <g
         id="g4327"
         transform="translate(795.2888,3083.9778)">
        <path
           d="m 0,0 -0.912,-1.15 -1.621,1.284 -3.828,-4.832 -1.453,1.152 3.827,4.831 -1.605,1.272 0.912,1.15 z"
           style="fill:#00aeef;fill-opacity:1;fill-rule:nonzero;stroke:none"
           id="path4329" />
      </g>
      <g
         id="g4331">
        <g
           id="g4333"
           clip-path="url(#clipPath4337)">
          <g
             id="g4339"
             transform="translate(800.6362,3072.6477)">
            <path
               d="M 0,0 -0.393,3.298 -0.78,3.461 -1.905,0.807 -3.601,1.527 -0.624,8.554 2.273,7.326 C 2.829,7.091 3.258,6.796 3.561,6.44 3.863,6.086 4.039,5.7 4.089,5.285 4.139,4.868 4.073,4.446 3.89,4.015 3.674,3.504 3.349,3.13 2.917,2.891 2.484,2.652 1.971,2.581 1.379,2.675 l 0.496,-3.47 z M -0.287,4.624 0.764,4.178 C 1.102,4.036 1.381,4.005 1.603,4.086 1.825,4.168 1.998,4.355 2.122,4.647 2.239,4.926 2.251,5.178 2.156,5.406 2.062,5.634 1.849,5.817 1.518,5.958 L 0.466,6.404 Z"
               style="fill:#00aeef;fill-opacity:1;fill-rule:nonzero;stroke:none"
               id="path4341" />
          </g>
        </g>
      </g>
      <g
         id="g4343"
         transform="translate(812.8157,3077.2485)">
        <path
           d="m 0,0 -1.258,-7.529 -1.818,0.305 1.258,7.527 z"
           style="fill:#00aeef;fill-opacity:1;fill-rule:nonzero;stroke:none"
           id="path4345" />
      </g>
      <g
         id="g4347">
        <g
           id="g4349"
           clip-path="url(#clipPath4353)">
          <g
             id="g4355"
             transform="translate(824.7546,3072.7437)">
            <path
               d="M 0,0 C 0.291,-0.32 0.452,-0.701 0.482,-1.147 0.526,-1.801 0.343,-2.325 -0.066,-2.72 -0.475,-3.115 -1.085,-3.34 -1.895,-3.395 l -3.538,-0.237 -0.51,7.616 3.451,0.231 C -1.717,4.268 -1.108,4.139 -0.662,3.829 -0.217,3.52 0.027,3.053 0.069,2.429 0.1,1.969 0.004,1.578 -0.219,1.257 -0.443,0.935 -0.749,0.715 -1.136,0.594 -0.671,0.518 -0.292,0.319 0,0 m -3.896,0.994 1.204,0.081 c 0.638,0.042 0.939,0.337 0.902,0.883 -0.036,0.546 -0.381,0.797 -1.033,0.752 L -4.006,2.631 Z m 2.479,-2.008 c -0.018,0.273 -0.123,0.48 -0.312,0.623 -0.19,0.142 -0.449,0.202 -0.779,0.18 l -1.301,-0.087 0.115,-1.712 1.312,0.087 c 0.68,0.045 1.002,0.349 0.965,0.909"
               style="fill:#00aeef;fill-opacity:1;fill-rule:nonzero;stroke:none"
               id="path4357" />
          </g>
          <g
             id="g4359"
             transform="translate(832.0275,3078.9268)">
            <path
               d="M 0,0 1.523,-4.133 C 1.697,-4.605 1.937,-4.927 2.241,-5.099 2.546,-5.27 2.9,-5.282 3.305,-5.133 c 0.404,0.15 0.666,0.388 0.787,0.716 0.12,0.328 0.093,0.728 -0.082,1.202 L 2.488,0.917 4.217,1.554 5.74,-2.579 C 5.989,-3.253 6.067,-3.871 5.975,-4.431 5.882,-4.99 5.651,-5.47 5.282,-5.871 4.913,-6.272 4.442,-6.577 3.869,-6.788 3.296,-7 2.748,-7.071 2.225,-7.003 1.702,-6.935 1.23,-6.715 0.809,-6.34 0.388,-5.966 0.053,-5.441 -0.196,-4.766 l -1.523,4.132 z"
               style="fill:#00aeef;fill-opacity:1;fill-rule:nonzero;stroke:none"
               id="path4361" />
          </g>
        </g>
      </g>
      <g
         id="g4363"
         transform="translate(845.8311,3086.582)">
        <path
           d="m 0,0 0.866,-1.187 -1.672,-1.219 3.632,-4.98 -1.497,-1.093 -3.632,4.981 -1.655,-1.207 -0.865,1.186 z"
           style="fill:#00aeef;fill-opacity:1;fill-rule:nonzero;stroke:none"
           id="path4365" />
      </g>
      <g
         id="g4367"
         transform="translate(850.9771,3091.9006)">
        <path
           d="m 0,0 5.758,-5.009 -1.209,-1.39 -5.759,5.01 z"
           style="fill:#00aeef;fill-opacity:1;fill-rule:nonzero;stroke:none"
           id="path4369" />
      </g>
      <g
         id="g4371">
        <g
           id="g4373"
           clip-path="url(#clipPath4377)">
          <g
             id="g4379"
             transform="translate(857.4438,3101.5093)">
            <path
               d="M 0,0 C 0.562,0.373 1.184,0.578 1.866,0.613 2.548,0.648 3.224,0.499 3.893,0.162 4.562,-0.173 5.087,-0.627 5.467,-1.2 5.849,-1.773 6.057,-2.396 6.094,-3.07 6.13,-3.744 5.989,-4.397 5.67,-5.033 5.351,-5.669 4.911,-6.174 4.349,-6.547 3.787,-6.92 3.163,-7.126 2.476,-7.163 1.789,-7.199 1.111,-7.05 0.442,-6.715 c -0.669,0.336 -1.192,0.789 -1.57,1.361 -0.377,0.571 -0.585,1.193 -0.621,1.866 -0.037,0.674 0.104,1.329 0.423,1.965 C -1.004,-0.881 -0.561,-0.373 0,0 m 0.089,-3.843 c 0.192,-0.494 0.589,-0.893 1.194,-1.195 0.598,-0.301 1.154,-0.381 1.667,-0.241 0.514,0.141 0.905,0.481 1.176,1.02 0.268,0.533 0.305,1.049 0.112,1.548 -0.192,0.498 -0.588,0.898 -1.186,1.198 -0.599,0.3 -1.154,0.38 -1.668,0.24 -0.513,-0.141 -0.905,-0.481 -1.175,-1.02 -0.271,-0.54 -0.311,-1.056 -0.12,-1.55"
               style="fill:#00aeef;fill-opacity:1;fill-rule:nonzero;stroke:none"
               id="path4381" />
          </g>
        </g>
      </g>
      <g
         id="g4383"
         transform="translate(868.1985,3114.23)">
        <path
           d="m 0,0 -0.288,-1.821 -5.11,-2.309 4.627,-0.734 -0.288,-1.82 -7.539,1.194 0.289,1.821 5.153,2.304 -4.671,0.74 0.289,1.82 z"
           style="fill:#00aeef;fill-opacity:1;fill-rule:nonzero;stroke:none"
           id="path4385" />
      </g>
      <g
         id="g4387">
        <g
           id="g4389"
           clip-path="url(#clipPath4393)">
          <g
             id="g4395"
             transform="translate(818.9351,3061.3491)">
            <path
               d="m 0,0 c -31.633,0 -57.369,25.736 -57.369,57.369 0,31.633 25.736,57.369 57.369,57.369 31.633,0 57.369,-25.736 57.369,-57.369 C 57.369,25.736 31.633,0 0,0 m 0,110.42 c -29.252,0 -53.051,-23.798 -53.051,-53.051 0,-29.253 23.799,-53.051 53.051,-53.051 29.252,0 53.051,23.798 53.051,53.051 0,29.253 -23.799,53.051 -53.051,53.051"
               style="fill:#00aeef;fill-opacity:1;fill-rule:nonzero;stroke:none"
               id="path4397" />
          </g>
          <g
             id="g4399"
             transform="translate(778.1001,3130.9678)">
            <path
               d="m 0,0 -3.532,-0.933 -0.119,-0.446 3.063,-0.82 -0.524,-1.958 -8.111,2.171 0.895,3.343 c 0.172,0.642 0.428,1.153 0.768,1.537 0.34,0.384 0.733,0.635 1.179,0.753 0.445,0.118 0.917,0.109 1.413,-0.023 0.59,-0.158 1.047,-0.454 1.373,-0.889 0.326,-0.435 0.483,-0.982 0.471,-1.642 l 3.703,1.071 z m -4.994,-1.021 0.326,1.215 C -4.565,0.583 -4.573,0.892 -4.697,1.122 -4.82,1.351 -5.049,1.511 -5.386,1.6 -5.707,1.687 -5.985,1.66 -6.218,1.522 -6.452,1.384 -6.62,1.125 -6.722,0.743 L -7.047,-0.47 Z"
               style="fill:#00aeef;fill-opacity:1;fill-rule:nonzero;stroke:none"
               id="path4401" />
          </g>
        </g>
      </g>
      <g
         id="g4403"
         transform="translate(775.9509,3143.0591)">
        <path
           d="M 0,0 1.521,-0.88 2.94,1.571 4.266,0.803 2.846,-1.649 4.46,-2.583 6.058,0.177 7.466,-0.638 4.852,-5.152 -2.414,-0.945 0.2,3.569 1.598,2.759 Z"
           style="fill:#00aeef;fill-opacity:1;fill-rule:nonzero;stroke:none"
           id="path4405" />
      </g>
      <g
         id="g4407">
        <g
           id="g4409"
           clip-path="url(#clipPath4413)">
          <g
             id="g4415"
             transform="translate(789.8899,3151.5608)">
            <path
               d="m 0,0 c 0.105,-0.422 0.082,-0.867 -0.07,-1.334 -0.152,-0.468 -0.448,-0.922 -0.888,-1.365 -0.663,-0.667 -1.372,-1.055 -2.126,-1.163 -0.755,-0.108 -1.444,0.109 -2.067,0.65 l 1.521,1.53 c 0.247,-0.201 0.503,-0.297 0.769,-0.287 0.265,0.008 0.504,0.12 0.716,0.333 0.184,0.184 0.278,0.38 0.283,0.587 0.004,0.208 -0.077,0.394 -0.246,0.562 -0.152,0.151 -0.327,0.227 -0.525,0.23 -0.199,0.002 -0.403,-0.038 -0.612,-0.119 -0.21,-0.083 -0.488,-0.207 -0.833,-0.376 -0.503,-0.246 -0.933,-0.43 -1.29,-0.548 -0.358,-0.118 -0.741,-0.144 -1.149,-0.078 -0.409,0.066 -0.804,0.289 -1.186,0.669 -0.354,0.352 -0.571,0.745 -0.65,1.181 -0.081,0.436 -0.032,0.881 0.145,1.334 0.177,0.453 0.469,0.886 0.876,1.295 0.657,0.66 1.337,1.03 2.038,1.108 0.702,0.077 1.353,-0.133 1.953,-0.63 L -4.886,2.023 C -5.111,2.191 -5.338,2.274 -5.567,2.274 -5.796,2.273 -6.009,2.175 -6.204,1.979 -6.371,1.81 -6.461,1.63 -6.474,1.437 -6.487,1.244 -6.407,1.061 -6.233,0.888 c 0.14,-0.139 0.306,-0.212 0.496,-0.218 0.19,-0.004 0.386,0.032 0.587,0.111 0.201,0.079 0.48,0.203 0.838,0.371 0.507,0.253 0.944,0.437 1.31,0.553 0.366,0.116 0.756,0.14 1.17,0.074 C -1.417,1.712 -1.017,1.487 -0.629,1.102 -0.315,0.79 -0.105,0.422 0,0"
               style="fill:#00aeef;fill-opacity:1;fill-rule:nonzero;stroke:none"
               id="path4417" />
          </g>
          <g
             id="g4419"
             transform="translate(795.488,3157.7983)">
            <path
               d="M 0,0 1.464,-2.555 -0.295,-3.563 -4.469,3.722 -1.62,5.354 C -0.756,5.849 0.025,6.011 0.724,5.842 1.422,5.671 1.981,5.222 2.397,4.494 2.657,4.041 2.788,3.58 2.788,3.11 2.789,2.64 2.648,2.19 2.366,1.76 2.085,1.329 1.66,0.951 1.09,0.625 Z M 0.608,3.469 C 0.242,4.108 -0.294,4.225 -1,3.82 L -1.896,3.307 -0.809,1.412 0.086,1.925 c 0.706,0.404 0.88,0.919 0.522,1.544"
               style="fill:#00aeef;fill-opacity:1;fill-rule:nonzero;stroke:none"
               id="path4421" />
          </g>
          <g
             id="g4423"
             transform="translate(809.7065,3168.4998)">
            <path
               d="M 0,0 C 0.71,-0.216 1.318,-0.6 1.826,-1.155 2.333,-1.709 2.678,-2.388 2.861,-3.19 3.044,-3.994 3.026,-4.757 2.805,-5.481 2.586,-6.205 2.202,-6.818 1.656,-7.32 1.11,-7.822 0.456,-8.16 -0.307,-8.334 c -0.763,-0.174 -1.499,-0.153 -2.209,0.063 -0.71,0.216 -1.321,0.602 -1.832,1.159 -0.513,0.558 -0.86,1.237 -1.043,2.04 -0.183,0.803 -0.164,1.565 0.057,2.285 0.22,0.72 0.604,1.332 1.15,1.833 0.546,0.503 1.201,0.841 1.964,1.015 C -1.45,0.236 -0.709,0.216 0,0 m -3.2,-2.763 c -0.285,-0.508 -0.346,-1.125 -0.18,-1.85 0.163,-0.718 0.484,-1.246 0.963,-1.583 0.478,-0.338 1.041,-0.433 1.688,-0.285 0.639,0.145 1.103,0.474 1.392,0.987 0.288,0.512 0.351,1.127 0.187,1.845 -0.164,0.718 -0.484,1.246 -0.963,1.583 -0.478,0.338 -1.04,0.433 -1.688,0.285 -0.647,-0.147 -1.114,-0.475 -1.399,-0.982"
               style="fill:#00aeef;fill-opacity:1;fill-rule:nonzero;stroke:none"
               id="path4425" />
          </g>
        </g>
      </g>
      <g
         id="g4427"
         transform="translate(826.2312,3160.8315)">
        <path
           d="M 0,0 -2.02,0.173 -4.957,5.598 -5.398,0.463 -7.417,0.636 -6.7,9.001 -4.68,8.828 -1.747,3.356 -1.302,8.538 0.717,8.365 Z"
           style="fill:#00aeef;fill-opacity:1;fill-rule:nonzero;stroke:none"
           id="path4429" />
      </g>
      <g
         id="g4431">
        <g
           id="g4433"
           clip-path="url(#clipPath4437)">
          <g
             id="g4439"
             transform="translate(837.3469,3158.4373)">
            <path
               d="m 0,0 c -0.345,-0.265 -0.763,-0.42 -1.252,-0.467 -0.489,-0.046 -1.025,0.045 -1.606,0.272 -0.876,0.343 -1.513,0.839 -1.913,1.489 -0.399,0.649 -0.474,1.367 -0.225,2.154 L -2.987,2.661 C -3.073,2.355 -3.06,2.082 -2.946,1.842 c 0.114,-0.241 0.311,-0.415 0.591,-0.525 0.243,-0.095 0.46,-0.103 0.652,-0.025 0.192,0.077 0.331,0.227 0.417,0.448 0.078,0.199 0.079,0.391 0.002,0.574 -0.077,0.183 -0.194,0.354 -0.352,0.513 -0.159,0.16 -0.384,0.365 -0.676,0.616 -0.427,0.362 -0.766,0.684 -1.016,0.965 -0.251,0.281 -0.427,0.623 -0.529,1.024 -0.102,0.401 -0.054,0.852 0.142,1.353 0.181,0.465 0.457,0.82 0.825,1.067 0.368,0.247 0.796,0.38 1.282,0.398 C -1.122,8.267 -0.61,8.171 -0.072,7.961 0.796,7.621 1.405,7.144 1.755,6.531 2.104,5.918 2.171,5.237 1.954,4.489 l -2.042,0.799 c 0.065,0.273 0.051,0.514 -0.041,0.724 -0.091,0.21 -0.266,0.366 -0.524,0.467 -0.22,0.086 -0.422,0.097 -0.604,0.033 C -1.44,6.447 -1.576,6.3 -1.665,6.072 -1.737,5.887 -1.738,5.707 -1.667,5.531 -1.596,5.354 -1.484,5.189 -1.332,5.036 -1.18,4.883 -0.955,4.676 -0.659,4.415 -0.225,4.05 0.118,3.722 0.37,3.432 0.621,3.143 0.799,2.794 0.903,2.388 1.007,1.982 0.959,1.524 0.76,1.016 0.599,0.603 0.345,0.265 0,0"
               style="fill:#00aeef;fill-opacity:1;fill-rule:nonzero;stroke:none"
               id="path4441" />
          </g>
        </g>
      </g>
      <g
         id="g4443"
         transform="translate(848.3486,3160.2859)">
        <path
           d="m 0,0 -4.737,-6.932 -1.674,1.144 4.737,6.931 z"
           style="fill:#00aeef;fill-opacity:1;fill-rule:nonzero;stroke:none"
           id="path4445" />
      </g>
      <g
         id="g4447">
        <g
           id="g4449"
           clip-path="url(#clipPath4453)">
          <g
             id="g4455"
             transform="translate(854.9188,3147.6326)">
            <path
               d="m 0,0 c -0.075,-0.469 -0.293,-0.87 -0.655,-1.201 -0.532,-0.486 -1.108,-0.689 -1.729,-0.608 -0.621,0.08 -1.232,0.45 -1.835,1.109 L -6.85,2.178 -0.653,7.844 1.914,5.035 C 2.49,4.405 2.798,3.792 2.838,3.197 2.878,2.602 2.644,2.072 2.135,1.607 1.761,1.265 1.359,1.08 0.93,1.051 0.5,1.023 0.101,1.134 -0.268,1.385 -0.015,0.932 0.075,0.47 0,0 m -1.845,0.523 c 0.223,0.202 0.329,0.434 0.322,0.695 -0.008,0.26 -0.134,0.525 -0.379,0.793 L -2.87,3.07 -4.264,1.796 -3.288,0.729 C -2.782,0.175 -2.3,0.105 -1.845,0.523 m 0.027,3.508 0.895,-0.979 C -0.448,2.532 0.011,2.475 0.455,2.881 0.899,3.287 0.879,3.756 0.393,4.287 l -0.879,0.962 z"
               style="fill:#00aeef;fill-opacity:1;fill-rule:nonzero;stroke:none"
               id="path4457" />
          </g>
        </g>
      </g>
      <g
         id="g4459"
         transform="translate(857.7981,3139.3828)">
        <path
           d="M 0,0 1.26,-2.391 -0.117,-3.115 -2.321,1.069 5.107,4.981 6.052,3.188 Z"
           style="fill:#00aeef;fill-opacity:1;fill-rule:nonzero;stroke:none"
           id="path4461" />
      </g>
      <g
         id="g4463"
         transform="translate(866.5917,3131.0469)">
        <path
           d="m 0,0 -1.706,-0.422 0.679,-2.75 -1.487,-0.367 -0.679,2.75 -1.81,-0.447 0.764,-3.095 -1.579,-0.39 -1.251,5.064 8.151,2.012 1.251,-5.063 -1.569,-0.388 z"
           style="fill:#00aeef;fill-opacity:1;fill-rule:nonzero;stroke:none"
           id="path4465" />
      </g>
      <g
         id="g4467"
         transform="translate(864.78,3172.1406)">
        <path
           d="M 0,0 V -1.127 H -1.593 V -5.864 H -3.02 v 4.737 H -4.595 V 0 Z"
           style="fill:#00aeef;fill-opacity:1;fill-rule:nonzero;stroke:none"
           id="path4469" />
      </g>
      <g
         id="g4471"
         transform="translate(871.9707,3172.0996)">
        <path
           d="m 0,0 v -5.823 h -1.418 v 3.642 l -1.261,-3.642 h -1.228 l -1.268,3.649 V -5.823 H -6.594 V 0 H -4.86 L -3.276,-4.056 -1.725,0 Z"
           style="fill:#00aeef;fill-opacity:1;fill-rule:nonzero;stroke:none"
           id="path4473" />
      </g>
      <g
         id="g4475">
        <g
           id="g4477"
           clip-path="url(#clipPath4481)">
          <g
             id="g4483"
             transform="translate(811.3002,3122.386)">
            <path
               d="m 0,0 c -0.919,0 -1.659,-0.302 -2.219,-0.903 -0.56,-0.601 -0.84,-1.438 -0.84,-2.508 0,-1.07 0.28,-1.905 0.84,-2.507 0.56,-0.602 1.3,-0.902 2.219,-0.902 0.902,0 1.642,0.309 2.219,0.928 0.577,0.618 0.865,1.445 0.865,2.481 0,1.054 -0.288,1.885 -0.865,2.496 C 1.642,-0.306 0.902,0 0,0"
               style="fill:#00aeef;fill-opacity:1;fill-rule:nonzero;stroke:none"
               id="path4485" />
          </g>
          <g
             id="g4487"
             transform="translate(810.968,3106.8704)">
            <path
               d="M 0,0 H -1.406 V -2.375 H 0 c 0.451,0 0.783,0.1 0.995,0.298 0.213,0.199 0.318,0.494 0.318,0.882 0,0.372 -0.108,0.665 -0.324,0.876 C 0.772,-0.105 0.442,0 0,0"
               style="fill:#00aeef;fill-opacity:1;fill-rule:nonzero;stroke:none"
               id="path4489" />
          </g>
          <g
             id="g4491"
             transform="translate(818.9351,3156.9702)">
            <path
               d="m 0,0 c -21.126,0 -38.252,-17.126 -38.252,-38.252 0,-21.126 17.126,-38.253 38.252,-38.253 21.126,0 38.252,17.127 38.252,38.253 C 38.252,-17.126 21.126,0 0,0 m -13.683,-19.312 c 1.298,0 2.436,-0.68 3.083,-1.701 l 3.6,2.03 c -0.399,0.867 -0.623,1.832 -0.623,2.85 0,3.772 3.058,6.83 6.83,6.83 3.772,0 6.83,-3.058 6.83,-6.83 0,-0.834 -0.149,-1.633 -0.423,-2.371 l 4.244,-2.393 c 0.658,0.957 1.76,1.585 3.01,1.585 2.016,0 3.651,-1.635 3.651,-3.651 0,-2.017 -1.635,-3.652 -3.651,-3.652 -1.999,0 -3.621,1.607 -3.649,3.599 l -4.667,2.632 c -1.252,-1.571 -3.18,-2.579 -5.345,-2.579 -1.975,0 -3.754,0.839 -5.001,2.181 l -4.249,-2.396 c -0.111,-1.916 -1.696,-3.437 -3.64,-3.437 -2.017,0 -3.652,1.635 -3.652,3.652 0,2.016 1.635,3.651 3.652,3.651 m -9.756,-38.259 h -2.932 l -3.252,9.383 h 2.429 l 2.295,-7.06 2.296,7.06 h 2.429 z m 10.244,7.578 h -3.57 v -1.965 h 3.172 v -1.712 h -3.172 v -2.083 h 3.57 v -1.818 h -5.839 v 9.383 h 5.839 z m 6.369,-7.578 -2.03,3.544 h -0.517 v -3.544 h -2.27 v 9.383 h 3.875 c 0.743,0 1.371,-0.129 1.884,-0.385 0.513,-0.258 0.898,-0.609 1.155,-1.056 0.256,-0.447 0.384,-0.957 0.384,-1.533 0,-0.681 -0.187,-1.259 -0.563,-1.738 -0.377,-0.478 -0.923,-0.805 -1.639,-0.982 l 2.229,-3.689 z m 6.157,0 h -2.269 v 9.382 h 2.269 z m 0.381,12.581 h -4.263 v 2.532 c -0.368,-0.835 -0.936,-1.496 -1.705,-1.98 -0.769,-0.485 -1.688,-0.727 -2.758,-0.727 -1.153,0 -2.185,0.288 -3.096,0.865 -0.912,0.576 -1.63,1.408 -2.157,2.494 -0.341,0.703 -0.569,1.484 -0.689,2.341 v -5.525 h -4.288 v 7.623 c 0,0.936 -0.247,1.666 -0.739,2.193 -0.493,0.527 -1.15,0.79 -1.968,0.79 -0.87,0 -1.559,-0.276 -2.069,-0.827 -0.51,-0.552 -0.765,-1.338 -0.765,-2.357 v -7.422 h -4.288 v 13.991 h 4.288 v -2.557 c 0.401,0.835 0.999,1.496 1.793,1.981 0.793,0.483 1.726,0.726 2.795,0.726 1.605,0 2.88,-0.535 3.824,-1.605 0.896,-1.015 1.362,-2.395 1.408,-4.132 0.117,0.891 0.348,1.697 0.698,2.415 0.527,1.078 1.245,1.906 2.157,2.483 0.911,0.576 1.943,0.864 3.096,0.864 1.07,0 1.989,-0.242 2.758,-0.727 0.769,-0.485 1.337,-1.145 1.705,-1.98 v 2.532 h 4.263 z m 7.567,-5.003 H 3.431 v -2.057 h 2.973 v -1.725 H 3.431 v -3.796 H 1.162 v 9.383 h 6.117 z m 3.703,-7.578 H 8.713 v 9.382 h 2.269 z m 7.669,7.578 h -3.569 v -1.965 h 3.171 v -1.712 h -3.171 v -2.083 h 3.569 v -1.818 h -5.838 v 9.383 h 5.838 z m -2.78,5.693 c -0.911,0.576 -1.63,1.408 -2.157,2.494 -0.158,0.327 -0.289,0.672 -0.4,1.031 -0.406,-1.179 -1.07,-2.145 -1.994,-2.898 -1.22,-0.995 -2.733,-1.492 -4.538,-1.492 -1.371,0 -2.587,0.288 -3.648,0.865 -1.062,0.576 -1.893,1.408 -2.495,2.494 -0.602,1.087 -0.903,2.357 -0.903,3.811 0,1.471 0.297,2.745 0.89,3.824 0.594,1.078 1.425,1.906 2.495,2.483 1.07,0.576 2.29,0.864 3.661,0.864 1.805,0 3.318,-0.497 4.538,-1.491 0.922,-0.752 1.585,-1.716 1.992,-2.892 0.111,0.363 0.243,0.709 0.402,1.036 0.527,1.078 1.246,1.906 2.157,2.483 0.911,0.576 1.943,0.864 3.096,0.864 1.07,0 1.989,-0.242 2.758,-0.727 0.769,-0.485 1.329,-1.145 1.68,-1.98 v 7.095 h 4.288 V -44.99 h -4.288 v 2.532 c -0.351,-0.835 -0.911,-1.496 -1.68,-1.98 -0.769,-0.485 -1.688,-0.727 -2.758,-0.727 -1.153,0 -2.185,0.288 -3.096,0.865 m 10.483,-12.674 c -0.739,-0.397 -1.608,-0.597 -2.608,-0.597 h -3.542 v 9.383 h 3.542 c 1.009,0 1.88,-0.196 2.614,-0.585 0.735,-0.389 1.299,-0.938 1.692,-1.645 0.394,-0.708 0.591,-1.522 0.591,-2.442 0,-0.92 -0.197,-1.736 -0.591,-2.448 -0.393,-0.713 -0.959,-1.267 -1.698,-1.666"
               style="fill:#00aeef;fill-opacity:1;fill-rule:nonzero;stroke:none"
               id="path4493" />
          </g>
          <g
             id="g4495"
             transform="translate(842.4827,3106.7913)">
            <path
               d="M 0,0 H -1.075 V -5.361 H 0 c 0.885,0 1.573,0.234 2.063,0.703 0.492,0.468 0.737,1.128 0.737,1.977 0,0.85 -0.245,1.509 -0.737,1.978 C 1.573,-0.235 0.885,0 0,0"
               style="fill:#00aeef;fill-opacity:1;fill-rule:nonzero;stroke:none"
               id="path4497" />
          </g>
          <g
             id="g4499"
             transform="translate(842.3657,3118.9753)">
            <path
               d="m 0,0 c 0,1.053 -0.288,1.885 -0.865,2.496 -0.577,0.609 -1.317,0.915 -2.219,0.915 -0.92,0 -1.659,-0.302 -2.219,-0.903 C -5.863,1.906 -6.143,1.07 -6.143,0 c 0,-1.07 0.28,-1.905 0.84,-2.507 0.56,-0.602 1.299,-0.902 2.219,-0.902 0.902,0 1.642,0.308 2.219,0.927 C -0.288,-1.864 0,-1.036 0,0"
               style="fill:#00aeef;fill-opacity:1;fill-rule:nonzero;stroke:none"
               id="path4501" />
          </g>
          <g
             id="g4503"
             transform="translate(831.9724,3120.5557)">
            <path
               d="m 0,0 h -3.948 c -0.135,0.601 -0.411,1.069 -0.828,1.403 -0.418,0.335 -0.945,0.502 -1.58,0.502 -0.752,0 -1.37,-0.297 -1.855,-0.89 -0.485,-0.593 -0.727,-1.459 -0.727,-2.595 0,-1.137 0.242,-2.002 0.727,-2.595 0.485,-0.593 1.103,-0.89 1.855,-0.89 0.635,0 1.162,0.167 1.58,0.501 0.417,0.335 0.693,0.803 0.828,1.404 h 3.95 c -0.076,0.5 -0.115,1.027 -0.115,1.58 0,0.555 0.038,1.081 0.113,1.58"
               style="fill:#00aeef;fill-opacity:1;fill-rule:nonzero;stroke:none"
               id="path4505" />
          </g>
        </g>
      </g>
    </g>
  </g>
</svg>
