<?xml version="1.0" encoding="UTF-8" standalone="no"?>
<svg
   xmlns:dc="http://purl.org/dc/elements/1.1/"
   xmlns:cc="http://creativecommons.org/ns#"
   xmlns:rdf="http://www.w3.org/1999/02/22-rdf-syntax-ns#"
   xmlns:svg="http://www.w3.org/2000/svg"
   xmlns="http://www.w3.org/2000/svg"
   id="svg8481"
   version="1.1"
   viewBox="0 0 37.395 51.001999"
   height="51.001999mm"
   width="37.395mm">
  <defs
     id="defs8475" />
  <metadata
     id="metadata8478">
    <rdf:RDF>
      <cc:Work
         rdf:about="">
        <dc:format>image/svg+xml</dc:format>
        <dc:type
           rdf:resource="http://purl.org/dc/dcmitype/StillImage" />
        <dc:title></dc:title>
      </cc:Work>
    </rdf:RDF>
  </metadata>
  <g
     transform="translate(0,-245.998)"
     id="layer1">
    <g
       transform="matrix(0.35277777,0,0,-0.35277777,36.088163,271.499)"
       id="g3143">
      <path
         id="path3145"
         style="fill:none;stroke:#ffffff;stroke-width:4.17399979;stroke-linecap:butt;stroke-linejoin:miter;stroke-miterlimit:10;stroke-dasharray:none;stroke-opacity:1"
         d="M 0,0 -100.21,-68.337 V 68.337 Z" />
    </g>
  </g>
</svg>
