<?xml version="1.0" encoding="UTF-8" standalone="no"?>
<!-- Created with Inkscape (http://www.inkscape.org/) -->

<svg
   xmlns:dc="http://purl.org/dc/elements/1.1/"
   xmlns:cc="http://creativecommons.org/ns#"
   xmlns:rdf="http://www.w3.org/1999/02/22-rdf-syntax-ns#"
   xmlns:svg="http://www.w3.org/2000/svg"
   xmlns="http://www.w3.org/2000/svg"
   xmlns:sodipodi="http://sodipodi.sourceforge.net/DTD/sodipodi-0.dtd"
   xmlns:inkscape="http://www.inkscape.org/namespaces/inkscape"
   width="50mm"
   height="50mm"
   viewBox="0 0 49.999999 49.999999"
   version="1.1"
   id="svg9253"
   inkscape:version="0.92.3 (2405546, 2018-03-11)"
   sodipodi:docname="process_safety_icon.svg">
  <defs
     id="defs9247">
    <clipPath
       clipPathUnits="userSpaceOnUse"
       id="clipPath4305">
      <path
         d="M 0,0 H 1920 V 6826.783 H 0 Z"
         id="path4303"
         inkscape:connector-curvature="0" />
    </clipPath>
    <clipPath
       clipPathUnits="userSpaceOnUse"
       id="clipPath4321">
      <path
         d="M 0,0 H 1920 V 6826.783 H 0 Z"
         id="path4319"
         inkscape:connector-curvature="0" />
    </clipPath>
    <clipPath
       clipPathUnits="userSpaceOnUse"
       id="clipPath4337">
      <path
         d="M 0,0 H 1920 V 6826.783 H 0 Z"
         id="path4335"
         inkscape:connector-curvature="0" />
    </clipPath>
    <clipPath
       clipPathUnits="userSpaceOnUse"
       id="clipPath4353">
      <path
         d="M 0,0 H 1920 V 6826.783 H 0 Z"
         id="path4351"
         inkscape:connector-curvature="0" />
    </clipPath>
    <clipPath
       clipPathUnits="userSpaceOnUse"
       id="clipPath4377">
      <path
         d="M 0,0 H 1920 V 6826.783 H 0 Z"
         id="path4375"
         inkscape:connector-curvature="0" />
    </clipPath>
    <clipPath
       clipPathUnits="userSpaceOnUse"
       id="clipPath4393">
      <path
         d="M 0,0 H 1920 V 6826.783 H 0 Z"
         id="path4391"
         inkscape:connector-curvature="0" />
    </clipPath>
    <clipPath
       clipPathUnits="userSpaceOnUse"
       id="clipPath4413">
      <path
         d="M 0,0 H 1920 V 6826.783 H 0 Z"
         id="path4411"
         inkscape:connector-curvature="0" />
    </clipPath>
    <clipPath
       clipPathUnits="userSpaceOnUse"
       id="clipPath4437">
      <path
         d="M 0,0 H 1920 V 6826.783 H 0 Z"
         id="path4435"
         inkscape:connector-curvature="0" />
    </clipPath>
    <clipPath
       clipPathUnits="userSpaceOnUse"
       id="clipPath4453">
      <path
         d="M 0,0 H 1920 V 6826.783 H 0 Z"
         id="path4451"
         inkscape:connector-curvature="0" />
    </clipPath>
    <clipPath
       clipPathUnits="userSpaceOnUse"
       id="clipPath4481">
      <path
         d="M 0,0 H 1920 V 6826.783 H 0 Z"
         id="path4479"
         inkscape:connector-curvature="0" />
    </clipPath>
    <clipPath
       clipPathUnits="userSpaceOnUse"
       id="clipPath3279">
      <path
         d="M 0,0 H 1920 V 6826.783 H 0 Z"
         id="path3277"
         inkscape:connector-curvature="0" />
    </clipPath>
    <clipPath
       clipPathUnits="userSpaceOnUse"
       id="clipPath3237">
      <path
         d="M 0,0 H 1920 V 6826.783 H 0 Z"
         id="path3235"
         inkscape:connector-curvature="0" />
    </clipPath>
    <clipPath
       clipPathUnits="userSpaceOnUse"
       id="clipPath4255">
      <path
         d="M 0,0 H 1920 V 6826.783 H 0 Z"
         id="path4253"
         inkscape:connector-curvature="0" />
    </clipPath>
  </defs>
  <sodipodi:namedview
     id="base"
     pagecolor="#ffffff"
     bordercolor="#666666"
     borderopacity="1.0"
     inkscape:pageopacity="0.0"
     inkscape:pageshadow="2"
     inkscape:zoom="3.4819167"
     inkscape:cx="94.488189"
     inkscape:cy="94.488189"
     inkscape:document-units="mm"
     inkscape:current-layer="layer1"
     showgrid="false"
     inkscape:window-width="1440"
     inkscape:window-height="838"
     inkscape:window-x="-8"
     inkscape:window-y="-8"
     inkscape:window-maximized="1" />
  <metadata
     id="metadata9250">
    <rdf:RDF>
      <cc:Work
         rdf:about="">
        <dc:format>image/svg+xml</dc:format>
        <dc:type
           rdf:resource="http://purl.org/dc/dcmitype/StillImage" />
        <dc:title></dc:title>
      </cc:Work>
    </rdf:RDF>
  </metadata>
  <g
     inkscape:label="Layer 1"
     inkscape:groupmode="layer"
     id="layer1"
     transform="translate(0,-246.99998)">
    <g
       transform="matrix(0.35277777,0,0,-0.35277777,-463.33263,1374.5774)"
       id="g9145">
      <g
         id="g4249">
        <g
           clip-path="url(#clipPath4255)"
           id="g4251">
          <g
             transform="translate(1420.6912,3094.7275)"
             id="g4257">
            <path
               inkscape:connector-curvature="0"
               id="path4259"
               style="fill:#00aeef;fill-opacity:1;fill-rule:nonzero;stroke:none"
               d="m 0,0 c -1.059,0 -1.917,-0.859 -1.917,-1.917 v -11.508 c 0,-1.06 0.858,-1.919 1.917,-1.919 h 7.673 c 1.059,0 1.917,0.859 1.917,1.919 V -1.917 C 9.59,-0.859 8.732,0 7.673,0 Z m 1.919,-3.836 h 3.836 v -7.671 H 1.919 Z" />
          </g>
          <g
             transform="translate(1405.3474,3094.7275)"
             id="g4261">
            <path
               inkscape:connector-curvature="0"
               id="path4263"
               style="fill:#00aeef;fill-opacity:1;fill-rule:nonzero;stroke:none"
               d="m 0,0 c -1.059,0 -1.917,-0.859 -1.917,-1.917 v -11.508 c 0,-1.06 0.858,-1.919 1.917,-1.919 h 7.672 c 1.06,0 1.918,0.859 1.918,1.919 V -1.917 C 9.59,-0.859 8.732,0 7.672,0 Z m 1.919,-3.836 h 3.836 v -7.671 H 1.919 Z" />
          </g>
          <g
             transform="translate(1390.0037,3094.7275)"
             id="g4265">
            <path
               inkscape:connector-curvature="0"
               id="path4267"
               style="fill:#00aeef;fill-opacity:1;fill-rule:nonzero;stroke:none"
               d="m 0,0 c -1.059,0 -1.918,-0.859 -1.918,-1.917 v -11.508 c 0,-1.06 0.859,-1.919 1.918,-1.919 h 7.672 c 1.06,0 1.918,0.859 1.918,1.919 V -1.917 C 9.59,-0.859 8.732,0 7.672,0 Z m 1.919,-3.836 h 3.836 v -7.671 H 1.919 Z" />
          </g>
          <g
             transform="translate(1328.6285,3115.8254)"
             id="g4269">
            <path
               inkscape:connector-curvature="0"
               id="path4271"
               style="fill:#00aeef;fill-opacity:1;fill-rule:nonzero;stroke:none"
               d="m 0,0 c -1.059,0 -1.918,-0.858 -1.918,-1.918 v -44.114 c 0,-1.059 0.859,-1.917 1.918,-1.917 h 111.243 c 1.059,0 1.918,0.858 1.918,1.917 V 0 c 0,0.674 -0.353,1.297 -0.93,1.644 l -19.18,11.508 c -0.299,0.179 -0.639,0.274 -0.988,0.274 -1.059,0 -1.918,-0.859 -1.919,-1.918 V 0.155 L 74.081,13.006 c -0.339,0.272 -0.762,0.421 -1.199,0.42 -1.059,0 -1.917,-0.859 -1.917,-1.918 V 0.155 L 54.902,13.006 c -0.34,0.272 -0.763,0.421 -1.199,0.42 -1.059,0 -1.918,-0.859 -1.918,-1.918 V 0.155 L 35.722,13.006 c -0.34,0.272 -0.763,0.421 -1.199,0.42 -1.059,0 -1.918,-0.859 -1.918,-1.918 V 0 h -3.964 l -3.707,53.834 c -0.069,1.008 -0.907,1.789 -1.918,1.788 H 11.508 C 10.497,55.623 9.659,54.842 9.59,53.834 L 5.883,0 Z M 24.797,0 H 9.727 l 3.572,51.786 h 7.926 z M 36.442,-21.098 H 47.95 V -44.114 H 36.442 Z M 1.919,-44.114 v 40.278 h 32.605 c 1.059,0 1.918,0.858 1.918,1.918 V 7.516 L 52.505,-5.335 c 0.341,-0.272 0.764,-0.42 1.199,-0.42 1.06,0 1.918,0.859 1.918,1.919 V 7.516 L 71.685,-5.335 c 0.34,-0.272 0.763,-0.42 1.199,-0.42 1.06,0.001 1.917,0.859 1.917,1.919 V 7.516 l 16.063,-12.85 c 0.341,-0.273 0.765,-0.421 1.2,-0.421 1.059,0.001 1.918,0.859 1.918,1.919 V 8.12 l 15.343,-9.206 V -44.114 H 51.786 v 24.935 c 0,1.058 -0.859,1.917 -1.918,1.917 H 34.524 c -1.059,0 -1.919,-0.859 -1.919,-1.917 V -44.114 H 1.917 Z" />
          </g>
          <g
             transform="translate(1376.5913,3179.1187)"
             id="g4273">
            <path
               inkscape:connector-curvature="0"
               id="path4275"
               style="fill:#00aeef;fill-opacity:1;fill-rule:nonzero;stroke:none"
               d="M 0,0 C 1.059,0.004 1.915,0.866 1.912,1.925 1.908,2.985 1.046,3.84 -0.012,3.837 -1.762,3.607 -3.357,2.723 -4.478,1.362 -4.983,0.825 -5.565,0.367 -6.204,0 c -0.684,0.395 -1.305,0.889 -1.843,1.466 -1.064,1.297 -2.579,2.144 -4.241,2.371 -1.803,-0.23 -3.45,-1.14 -4.603,-2.544 -0.479,-0.504 -1.021,-0.942 -1.616,-1.302 -0.405,0.009 -1.472,1.012 -2.109,1.613 -0.984,1.219 -2.396,2.017 -3.947,2.233 -2.093,0.038 -4.038,-1.081 -5.057,-2.91 C -30.243,0.027 -30.317,0 -30.702,0 c -1.058,0 -1.917,-0.858 -1.917,-1.918 0,-1.059 0.859,-1.918 1.917,-1.918 1.78,0.018 3.407,1.009 4.239,2.582 0.634,0.913 0.87,1.254 1.9,1.254 0.137,-0.082 0.849,-0.751 1.319,-1.193 1.213,-1.459 2.934,-2.404 4.818,-2.643 1.631,0.217 3.117,1.05 4.152,2.331 0.556,0.52 1.59,1.487 1.985,1.505 0.591,-0.383 1.134,-0.833 1.619,-1.342 1.134,-1.377 2.75,-2.268 4.519,-2.494 1.68,0.229 3.211,1.083 4.286,2.394 C -1.327,-0.861 -0.697,-0.374 0,0" />
          </g>
          <g
             transform="translate(1438.6841,3170.2097)"
             id="g4277">
            <path
               inkscape:connector-curvature="0"
               id="path4279"
               style="fill:#00aeef;fill-opacity:1;fill-rule:nonzero;stroke:none"
               d="m 0,0 -13.438,5.884 c -0.457,0.199 -0.981,0.199 -1.438,0 L -28.312,0 c -0.656,-0.285 -1.08,-0.932 -1.08,-1.648 v -15.983 c 0.004,-2.918 1.418,-5.679 3.782,-7.387 l 10.401,-7.502 c 0.314,-0.227 0.683,-0.341 1.052,-0.341 0.369,0 0.738,0.114 1.053,0.341 l 10.402,7.502 c 2.363,1.709 3.777,4.47 3.781,7.387 V -1.647 C 1.078,-0.931 0.654,-0.284 0,0 m -2.519,-2.823 v -14.806 c -0.003,-1.766 -0.859,-3.437 -2.289,-4.471 l -9.349,-6.744 -9.348,6.744 c -1.43,1.034 -2.286,2.705 -2.289,4.469 v 14.808 l 11.637,5.094 z" />
          </g>
          <g
             transform="translate(1418.2778,3155.5657)"
             id="g4281">
            <path
               inkscape:connector-curvature="0"
               id="path4283"
               style="fill:#00aeef;fill-opacity:1;fill-rule:nonzero;stroke:none"
               d="M 0,0 C -0.385,0.289 -0.859,0.41 -1.334,0.342 -1.81,0.274 -2.231,0.025 -2.519,-0.36 c -0.288,-0.384 -0.409,-0.858 -0.342,-1.333 0.068,-0.476 0.318,-0.897 0.702,-1.185 l 4.887,-3.665 c 0.309,-0.232 0.692,-0.36 1.082,-0.36 0.101,10e-4 0.201,0.009 0.3,0.026 0.484,0.083 0.92,0.365 1.193,0.775 l 9.772,14.658 c 0.356,0.534 0.401,1.222 0.117,1.795 -0.284,0.575 -0.857,0.957 -1.496,0.998 -0.638,0.042 -1.258,-0.263 -1.614,-0.796 L 3.364,-2.524 Z" />
          </g>
          <g
             transform="translate(1439.7632,3124.9456)"
             id="g4285">
            <path
               inkscape:connector-curvature="0"
               id="path4287"
               style="fill:#00aeef;fill-opacity:1;fill-rule:nonzero;stroke:none"
               d="m 0,0 c -0.875,0 -1.672,0.589 -1.9,1.475 -0.936,3.64 -2.211,7.215 -3.791,10.627 -0.456,0.984 -0.028,2.151 0.956,2.607 0.985,0.455 2.151,0.028 2.607,-0.956 C -0.448,10.125 0.908,6.323 1.903,2.452 2.173,1.402 1.54,0.332 0.49,0.062 0.326,0.02 0.162,0 0,0" />
          </g>
          <g
             transform="translate(1404.8191,3167.1772)"
             id="g4289">
            <path
               inkscape:connector-curvature="0"
               id="path4291"
               style="fill:#00aeef;fill-opacity:1;fill-rule:nonzero;stroke:none"
               d="m 0,0 c -0.281,0 -0.566,0.061 -0.837,0.189 -3.995,1.886 -8.201,3.348 -12.502,4.344 -2.439,0.564 -4.942,0.986 -7.439,1.253 -1.078,0.115 -1.858,1.082 -1.743,2.161 0.115,1.078 1.083,1.857 2.161,1.743 2.654,-0.284 5.314,-0.732 7.906,-1.332 C -7.88,7.299 -3.407,5.745 0.84,3.739 1.82,3.276 2.24,2.106 1.776,1.125 1.442,0.416 0.736,0 0,0" />
          </g>
        </g>
      </g>
    </g>
  </g>
</svg>
