<?xml version="1.0" encoding="utf-8"?>
<!-- Generator: Adobe Illustrator 23.0.6, SVG Export Plug-In . SVG Version: 6.00 Build 0)  -->
<svg version="1.1" xmlns="http://www.w3.org/2000/svg" xmlns:xlink="http://www.w3.org/1999/xlink" x="0px" y="0px"
	 viewBox="0 0 165.15 165.02" style="enable-background:new 0 0 165.15 165.02;" xml:space="preserve">
<style type="text/css">
	.st0{display:none;}
	.st1{display:inline;}
	.st2{clip-path:url(#SVGID_2_);fill:#E7F6FD;}
	.st3{clip-path:url(#SVGID_2_);fill:#004D71;}
	.st4{display:inline;fill:#004D71;}
	.st5{clip-path:url(#SVGID_4_);fill:#E7F6FD;}
	.st6{clip-path:url(#SVGID_4_);fill:#004D71;}
	.st7{clip-path:url(#SVGID_6_);fill:#E7F6FD;}
	.st8{clip-path:url(#SVGID_6_);fill:#004D71;}
	.st9{clip-path:url(#SVGID_8_);fill:#E7F6FD;}
	.st10{clip-path:url(#SVGID_8_);fill:#004D71;}
</style>
<g id="Layer_1" class="st0">
	<g class="st1">
		<defs>
			<rect id="SVGID_1_" x="3.82" y="3.67" width="157.33" height="157.33"/>
		</defs>
		<clipPath id="SVGID_2_">
			<use xlink:href="#SVGID_1_"  style="overflow:visible;"/>
		</clipPath>
		<path class="st2" d="M82.48,161c43.44,0,78.66-35.22,78.66-78.66c0-43.44-35.22-78.66-78.66-78.66S3.82,38.89,3.82,82.34
			C3.82,125.78,39.04,161,82.48,161"/>
		<path class="st3" d="M116.85,107.2h-5.18V82.57h-2.59v24.62h-5.18V63.56c0-1.73,0.67-3.35,1.9-4.58c1.23-1.23,2.85-1.9,4.58-1.9
			c3.57,0,6.48,2.91,6.48,6.48V107.2z M116.85,115.84h-12.96v-6.05h12.96V115.84z M101.29,115.84H98.7V63.56
			c0-4.56-3.39-8.35-7.78-8.98v-7.44c0-0.48-0.07-0.91-0.19-1.3h17.03c0,0,0.38,0.02,0.72,0.19c0.29,0.14,0.58,0.39,0.58,1.11v7.44
			c-1.93,0.28-3.71,1.16-5.11,2.57c-1.72,1.72-2.66,3.99-2.66,6.41V115.84z M96.11,107.2h-5.18V82.57h-2.59v24.62h-5.18V63.56
			c0-1.73,0.68-3.35,1.9-4.58c1.23-1.23,2.85-1.9,4.58-1.9c3.57,0,6.48,2.91,6.48,6.48V107.2z M96.11,115.84H83.15v-6.05h12.96
			V115.84z M80.56,115.84h-2.59V87.76c0-9.33-7.25-17-16.42-17.66V47.16c0.02-0.6,0.25-1.31,1.3-1.31h24.18
			c0.6,0.01,1.31,0.25,1.31,1.3v7.44c-1.93,0.28-3.71,1.16-5.12,2.57c-1.71,1.72-2.66,3.99-2.66,6.41V115.84z M75.38,107.2H45.14
			v-9.5h26.35V95.1H45.14v-7.34c0-4.02,1.58-7.81,4.44-10.68c2.86-2.86,6.66-4.44,10.68-4.44c8.34,0,15.12,6.78,15.12,15.12V107.2z
			 M75.38,115.84H45.14v-6.05h30.24V115.84z M119.44,115.84V63.56c0-4.56-3.39-8.35-7.78-8.98v-7.44c0-2.85-2.33-3.89-3.89-3.89
			H62.85c-2.85,0-3.89,2.32-3.89,3.89v22.94c-4.23,0.31-8.17,2.11-11.22,5.15c-3.35,3.35-5.2,7.8-5.2,12.51v28.08h-3.89v2.59h84.67
			v-2.59H119.44z"/>
	</g>
	<rect x="88.34" y="73.93" class="st4" width="2.59" height="5.18"/>
	<rect x="109.07" y="73.93" class="st4" width="2.59" height="5.18"/>
	<rect x="49.02" y="101.15" class="st4" width="5.18" height="2.59"/>
	<rect x="57.66" y="101.15" class="st4" width="5.18" height="2.59"/>
</g>
<g id="Layer_2">
	<g>
		<defs>
			<rect id="SVGID_3_" x="4.14" y="3.95" width="157.33" height="157.33"/>
		</defs>
		<clipPath id="SVGID_4_">
			<use xlink:href="#SVGID_3_"  style="overflow:visible;"/>
		</clipPath>
		<path class="st5" d="M82.81,161.28c43.44,0,78.66-35.22,78.66-78.66c0-43.44-35.22-78.66-78.66-78.66S4.14,39.17,4.14,82.61
			C4.14,126.06,39.36,161.28,82.81,161.28"/>
		<path class="st6" d="M117.89,92.88l-0.12,0.14H47.84l-0.12-0.14c-0.85-1.02-2.04-5.4-2.04-11.94c0-6.54,1.19-10.92,2.04-11.94
			l0.12-0.14h69.93l0.12,0.14c0.85,1.02,2.04,5.4,2.04,11.94C119.93,87.48,118.73,91.86,117.89,92.88 M112.86,103.04
			c-2.06,0-3.73-1.67-3.73-3.73s1.67-3.73,3.73-3.73c2.06,0,3.73,1.67,3.73,3.73S114.92,103.04,112.86,103.04 M99.5,103.04
			c-2.06,0-3.73-1.67-3.73-3.73s1.67-3.73,3.73-3.73s3.73,1.67,3.73,3.73S101.56,103.04,99.5,103.04 M66.11,103.04
			c-2.06,0-3.73-1.67-3.73-3.73s1.67-3.73,3.73-3.73s3.73,1.67,3.73,3.73S68.17,103.04,66.11,103.04 M52.75,103.04
			c-2.06,0-3.73-1.67-3.73-3.73s1.67-3.73,3.73-3.73c2.06,0,3.73,1.67,3.73,3.73S54.81,103.04,52.75,103.04 M59.04,62.19h4.12v4.12
			h-4.12V62.19z M102.45,62.19h4.12v4.12h-4.12V62.19z M122.48,94.3c0-0.68-0.54-1.24-1.23-1.27l-0.55-0.02l0.2-0.51
			c1.51-3.93,1.58-10.32,1.58-11.56c0-6.75-1.21-14.64-4.62-14.64h-8.74v-4.12h0.39c0.7,0,1.28-0.57,1.28-1.28s-0.57-1.28-1.28-1.28
			H99.5c-0.71,0-1.28,0.57-1.28,1.28s0.57,1.28,1.28,1.28h0.39v4.12H65.72v-4.12h0.39c0.71,0,1.28-0.57,1.28-1.28
			s-0.57-1.28-1.28-1.28H56.09c-0.71,0-1.28,0.57-1.28,1.28s0.57,1.28,1.28,1.28h0.39v4.12h-8.74c-3.41,0-4.62,7.88-4.62,14.64
			c0,1.24,0.08,7.63,1.58,11.56l0.2,0.51l-0.55,0.02c-0.69,0.03-1.23,0.58-1.23,1.27c0,0.71,0.57,1.28,1.28,1.28h3.28l-0.34,0.59
			c-0.58,1-0.88,2.05-0.88,3.14c0,3.47,2.82,6.29,6.29,6.29c3.47,0,6.29-2.82,6.29-6.29c0-1.09-0.29-2.15-0.88-3.14l-0.34-0.59h3.22
			l-0.34,0.59c-0.58,1-0.88,2.05-0.88,3.14c0,3.47,2.82,6.29,6.29,6.29c3.47,0,6.29-2.82,6.29-6.29c0-1.09-0.29-2.15-0.88-3.14
			l-0.34-0.59h1.08l2.96,2.96c0.24,0.24,0.56,0.37,0.9,0.37h13.36c0.34,0,0.66-0.13,0.9-0.37l2.96-2.96h1.08l-0.34,0.59
			c-0.58,1-0.88,2.05-0.88,3.14c0,3.47,2.82,6.29,6.29,6.29c3.47,0,6.29-2.82,6.29-6.29c0-1.09-0.29-2.15-0.88-3.14l-0.34-0.59h3.22
			l-0.34,0.59c-0.58,1-0.88,2.05-0.88,3.14c0,3.47,2.82,6.29,6.29,6.29c3.47,0,6.29-2.82,6.29-6.29c0-1.09-0.29-2.15-0.88-3.14
			l-0.34-0.59h3.28C121.91,95.58,122.48,95,122.48,94.3"/>
	</g>
</g>
<g id="Layer_3" class="st0">
	<g class="st1">
		<defs>
			<rect id="SVGID_5_" x="4.14" y="3.95" width="157.33" height="157.33"/>
		</defs>
		<clipPath id="SVGID_6_">
			<use xlink:href="#SVGID_5_"  style="overflow:visible;"/>
		</clipPath>
		<path class="st7" d="M82.81,161.28c43.44,0,78.66-35.22,78.66-78.66c0-43.44-35.22-78.66-78.66-78.66S4.14,39.17,4.14,82.61
			C4.14,126.06,39.36,161.28,82.81,161.28"/>
		<path class="st8" d="M118.11,114.93h-3.78V72.06c0-0.7-0.56-1.26-1.26-1.26h0H52.55c-0.69,0-1.26,0.56-1.26,1.26v0v42.87H47.5
			V70.19l35.3-25.57l35.3,25.57V114.93z M111.81,114.93h-58V73.33h58V114.93z M120.11,68.52L83.55,42.04
			c-0.44-0.32-1.04-0.32-1.48,0L45.5,68.52c-0.33,0.24-0.52,0.62-0.52,1.02v46.65c0,0.7,0.56,1.26,1.26,1.26h0h73.13
			c0.7,0,1.26-0.56,1.26-1.26v0V69.54C120.63,69.14,120.44,68.76,120.11,68.52"/>
		<path class="st8" d="M68.94,109.89H58.85V99.8h3.78v2.52h2.52V99.8h3.78V109.89z M70.2,97.28H57.59c-0.7,0-1.26,0.56-1.26,1.26v0
			v12.61c0,0.7,0.56,1.26,1.26,1.26h0H70.2c0.7,0,1.26-0.56,1.26-1.26v0V98.54C71.46,97.85,70.89,97.28,70.2,97.28L70.2,97.28z"/>
		<path class="st8" d="M87.85,109.89H77.76V99.8h3.78v2.52h2.52V99.8h3.78V109.89z M89.11,97.28H76.5c-0.7,0-1.26,0.56-1.26,1.26v0
			v12.61c0,0.7,0.56,1.26,1.26,1.26h0h12.61c0.7,0,1.26-0.56,1.26-1.26v0V98.54C90.37,97.85,89.81,97.28,89.11,97.28L89.11,97.28z"
			/>
		<path class="st8" d="M106.76,109.89H96.68V99.8h3.78v2.52h2.52V99.8h3.78V109.89z M108.02,97.28H95.41c-0.7,0-1.26,0.56-1.26,1.26
			v0v12.61c0,0.7,0.56,1.26,1.26,1.26h0h12.61c0.7,0,1.26-0.56,1.26-1.26v0V98.54C109.28,97.85,108.72,97.28,108.02,97.28
			L108.02,97.28z"/>
		<path class="st8" d="M68.94,90.98H58.85V80.89h3.78v2.52h2.52v-2.52h3.78V90.98z M70.2,78.37H57.59c-0.7,0-1.26,0.56-1.26,1.26v0
			v12.61c0,0.69,0.56,1.26,1.26,1.26h0H70.2c0.7,0,1.26-0.56,1.26-1.26v0V79.63C71.46,78.93,70.89,78.37,70.2,78.37L70.2,78.37z"/>
		<path class="st8" d="M87.85,90.98H77.76V80.89h3.78v2.52h2.52v-2.52h3.78V90.98z M89.11,78.37H76.5c-0.7,0-1.26,0.56-1.26,1.26v0
			v12.61c0,0.69,0.56,1.26,1.26,1.26h0h12.61c0.7,0,1.26-0.56,1.26-1.26v0V79.63C90.37,78.93,89.81,78.37,89.11,78.37L89.11,78.37z"
			/>
		<path class="st8" d="M106.76,90.98H96.68V80.89h3.78v2.52h2.52v-2.52h3.78V90.98z M108.02,78.37H95.41c-0.7,0-1.26,0.56-1.26,1.26
			v0v12.61c0,0.69,0.56,1.26,1.26,1.26h0h12.61c0.7,0,1.26-0.56,1.26-1.26v0V79.63C109.28,78.93,108.72,78.37,108.02,78.37
			L108.02,78.37z"/>
	</g>
	<rect x="65.15" y="63.24" class="st4" width="35.3" height="2.52"/>
	<rect x="68.94" y="58.2" class="st4" width="26.48" height="2.52"/>
	<rect x="75.24" y="53.15" class="st4" width="15.13" height="2.52"/>
</g>
<g id="Layer_4" class="st0">
	<g class="st1">
		<defs>
			<rect id="SVGID_7_" x="4.14" y="3.95" width="157.33" height="157.33"/>
		</defs>
		<clipPath id="SVGID_8_">
			<use xlink:href="#SVGID_7_"  style="overflow:visible;"/>
		</clipPath>
		<path class="st9" d="M82.81,161.28c43.44,0,78.66-35.22,78.66-78.66c0-43.44-35.22-78.66-78.66-78.66S4.14,39.17,4.14,82.61
			C4.14,126.06,39.36,161.28,82.81,161.28"/>
		<path class="st10" d="M126.73,108.72H91.36V96.2h35.37V108.72z M90.24,79.14H58.02V66.46h35.37v12.68H90.24z M89.17,94.01H53.79
			V81.33h35.37V94.01z M89.17,108.72H53.79V96.2h35.37V108.72z M75.71,54.79l14.54,9.48H61.17L75.71,54.79z M127.84,94.01H91.36
			V81.33h3.13c0.61-0.02,1.1-0.53,1.1-1.14V65.35c0-0.29-0.12-0.56-0.33-0.77c-0.21-0.2-0.49-0.31-0.77-0.31h-0.22L76.8,52.87v-3.08
			c1.25-0.46,2.07-1.64,2.07-2.97c0-1.33-0.83-2.51-2.07-2.97V43.3h0.98c0.6,0,1.1-0.49,1.1-1.1c0-0.6-0.49-1.1-1.1-1.1H76.8V39
			c0-0.61-0.49-1.1-1.1-1.1c-0.6,0-1.09,0.49-1.09,1.1v2.1h-0.98c-0.6,0-1.1,0.49-1.1,1.1c0,0.61,0.49,1.1,1.1,1.1h0.98v1.45
			c0,0.61,0.49,1.1,1.09,1.1c0.54,0,0.98,0.44,0.98,0.98c0,0.54-0.44,0.98-0.98,0.98c-0.54,0-0.98-0.44-0.98-0.98
			c0-0.61-0.49-1.1-1.1-1.1c-0.61,0-1.1,0.49-1.1,1.1c-0.02,1.33,0.82,2.52,2.07,2.97v3.08l-17.45,11.4h-0.22
			c-0.29,0-0.57,0.11-0.78,0.31c-0.21,0.2-0.33,0.48-0.33,0.77v13.8h-3.14c-0.28-0.01-0.56,0.1-0.77,0.3
			c-0.21,0.2-0.32,0.47-0.32,0.76v29.7c0,0.6,0.5,1.02,1.1,1.02h75.13c0.6,0,1.09-0.42,1.09-1.02V95.04
			C128.92,94.44,128.44,94.01,127.84,94.01"/>
		<path class="st10" d="M101.06,108.33c0.6,0,1.1-0.49,1.1-1.1V97.7c0-0.6-0.49-1.1-1.1-1.1c-0.61,0-1.1,0.49-1.1,1.1v9.53
			C99.97,107.84,100.46,108.33,101.06,108.33"/>
		<path class="st10" d="M95.58,108.33c0.6,0,1.1-0.49,1.1-1.1V97.7c0-0.6-0.49-1.1-1.1-1.1c-0.61,0-1.1,0.49-1.1,1.1v9.53
			C94.49,107.84,94.98,108.33,95.58,108.33"/>
		<path class="st10" d="M111.71,108.33c0.6,0,1.1-0.49,1.1-1.1V97.7c0-0.6-0.49-1.1-1.1-1.1c-0.61,0-1.1,0.49-1.1,1.1v9.53
			C110.61,107.84,111.1,108.33,111.71,108.33"/>
		<path class="st10" d="M117.18,108.33c0.6,0,1.1-0.49,1.1-1.1V97.7c0-0.6-0.49-1.1-1.1-1.1c-0.61,0-1.1,0.49-1.1,1.1v9.53
			C116.09,107.84,116.58,108.33,117.18,108.33"/>
		<path class="st10" d="M106.38,108.33c0.6,0,1.1-0.49,1.1-1.1V97.7c0-0.6-0.49-1.1-1.1-1.1c-0.61,0-1.1,0.49-1.1,1.1v9.53
			C105.29,107.84,105.78,108.33,106.38,108.33"/>
		<path class="st10" d="M122.51,108.33c0.6,0,1.1-0.49,1.1-1.1V97.7c0-0.6-0.49-1.1-1.1-1.1c-0.61,0-1.1,0.49-1.1,1.1v9.53
			C121.41,107.84,121.9,108.33,122.51,108.33"/>
		<path class="st10" d="M63.5,108.33c0.61,0,1.1-0.49,1.1-1.1V97.7c0-0.6-0.49-1.1-1.1-1.1s-1.1,0.49-1.1,1.1v9.53
			C62.4,107.84,62.89,108.33,63.5,108.33"/>
		<path class="st10" d="M58.02,108.33c0.6,0,1.1-0.49,1.1-1.1V97.7c0-0.6-0.49-1.1-1.1-1.1c-0.61,0-1.1,0.49-1.1,1.1v9.53
			C56.92,107.84,57.41,108.33,58.02,108.33"/>
		<path class="st10" d="M74.14,108.33c0.6,0,1.1-0.49,1.1-1.1V97.7c0-0.6-0.49-1.1-1.1-1.1c-0.61,0-1.1,0.49-1.1,1.1v9.53
			C73.04,107.84,73.54,108.33,74.14,108.33"/>
		<path class="st10" d="M79.46,108.33c0.6,0,1.1-0.49,1.1-1.1V97.7c0-0.6-0.49-1.1-1.1-1.1c-0.61,0-1.1,0.49-1.1,1.1v9.53
			C78.37,107.84,78.86,108.33,79.46,108.33"/>
		<path class="st10" d="M68.82,108.33c0.6,0,1.1-0.49,1.1-1.1V97.7c0-0.6-0.49-1.1-1.1-1.1c-0.61,0-1.1,0.49-1.1,1.1v9.53
			C67.72,107.84,68.21,108.33,68.82,108.33"/>
		<path class="st10" d="M84.94,108.33c0.6,0,1.1-0.49,1.1-1.1V97.7c0-0.6-0.49-1.1-1.1-1.1c-0.61,0-1.1,0.49-1.1,1.1v9.53
			C83.84,107.84,84.34,108.33,84.94,108.33"/>
		<path class="st10" d="M67.72,66.91c-0.61,0-1.1,0.49-1.1,1.1v9.53c0,0.61,0.49,1.1,1.1,1.1c0.6,0,1.1-0.49,1.1-1.1v-9.53
			C68.82,67.4,68.33,66.91,67.72,66.91"/>
		<path class="st10" d="M62.25,66.91c-0.61,0-1.1,0.49-1.1,1.1v9.53c0,0.61,0.49,1.1,1.1,1.1c0.6,0,1.1-0.49,1.1-1.1v-9.53
			C63.34,67.4,62.85,66.91,62.25,66.91"/>
		<path class="st10" d="M78.37,66.91c-0.61,0-1.1,0.49-1.1,1.1v9.53c0,0.61,0.49,1.1,1.1,1.1c0.6,0,1.1-0.49,1.1-1.1v-9.53
			C79.46,67.4,78.97,66.91,78.37,66.91"/>
		<path class="st10" d="M83.69,66.91c-0.61,0-1.1,0.49-1.1,1.1v9.53c0,0.61,0.49,1.1,1.1,1.1c0.6,0,1.1-0.49,1.1-1.1v-9.53
			C84.78,67.4,84.29,66.91,83.69,66.91"/>
		<path class="st10" d="M73.05,66.91c-0.61,0-1.1,0.49-1.1,1.1v9.53c0,0.61,0.49,1.1,1.1,1.1c0.6,0,1.1-0.49,1.1-1.1v-9.53
			C74.14,67.4,73.65,66.91,73.05,66.91"/>
		<path class="st10" d="M89.17,66.91c-0.61,0-1.1,0.49-1.1,1.1v9.53c0,0.61,0.49,1.1,1.1,1.1c0.6,0,1.1-0.49,1.1-1.1v-9.53
			C90.26,67.4,89.77,66.91,89.17,66.91"/>
		<path class="st10" d="M63.34,93.48c0.6,0,1.1-0.49,1.1-1.1v-9.53c0-0.61-0.49-1.1-1.1-1.1c-0.61,0-1.1,0.49-1.1,1.1v9.53
			C62.24,92.99,62.74,93.48,63.34,93.48"/>
		<path class="st10" d="M58.02,93.48c0.6,0,1.1-0.49,1.1-1.1v-9.53c0-0.61-0.49-1.1-1.1-1.1c-0.61,0-1.1,0.49-1.1,1.1v9.53
			C56.92,92.99,57.41,93.48,58.02,93.48"/>
		<path class="st10" d="M74.14,93.48c0.6,0,1.1-0.49,1.1-1.1v-9.53c0-0.61-0.49-1.1-1.1-1.1c-0.61,0-1.1,0.49-1.1,1.1v9.53
			C73.04,92.99,73.54,93.48,74.14,93.48"/>
		<path class="st10" d="M79.46,93.48c0.6,0,1.1-0.49,1.1-1.1v-9.53c0-0.61-0.49-1.1-1.1-1.1c-0.61,0-1.1,0.49-1.1,1.1v9.53
			C78.37,92.99,78.86,93.48,79.46,93.48"/>
		<path class="st10" d="M68.82,93.48c0.6,0,1.1-0.49,1.1-1.1v-9.53c0-0.61-0.49-1.1-1.1-1.1c-0.61,0-1.1,0.49-1.1,1.1v9.53
			C67.72,92.99,68.21,93.48,68.82,93.48"/>
		<path class="st10" d="M84.94,93.48c0.6,0,1.1-0.49,1.1-1.1v-9.53c0-0.61-0.49-1.1-1.1-1.1c-0.61,0-1.1,0.49-1.1,1.1v9.53
			C83.84,92.99,84.34,93.48,84.94,93.48"/>
	</g>
</g>
</svg>
