<?xml version="1.0" encoding="UTF-8" standalone="no"?>
<svg
   xmlns:dc="http://purl.org/dc/elements/1.1/"
   xmlns:cc="http://creativecommons.org/ns#"
   xmlns:rdf="http://www.w3.org/1999/02/22-rdf-syntax-ns#"
   xmlns:svg="http://www.w3.org/2000/svg"
   xmlns="http://www.w3.org/2000/svg"
   id="svg7631"
   version="1.1"
   viewBox="0 0 74.435997 74.435997"
   height="74.435997mm"
   width="74.435997mm">
  <defs
     id="defs7625">
    <clipPath
       id="clipPath3101"
       clipPathUnits="userSpaceOnUse">
      <path
         id="path3099"
         d="M 0,0 H 1920 V 6826.783 H 0 Z" />
    </clipPath>
    <clipPath
       id="clipPath2977"
       clipPathUnits="userSpaceOnUse">
      <path
         id="path2975"
         d="M 0,0 H 1920 V 6826.783 H 0 Z" />
    </clipPath>
    <clipPath
       id="clipPath3125"
       clipPathUnits="userSpaceOnUse">
      <path
         id="path3123"
         d="M 0,0 H 1920 V 6826.783 H 0 Z" />
    </clipPath>
  </defs>
  <metadata
     id="metadata7628">
    <rdf:RDF>
      <cc:Work
         rdf:about="">
        <dc:format>image/svg+xml</dc:format>
        <dc:type
           rdf:resource="http://purl.org/dc/dcmitype/StillImage" />
        <dc:title></dc:title>
      </cc:Work>
    </rdf:RDF>
  </metadata>
  <g
     transform="translate(0,-222.564)"
     id="layer1">
    <g
       id="g8238"
       transform="matrix(0.35277777,0,0,-0.35277777,-225.77783,2040.3258)">
      <g
         id="g3087"
         transform="translate(745.5,4941.7109)">
        <path
           d="M 0,0 C 58.266,0 105.5,47.234 105.5,105.5 105.5,163.767 58.266,211 0,211 -58.266,211 -105.5,163.767 -105.5,105.5 -105.5,47.234 -58.266,0 0,0"
           style="fill:#e5f7fd;fill-opacity:1;fill-rule:nonzero;stroke:none"
           id="path3089" />
      </g>
      <path
         d="m 689.331,5005.15 h 3.393 v -3.511 h -3.393 z"
         style="fill:#034d70;fill-opacity:1;fill-rule:nonzero;stroke:none"
         id="path3115" />
      <path
         d="m 801.669,5001.64 h -3.393 v 3.511 h 3.393 z"
         style="fill:#034d70;fill-opacity:1;fill-rule:nonzero;stroke:none"
         id="path3117" />
      <g
         id="g3119">
        <g
           id="g3121"
           clip-path="url(#clipPath3125)">
          <g
             id="g3127"
             transform="translate(713.9605,5071.7666)">
            <path
               d="m 0,0 h 3.366 v -5.552 c 4.188,0.431 8.234,0.848 12.409,1.279 v 4.245 h 3.412 v -4.27 c 1.815,-0.091 3.486,-0.158 5.154,-0.263 8.253,-0.52 16.283,-2.066 23.95,-5.255 2.98,-1.24 4.26,-3.195 4.263,-6.446 0,-0.841 0.063,-1.688 -0.012,-2.522 -0.083,-0.908 0.316,-1.103 1.133,-1.112 4.904,-0.054 9.79,-0.402 14.562,-1.583 1.75,-0.434 3.445,-1.179 5.08,-1.96 1.46,-0.699 2.09,-1.958 2.083,-3.664 -0.046,-12.613 -0.031,-25.226 -0.035,-37.839 0,-0.51 0,-1.02 0,-1.676 h 5.197 v -3.367 h -98.04 v 3.303 h 3.437 v 1.261 c -10e-4,16.488 -0.002,32.976 -0.005,49.465 -0.001,3.538 1.305,5.53 4.653,6.704 2.783,0.976 5.612,1.832 8.451,2.636 0.774,0.219 0.975,0.525 0.956,1.263 C -0.03,-3.606 0,-1.857 0,0 m -0.029,-9.672 c -3.005,-1.008 -5.775,-1.902 -8.519,-2.87 -1.9,-0.67 -2.08,-1 -2.08,-2.956 10e-4,-16.636 10e-4,-33.273 0.005,-49.909 0,-0.387 0.033,-0.775 0.051,-1.159 h 59.705 v 1.497 c 0,8.665 0,17.331 0,25.996 0,7.751 -0.014,15.502 0.013,23.253 0.004,1.335 -0.455,2.24 -1.749,2.699 -0.997,0.354 -1.961,0.801 -2.955,1.164 -7.064,2.582 -14.398,3.752 -21.877,4.131 -1.079,0.055 -2.163,0.008 -3.363,0.008 V -61.23 h -3.424 c 0,1.901 0,3.723 0,5.545 10e-4,15.539 -0.006,31.078 0.024,46.617 0.002,1.009 -0.266,1.365 -1.292,1.248 C 12.805,-8.014 11.083,-8.065 9.378,-8.261 7.401,-8.489 5.434,-8.808 3.515,-9.08 v -6.714 h 8.578 V -19.25 H 3.511 v -10.588 h 8.585 v -3.453 H 3.509 v -12.34 h 8.59 v -3.448 h -8.71 v -12.146 h -3.418 z m 71.997,-56.942 v 2.196 c 0,11.881 0,23.763 10e-4,35.645 0,2.964 -0.008,2.933 -2.938,3.69 -4.695,1.215 -9.486,1.624 -14.308,1.846 -2.462,0.113 -2.018,0.119 -2.029,-1.899 -0.071,-13.526 -0.102,-27.053 -0.143,-40.579 -0.001,-0.282 0.037,-0.564 0.061,-0.899 z"
               style="fill:#034d70;fill-opacity:1;fill-rule:nonzero;stroke:none"
               id="path3129" />
          </g>
        </g>
      </g>
      <path
         d="m 759.44,5015.784 h -3.286 v 38.394 h 3.286 z"
         style="fill:#034d70;fill-opacity:1;fill-rule:nonzero;stroke:none"
         id="path3131" />
      <path
         d="m 756.122,5012.064 h 3.321 v -3.275 h -3.321 z"
         style="fill:#034d70;fill-opacity:1;fill-rule:nonzero;stroke:none"
         id="path3133" />
      <path
         d="m 782.241,5015.787 h -3.269 v 26.082 h 3.269 z"
         style="fill:#034d70;fill-opacity:1;fill-rule:nonzero;stroke:none"
         id="path3135" />
      <path
         d="m 782.272,5008.796 h -3.304 v 3.24 h 3.304 z"
         style="fill:#034d70;fill-opacity:1;fill-rule:nonzero;stroke:none"
         id="path3137" />
    </g>
  </g>
</svg>
